<?xml version="1.0" encoding="utf-8"?>
<!-- Generator: Adobe Illustrator 22.0.1, SVG Export Plug-In . SVG Version: 6.00 Build 0)  -->
<svg version="1.1" id="Layer_6" xmlns="http://www.w3.org/2000/svg" xmlns:xlink="http://www.w3.org/1999/xlink" x="0px" y="0px"
	 viewBox="0 0 16.6 11.4" style="enable-background:new 0 0 16.6 11.4;" xml:space="preserve">
<style type="text/css">
	.st0{fill:#003D78;}
	.st1{fill-rule:evenodd;clip-rule:evenodd;fill:#003D78;}
	.st2{opacity:0.17;fill:#003D78;}
	.st3{fill:none;stroke:#A6A8AB;stroke-width:0.5;stroke-miterlimit:10;}
</style>
<g>
	<g>
		<g>
			<g>
				<g>
					<g id="XMLID_81_">
						<g>
							<rect id="XMLID_90_" x="1.9" y="9.6" class="st0" width="12.7" height="1"/>
							<rect id="XMLID_89_" x="2.4" y="8.7" class="st0" width="11.6" height="0.6"/>
							<rect id="XMLID_88_" x="2.4" y="3.2" class="st0" width="11.6" height="0.6"/>
							<rect id="XMLID_87_" x="3.5" y="4.1" class="st0" width="1.5" height="4.3"/>
							<rect id="XMLID_86_" x="6.1" y="4.1" class="st0" width="1.5" height="4.3"/>
							<rect id="XMLID_85_" x="8.7" y="4.1" class="st0" width="1.5" height="4.3"/>
							<rect id="XMLID_84_" x="11.4" y="4.1" class="st0" width="1.5" height="4.3"/>
							<polygon id="XMLID_82_" class="st0" points="2.7,2.6 14,2.6 8.2,0.6 							"/>
						</g>
					</g>
				</g>
			</g>
		</g>
		<g>
			<g>
				<g>
					<g>
						<g>
							<g>
								<g>
									<path class="st0" d="M14.3,33.7c0,0.7-0.2,1.4-0.7,2c-0.8,1.1-2.2,1.8-3.7,2.2c1.5,0.1,3.1-0.1,4.4-0.7
										c1.6-0.8,2.5-2,2.4-3.3C15.9,33.7,15.1,33.6,14.3,33.7z"/>
								</g>
								<g>
									<path class="st0" d="M13.3,32c-0.9,0.1-1.7,0.3-2.4,0.6c0.4,0.6,0.6,1.2,0.6,1.8c0,1.3-0.9,2.5-2.3,3.3
										c1.7-0.2,3.3-1,4.1-2.1C14.3,34.5,14.2,33.1,13.3,32z"/>
								</g>
								<g>
									<path class="st0" d="M3.3,33.7c0,0.7,0.2,1.4,0.7,2c0.8,1.1,2.2,1.8,3.7,2.2c-1.5,0.1-3.1-0.1-4.4-0.7
										c-1.6-0.8-2.5-2-2.4-3.3C1.7,33.7,2.5,33.6,3.3,33.7z"/>
								</g>
								<g>
									<path class="st0" d="M4.2,32c0.9,0.1,1.7,0.3,2.4,0.6c-0.4,0.6-0.6,1.2-0.6,1.8c0,1.3,0.9,2.5,2.3,3.3
										c-1.7-0.2-3.3-1-4.1-2.1C3.3,34.5,3.4,33.1,4.2,32z"/>
								</g>
								<g>
									<path class="st0" d="M6.3,34.5c0,1.3,1,2.5,2.5,3.3c1.5-0.7,2.5-1.9,2.5-3.3c0-1.3-1-2.5-2.5-3.3
										C7.3,31.9,6.3,33.1,6.3,34.5z"/>
								</g>
							</g>
						</g>
						<rect x="3.8" y="37.5" class="st0" width="10.1" height="1.1"/>
					</g>
				</g>
			</g>
			
				<text transform="matrix(1 0 0 1 3.0884 37.6647)" style="font-family:'Averta-Regular'; font-size:10.4831px; letter-spacing:2;">    - CONVENTION CENTER</text>
		</g>
		<g>
			<path class="st0" d="M17.2,68.7V63h-1.4v-0.8h0.3v-0.5h-1v-0.4h-0.2c0-0.1,0-0.3-0.1-0.5c-0.2-0.2-0.3-0.2-0.4-0.4
				c0-0.2,0.1-0.3,0.1-0.3l0-0.2c0,0,0.4-0.6,0.3-0.6c-0.1,0-0.4,0.5-0.4,0.5l-0.2,0c0,0-0.2-0.6-0.3-0.5c-0.1,0,0.2,0.6,0.2,0.6
				s-0.1,0.2-0.1,0.3c0.1,0.1,0.2,0.2,0.1,0.3c-0.1,0-0.1,0.2-0.2,0.2c-0.1-0.1-0.2-0.1-0.2,0c0,0.1-0.2,0.1-0.1,0.3
				c0,0.1,0.1,0.3,0.1,0.4h-0.1v0.4h-0.4l-4-1.7v-0.8l-0.3-0.5v-0.3l0,0h0l0,0v0.3l-0.3,0.5V60l-4,1.7H3.9v-0.4H3.8
				c0-0.1,0.1-0.2,0.1-0.4c0-0.2-0.1-0.3-0.1-0.3c0-0.1-0.1-0.1-0.2,0c-0.1,0-0.1-0.1-0.2-0.2c-0.1-0.1,0.1-0.1,0.1-0.3
				c0-0.1-0.1-0.3-0.1-0.3s0.3-0.6,0.2-0.6c-0.1,0-0.3,0.5-0.3,0.5l-0.2,0c0,0-0.3-0.5-0.4-0.5c-0.1,0,0.3,0.6,0.3,0.6l0,0.2
				c0,0,0.1,0.2,0.1,0.3c0,0.2-0.1,0.1-0.4,0.4c-0.2,0.2-0.1,0.4-0.1,0.5H2.4v0.4H1.6v0.5h0.2V63H0.4v5.8H0.2v0.7h17.3v-0.7H17.2z
				 M1.8,66.4H0.9v-1.6h0.9V66.4z M2,61.9h13.6v0.3H2V61.9z M3.2,62.5c0.6,0,1.2,0.4,1.4,0.9H1.8C2,62.9,2.6,62.5,3.2,62.5z
				 M3.7,68.7H2.8v-1.4c0,0,0.1-0.4,0.5-0.4c0.4,0,0.5,0.4,0.5,0.4V68.7z M3.7,66.3H2.8v-1.6h0.9V66.3z M5.6,68.7H4.6v-1.4
				c0,0,0.1-0.4,0.5-0.4c0.4,0,0.5,0.4,0.5,0.4V68.7z M5.6,66.3H4.6v-1.6h0.9V66.3z M7.4,68.7H6.5v-1.4c0,0,0.1-0.4,0.5-0.4
				c0.4,0,0.5,0.4,0.5,0.4V68.7z M7.4,66.3H6.5v-1.6h0.9V66.3z M9.3,68.7H8.4v-1.4c0,0,0.1-0.4,0.5-0.4c0.4,0,0.5,0.4,0.5,0.4V68.7z
				 M9.3,66.3H8.4v-1.6h0.9V66.3z M11.2,68.7h-0.9v-1.4c0,0,0.1-0.4,0.5-0.4c0.4,0,0.5,0.4,0.5,0.4V68.7z M11.2,66.3h-0.9v-1.6h0.9
				V66.3z M13,68.7h-0.9v-1.4c0,0,0.1-0.4,0.5-0.4c0.4,0,0.5,0.4,0.5,0.4V68.7z M13,66.3h-0.9v-1.6H13V66.3z M14.9,68.7H14v-1.4
				c0,0,0.1-0.4,0.5-0.4c0.4,0,0.5,0.4,0.5,0.4V68.7z M14.9,66.3H14v-1.6h0.9V66.3z M13,63.4c0.2-0.5,0.8-0.9,1.4-0.9
				c0.6,0,1.2,0.4,1.4,0.9H13z M16.7,66.4h-0.9v-1.6h0.9V66.4z"/>
			
				<text transform="matrix(1 0 0 1 3.0884 67.9011)" style="font-family:'Averta-Regular'; font-size:10.4831px; letter-spacing:2;">    - OPERA HOUSE</text>
		</g>
		<g>
			<path class="st0" d="M15.6,95.2V95h-0.2v-0.7h0.2V94h-5.4v-0.2H9.9v-0.2H9.2c0,0,0,0,0,0c0,0,0.1-0.3,0.2-0.3
				c0.1-0.1,0.2-0.1,0.2-0.1c0,0,0,0.2,0,0.2l0,0.1c0,0,0,0.1,0.1,0.1c0,0,0.1-0.1,0-0.1c0-0.1,0-0.3,0-0.4c0-0.1-0.1-0.1-0.1-0.1
				s0,0,0-0.1c0-0.1-0.1-0.2-0.1-0.2s0-0.1,0-0.1c0-0.1,0-0.2,0-0.2s0,0.1,0,0.1c0,0,0,0,0,0s0,0,0.1,0c0,0,0.1-0.1,0-0.1
				c0,0,0-0.1,0-0.1c0,0,0-0.1,0-0.1c0,0,0-0.1,0-0.1c0,0,0-0.1,0-0.1c0,0,0-0.1,0-0.1l-0.1,0l0,0l0,0c0,0,0,0-0.1,0
				c0,0-0.1,0.1-0.2,0.2c-0.1,0.1-0.1,0.4-0.1,0.4c0,0-0.1,0.1-0.1,0.2c0,0.1-0.1,0.1-0.3,0.2c-0.1,0.1-0.1,0.4,0,0.5
				c0.1,0.1,0,0.2,0,0.2l0,0H8.4c0,0,0-0.1,0-0.2c0-0.1,0.1-0.3,0.1-0.3c0-0.1,0-0.3,0-0.4c0-0.1-0.1-0.2-0.1-0.3c0-0.1,0-0.3,0-0.3
				c0-0.1,0-0.1,0-0.2c0,0,0-0.1,0-0.1c0,0,0,0,0,0c0,0,0-0.1,0-0.1l0,0.1c0,0,0,0-0.1,0c0,0,0,0-0.1,0c0,0,0,0,0,0.1c0,0,0,0,0,0.1
				c0,0,0,0.1,0,0.1c0,0,0,0.1,0,0.1c0,0.1,0.1,0.1,0,0.3c0,0.1,0,0.1,0,0.1v0c0-0.1,0-0.2-0.1-0.2c0,0-0.1,0-0.1,0
				c-0.1,0,0,0.1,0,0.1s-0.1,0-0.1-0.1c-0.1,0,0.1-0.2,0.1-0.2c0,0,0-0.1-0.1-0.1c0,0-0.1,0-0.1,0v-0.1h0v-0.2
				c0.1,0,0.2-0.1,0.2-0.3s-0.1-0.2-0.2-0.3V91c0,0,0,0,0,0s0,0,0,0c0,0,0,0,0,0c0,0,0-0.1,0-0.1s0.1,0,0.1,0c0,0,0-0.1,0-0.1
				c0.1,0,0.1-0.1,0.1-0.1c0,0,0,0,0,0c0,0,0-0.1,0-0.1c0,0,0-0.1,0-0.1c0,0,0-0.1,0-0.1c0,0,0-0.1,0-0.1c0,0-0.3,0.2-0.3,0.2
				s-0.1,0,0,0.1c0,0-0.1,0.1-0.1,0.1s0-0.1,0-0.1c0,0,0,0-0.1-0.1v0l0,0l0,0v0c0,0-0.1,0-0.1,0.1c0,0,0,0.1,0,0.1s-0.1,0-0.1-0.1
				c0,0,0-0.1,0-0.1s-0.3-0.2-0.3-0.2c0,0,0,0,0,0.1c0,0,0,0,0,0.1c0,0,0,0,0,0.1c0,0,0,0,0,0.1c0,0,0,0,0,0c0,0,0.1,0.1,0.1,0.1
				c0,0,0,0.1,0,0.1c0,0,0.1,0,0.1,0S7.4,91,7.4,91c0,0,0-0.1,0,0c0,0,0,0,0,0s0,0,0,0v0.2c-0.1,0-0.2,0.1-0.2,0.3s0.1,0.2,0.2,0.3
				v0.2c-0.1,0-0.2,0.2-0.2,0.3c0,0,0,0.1,0,0.1c-0.1,0-0.1,0.3-0.1,0.3s0-0.1-0.1-0.2c0-0.2,0-0.2,0-0.3c0-0.1,0-0.1,0-0.1
				c0,0,0-0.1,0-0.1c0,0,0,0,0-0.1c0,0,0-0.1,0-0.1c0,0-0.1,0-0.1,0c0,0-0.1,0-0.1,0l0-0.1c0,0,0,0.1,0,0.1c0,0,0,0,0,0
				c0,0,0,0,0,0.1c0,0,0,0.1,0,0.2c0,0.1,0,0.3,0,0.3c0,0.1-0.1,0.2-0.1,0.3c0,0.1,0,0.3,0,0.4c0,0.1,0.1,0.2,0.1,0.3
				c0,0.1,0,0.1,0,0.2H6.5l0,0c0,0-0.1-0.1,0-0.2c0.1-0.1,0.1-0.4,0-0.5c-0.1-0.1-0.2-0.2-0.3-0.2c0-0.1-0.1-0.2-0.1-0.2
				c0,0-0.1-0.3-0.1-0.4c-0.1-0.1-0.2-0.2-0.2-0.2c0,0-0.1,0-0.1,0l0,0l0,0l-0.1,0c0,0,0,0.1,0,0.1c0,0,0,0.1,0,0.1c0,0,0,0,0,0.1
				c0,0,0,0.1,0,0.1c0,0,0,0.1,0,0.1c0,0,0,0.1,0,0.1c0,0,0.1,0,0.1,0s0,0,0,0c0,0,0-0.1,0-0.1s0,0.1,0,0.2c0,0.1,0,0.1,0,0.1
				s-0.1,0.2-0.1,0.2c0,0.1,0,0.1,0,0.1s-0.1,0-0.1,0.1c0,0.1,0,0.3,0,0.4c0,0.1,0,0.1,0,0.1c0,0,0.1-0.1,0.1-0.1l0-0.1
				c0,0,0-0.2,0-0.2c0,0,0.1,0.1,0.2,0.1C6,93.3,6,93.5,6.1,93.6c0,0,0,0,0,0H5.4v0.2H5.1V94h-5.4v0.3h0.2V95h-0.2v0.3H-1l0.2,0.3
				v0.5h0.4v0.8h0v0.3h0.2v4.8h1.3v-4.8h0.2v-0.3h1.1v0.3h0.2v4.8h1.3v-4.8h0.2v-0.3h1.1v0.3h0.2v4.8h1.3v-4.8h0.2v-0.3h1.1v0.3h0.2
				v4.8h1.3v-4.8h0.2v-0.3H11v0.3h0.2v4.8h1.3v-4.8h0.2v-0.3h1.1v0.3h0.2v4.8h1.3v-4.8h0.2v-0.3h0v-0.8H16v-0.5l0.2-0.3H15.6z
				 M7.6,91.4c0,0,0-0.1,0.1-0.1c0,0,0.1,0,0.1,0.1C7.7,91.4,7.6,91.4,7.6,91.4L7.6,91.4L7.6,91.4z M7.6,91.5c0,0,0.1,0,0.1,0.1
				c0,0,0,0.1-0.1,0.1C7.6,91.6,7.6,91.6,7.6,91.5L7.6,91.5L7.6,91.5z M7.4,91.3c0,0,0,0.1,0.1,0.1l0,0.1l-0.1,0
				C7.4,91.4,7.4,91.4,7.4,91.3C7.4,91.3,7.4,91.3,7.4,91.3z M7.5,91.5c0,0,0,0.1-0.1,0.1c0,0-0.1,0-0.1-0.1
				C7.4,91.5,7.4,91.5,7.5,91.5L7.5,91.5L7.5,91.5z M9.1,93.5L9.1,93.5L9.1,93.5L9.1,93.5z M6.3,93.5L6.3,93.5L6.3,93.5L6.3,93.5z"
				/>
			
				<text transform="matrix(1 0 0 1 3.0884 100.781)" style="font-family:'Averta-Regular'; font-size:10.4831px; letter-spacing:2;">    - VISITORS CENTER</text>
		</g>
		<g>
			<g>
				<g>
					<path class="st0" d="M1.7,126.9c0.1-0.2,0.3-0.2,0.6-0.2c0.4,0,0.9,0,1.4,0c0-0.2,0-0.4,0-0.5c0-0.4,0.1-0.5,0.6-0.5
						c1.5,0,3,0,4.5,0c0.1,0,0.3,0,0.5,0c0-0.6,0-1.2,0-1.8c0-0.3,0.2-0.4,0.5-0.3c0.1,0,0.3,0.1,0.4,0.2c0,0-0.1,0.1-0.1,0.1
						c0.5,0,0.9,0,1.4,0c0.4,0,0.5,0.1,0.5,0.4c0,0.2,0,0.4,0,0.6c0,0.2-0.1,0.4-0.5,0.4c-0.5,0-1,0-1.5,0c0,0.2,0,0.3,0,0.5
						c0.1,0,0.3,0,0.4,0c1.5,0,3,0,4.5,0c0.6,0,0.7,0.1,0.7,0.5c0,0.2,0,0.3,0,0.5c0.5,0,0.9,0,1.4,0c0.3,0,0.5,0,0.6,0.2
						c0,2.2,0,4.3,0,6.5c-0.2,0.1-0.4,0.2-0.6,0.2c-4.9,0-9.8,0-14.7,0c-0.2,0-0.4-0.1-0.6-0.2C1.7,131.2,1.7,129.1,1.7,126.9z
						 M2.6,127.3c0,1.9,0,3.8,0,5.7c4.8,0,9.5,0,14.3,0c0-1.9,0-3.8,0-5.7C12.1,127.3,7.4,127.3,2.6,127.3z"/>
					<path class="st0" d="M15.3,132.6c-0.1,0-0.2,0-0.4,0c-0.5,0-0.5,0-0.5-0.4c0-0.4,0-0.4,0.5-0.4c0.3,0,0.6,0,1,0
						c0.3,0,0.4,0.1,0.4,0.3c0,0.1,0,0.1,0,0.2c0,0.2-0.1,0.3-0.4,0.3C15.7,132.6,15.5,132.6,15.3,132.6z"/>
					<path class="st0" d="M4.1,131.9c0.1,0,0.3,0,0.4,0c0.5,0,0.5,0,0.5,0.4c0,0.4,0,0.4-0.5,0.4c-0.3,0-0.7,0-1,0
						c-0.3,0-0.4-0.1-0.4-0.3c0-0.1,0-0.2,0-0.3c0-0.2,0.1-0.2,0.3-0.2C3.7,131.9,3.9,131.9,4.1,131.9z"/>
					<path class="st0" d="M15.3,131.2c-0.1,0-0.3,0-0.4,0c-0.5,0-0.5,0-0.5-0.4c0-0.4,0-0.4,0.5-0.4c0.3,0,0.7,0,1,0
						c0.2,0,0.3,0.1,0.3,0.2c0,0.1,0,0.2,0,0.3c0,0.2-0.1,0.2-0.3,0.2C15.8,131.2,15.5,131.2,15.3,131.2z"/>
					<path class="st0" d="M4.1,131.2c-0.1,0-0.2,0-0.4,0c-0.5,0-0.8-0.3-0.6-0.6c0-0.1,0.2-0.1,0.3-0.1c0.4,0,0.9,0,1.3,0
						c0.1,0,0.3,0.1,0.3,0.2c0.1,0.5,0.1,0.6-0.7,0.6C4.3,131.2,4.2,131.2,4.1,131.2z"/>
					<path class="st0" d="M4.1,128.4c-0.1,0-0.3,0-0.4,0c-0.6,0-0.6,0-0.6-0.4c0-0.3,0-0.4,0.5-0.4c0.4,0,0.7,0,1.1,0
						c0.2,0,0.4,0.1,0.3,0.3c0,0.1,0,0.1,0,0.2c0,0.2-0.1,0.3-0.4,0.3C4.4,128.4,4.3,128.4,4.1,128.4z"/>
					<path class="st0" d="M12.5,132.6c-0.1,0-0.3,0-0.4,0c-0.5,0-0.5,0-0.5-0.4c0-0.4,0-0.4,0.5-0.4c0.3,0,0.7,0,1,0
						c0.2,0,0.4,0.1,0.3,0.3c0,0.1,0,0.2,0,0.3c0,0.2-0.1,0.2-0.3,0.2C13,132.6,12.8,132.6,12.5,132.6z"/>
					<path class="st0" d="M9.6,132.6c-0.1,0-0.2,0-0.3,0c-0.6,0-0.8-0.2-0.6-0.6c0-0.1,0.2-0.2,0.3-0.2c0.4,0,0.9,0,1.3,0
						c0.1,0,0.2,0.1,0.3,0.2c0,0.1,0,0.2,0,0.2c0,0.3-0.1,0.4-0.4,0.3C10,132.6,9.8,132.6,9.6,132.6z"/>
					<path class="st0" d="M6.8,132.6c-0.1,0-0.3,0-0.4,0c-0.5,0-0.5,0-0.5-0.4c0-0.4,0-0.4,0.5-0.4c0.3,0,0.7,0,1,0
						c0.2,0,0.3,0.1,0.3,0.2c0,0.5,0,0.5-0.7,0.5C7,132.6,6.9,132.6,6.8,132.6z"/>
					<path class="st0" d="M15.3,129.8c-0.1,0-0.2,0-0.2,0c-0.7,0-0.7,0-0.7-0.5c0-0.2,0.1-0.3,0.4-0.3c0.4,0,0.8,0,1.2,0
						c0.2,0,0.3,0.1,0.3,0.2c0,0.1,0,0.2,0,0.3c0,0.2-0.1,0.3-0.4,0.3C15.7,129.8,15.5,129.8,15.3,129.8z"/>
					<path class="st0" d="M12.6,129c0.1,0,0.3,0,0.4,0c0.5,0,0.5,0,0.5,0.4c0,0.4,0,0.4-0.5,0.4c-0.3,0-0.7,0-1,0
						c-0.2,0-0.3-0.1-0.3-0.2c0-0.5,0-0.5,0.6-0.5C12.4,129,12.5,129,12.6,129z"/>
					<path class="st0" d="M6.9,129.8c-0.1,0-0.3,0-0.4,0c-0.5,0-0.8-0.3-0.5-0.7c0-0.1,0.2-0.1,0.3-0.1c0.4,0,0.9,0,1.3,0
						c0.1,0,0.3,0.1,0.3,0.2c0.1,0.5,0,0.6-0.6,0.6C7.1,129.8,7,129.8,6.9,129.8z"/>
					<path class="st0" d="M4.1,129c0.1,0,0.3,0,0.4,0c0.5,0,0.5,0,0.5,0.4c0,0.4,0,0.4-0.5,0.4c-0.3,0-0.7,0-1,0
						c-0.2,0-0.4-0.1-0.3-0.3c0-0.1,0-0.2,0-0.2c0-0.2,0.1-0.3,0.3-0.3C3.7,129.1,3.9,129,4.1,129z"/>
					<path class="st0" d="M15.4,127.6c0.1,0,0.2,0,0.3,0c0.6,0,0.6,0,0.6,0.5c0,0.2-0.1,0.3-0.4,0.3c-0.4,0-0.7,0-1.1,0
						c-0.3,0-0.4-0.1-0.4-0.3c0-0.1,0-0.2,0-0.2c0-0.2,0.1-0.3,0.4-0.3C15,127.6,15.2,127.6,15.4,127.6z"/>
					<path class="st0" d="M12.6,128.4c-0.1,0-0.3,0-0.4,0c-0.5,0-0.5,0-0.5-0.4c0-0.4,0-0.4,0.5-0.4c0.3,0,0.7,0,1,0
						c0.2,0,0.4,0.1,0.3,0.3c0,0.1,0,0.2,0,0.3c0,0.2-0.1,0.3-0.3,0.2C13,128.4,12.8,128.4,12.6,128.4z"/>
					<path class="st0" d="M6.8,128.4c-0.1,0-0.2,0-0.3,0c-0.6,0-0.8-0.1-0.6-0.6c0-0.1,0.2-0.2,0.3-0.2c0.4,0,0.8,0,1.2,0
						c0.2,0,0.3,0.1,0.3,0.2c0,0.1,0,0.2,0,0.2c0,0.2-0.1,0.3-0.4,0.3C7.2,128.4,7,128.4,6.8,128.4z"/>
					<path class="st0" d="M6.9,131.2c-0.1,0-0.3,0-0.4,0c-0.5,0-0.5,0-0.5-0.4c0-0.4,0-0.4,0.5-0.4c0.3,0,0.7,0,1,0
						c0.2,0,0.4,0.1,0.4,0.3c0,0.5,0,0.5-0.6,0.5C7.1,131.2,7,131.2,6.9,131.2z"/>
					<path class="st0" d="M9.6,131.2c-0.1,0-0.2,0-0.3,0c-0.6,0-0.8-0.2-0.6-0.6c0-0.1,0.2-0.2,0.3-0.2c0.4,0,0.8,0,1.2,0
						c0.2,0,0.4,0.1,0.3,0.3c0,0.1,0,0.1,0,0.2c0,0.2-0.1,0.3-0.4,0.3C10,131.2,9.8,131.2,9.6,131.2z"/>
					<path class="st0" d="M12.6,131.2c-0.1,0-0.2,0-0.3,0c-0.6,0-0.8-0.2-0.6-0.6c0-0.1,0.2-0.1,0.2-0.1c0.4,0,0.9,0,1.3,0
						c0.1,0,0.2,0.1,0.3,0.2c0,0.1,0.1,0.2,0,0.3c-0.1,0.1-0.2,0.2-0.3,0.2C13,131.3,12.8,131.2,12.6,131.2z"/>
					<path class="st0" d="M9.6,129.8c-0.1,0-0.3,0-0.4,0c-0.5,0-0.5,0-0.5-0.4c0-0.4,0-0.4,0.5-0.4c0.4,0,0.7,0,1.1,0
						c0.2,0,0.3,0.1,0.3,0.2c0,0.1,0,0.2,0,0.3c0,0.2-0.1,0.3-0.4,0.3C10,129.8,9.8,129.8,9.6,129.8z"/>
					<path class="st0" d="M9.6,128.4c-0.1,0-0.3,0-0.4,0c-0.5,0-0.6,0-0.6-0.4c0-0.3,0-0.4,0.5-0.4c0.4,0,0.7,0,1.1,0
						c0.3,0,0.4,0.1,0.4,0.3c0,0.1,0,0.2,0,0.2c0,0.2-0.1,0.3-0.4,0.3C10,128.4,9.8,128.4,9.6,128.4z"/>
				</g>
			</g>
			
				<text transform="matrix(1 0 0 1 3.0884 128.9401)" style="font-family:'Averta-Regular'; font-size:10.4831px; letter-spacing:2;">    - SPORTS ARENA</text>
		</g>
		<g>
			<g>
				<g>
					<path class="st0" d="M3.1,160.5c1-0.6,2-0.6,3.1-0.2c0.9,0.4,1.7,0.9,2.5,1.4c0.1,0,0.1,0.1,0.2,0.1c0,0,0.1,0,0.1,0.1
						c0,0,0-0.1,0-0.1c-0.8-0.7-1.7-1.5-2.7-2c-0.9-0.5-1.8-0.5-2.7-0.2c-0.3,0.1-0.5,0.2-0.8,0.3c0.3-0.4,0.6-0.7,1.1-0.9
						c1.1-0.4,2.2-0.2,3.1,0.4c0.3,0.2,0.5,0.3,0.8,0.5c-0.1-0.3-0.9-1-1.5-1.3c-0.6-0.3-1.2-0.4-1.9-0.4c0.4-0.4,1-0.5,1.6-0.3
						c0.6,0.2,1.2,0.6,1.7,1c0,0,0.1,0,0.1,0c-0.4-0.6-0.9-1-1.6-1.4c0.1,0,0.2,0,0.2,0c1.2-0.1,2.2,0.4,3.1,1.3
						c0.4,0.4,0.8,0.7,1.4,0.8c0.4,0.1,0.8,0.1,1.1,0.1c1.2-0.1,2.3-0.4,3.3-0.9c0.3-0.1,0.5-0.3,0.7-0.5c0.1-0.1,0.3-0.3,0.2-0.5
						c-0.1-0.2-0.3-0.3-0.5-0.3c-1.9-0.3-3.7-0.4-5.6-0.3c-0.6,0-1.2,0.1-1.8,0.1c0.4-0.1,0.8-0.1,1.2-0.2c0.8-0.1,1.6-0.2,2.4-0.2
						c1.1,0,2.3,0,3.4,0c0.6,0,1.1,0.2,1.7,0.3c0,0,0.1,0,0.1,0c0.3,0.2,0.4,0.3,0.2,0.6c-0.5,0.7-1.2,1.1-1.9,1.4
						c-1.1,0.5-2.3,0.7-3.5,0.8c-0.1,0-0.1,0-0.2,0.1c0.8,0.1,1.7,0.1,2.5-0.1c-0.3,0.8-0.8,1.4-1.3,2.1c0.1,0,0.1-0.1,0.2-0.1
						c0.4-0.5,0.8-1,1.3-1.5c0.2-0.2,0.4-0.4,0.6-0.6c0,0,0.1,0,0.2-0.1c-0.3,0.8-0.9,1.4-1.4,1.9c0,0,0,0,0.1,0.1
						c0.2-0.3,0.5-0.5,0.7-0.8c0.2-0.3,0.5-0.6,0.7-0.9c0.2-0.3,0.5-0.5,0.8-0.7c-0.3,0.7-0.8,1.2-1.3,1.7c0,0,0,0,0,0.1
						c0.2-0.2,0.4-0.3,0.6-0.5c0.2-0.2,0.4-0.4,0.6-0.6c0.2-0.2,0.3-0.4,0.5-0.6c0.2-0.2,0.4-0.4,0.5-0.6c-0.3,0.9-1.4,2.2-2.7,2.9
						c-1.2,0.7-2.5,1.1-3.9,0.7c0,0,0,0,0,0.1c0.1,0,0.2,0.1,0.4,0.1c1.1,0.3,2.2,0.2,3.2-0.4c0.6-0.3,1.2-0.7,1.7-1.3
						c0,0.1,0,0.1-0.1,0.2c-0.4,0.6-0.9,1.3-1.3,1.9c-0.1,0.2-0.2,0.2-0.4,0.2c-1.7,0-3.5,0-5.2,0c-0.1,0-0.3-0.1-0.4-0.2
						c-0.4-0.4-0.9-0.8-1.4-1c-0.6-0.3-1.2-0.3-1.9-0.1c-0.1,0-0.2,0-0.2,0C4.4,161.5,3.8,161,3.1,160.5
						C3.1,160.6,3.1,160.5,3.1,160.5z"/>
					<path class="st0" d="M16.5,164.1c-0.1,0-0.2,0-0.3,0c-3.3,0-6.5,0-9.8,0c-1.2,0-2.3,0-3.5,0c-0.1,0-0.2-0.1-0.3-0.1
						c0.1,0,0.2-0.1,0.3-0.1c4.5,0,8.9,0,13.4,0c0.1,0,0.2,0,0.3,0C16.5,164,16.5,164.1,16.5,164.1z"/>
					<path class="st0" d="M16.8,163.7c-4.6,0-9.3,0-13.9,0c0,0,0-0.1,0-0.1c0.1,0,0.2,0,0.3,0c1.9,0,3.8,0,5.8,0c2.5,0,5.1,0,7.6,0
						C16.7,163.6,16.8,163.6,16.8,163.7C16.8,163.7,16.8,163.7,16.8,163.7z"/>
					<path class="st0" d="M15.6,164.4c-4.6,0-9.3,0-13.9,0c0,0,0,0,0-0.1c0.1,0,0.1-0.1,0.2-0.1c0.4,0,0.8,0,1.2,0
						c4.1,0,8.2,0,12.3,0C15.4,164.3,15.5,164.3,15.6,164.4C15.6,164.4,15.6,164.4,15.6,164.4z"/>
					<path class="st0" d="M8.7,158.1c2.2-0.2,4.3-0.3,6.5-0.1c-0.1,0-0.2,0-0.2,0c-0.9,0-1.8,0-2.8,0.1c-0.9,0.1-1.8,0.2-2.7,0.4
						c-0.1,0-0.2,0-0.3-0.1C9,158.3,8.9,158.2,8.7,158.1z"/>
					<path class="st0" d="M6.9,163.4c-0.3,0-0.7,0-1,0c-0.5,0-0.9,0-1.4,0c-0.1,0-0.2,0-0.2-0.2c0-0.5,0.4-0.7,0.8-0.6
						C5.8,162.7,6.3,163,6.9,163.4C6.8,163.3,6.8,163.4,6.9,163.4z"/>
					<path class="st0" d="M9.5,158.7c1.4-0.2,2.8-0.4,4.3-0.4c-0.4,0-0.7,0.1-1.1,0.1c-1,0.1-1.9,0.3-2.9,0.4
						c-0.1,0-0.2-0.1-0.3-0.1C9.5,158.8,9.5,158.7,9.5,158.7z"/>
				</g>
			</g>
			
				<text transform="matrix(1 0 0 1 3.0884 162.3405)" style="font-family:'Averta-Regular'; font-size:10.4831px; letter-spacing:2;">    - SPORTS STADIUM</text>
		</g>
		<g>
			<g>
				<g>
					<g>
						<g>
							<g>
								<path class="st0" d="M12.4,188.2c1,0.7,1.7,2,1.7,3.3c0,2.3-1.8,4.1-4.1,4.1c-1.3,0-2.5-0.6-3.3-1.6l-0.4,0.3
									c0.9,1.1,2.2,1.8,3.7,1.8c2.6,0,4.7-2.1,4.7-4.7c0-1.5-0.7-2.9-1.9-3.8L12.4,188.2z"/>
								<path class="st0" d="M10,195.3c2,0,3.7-1.7,3.7-3.7c0-2-1.7-3.7-3.7-3.7v0.2c1.9,0,3.5,1.6,3.5,3.5c0,1.9-1.6,3.5-3.5,3.5
									V195.3z M10,188c-2,0-3.7,1.7-3.7,3.7c0,2,1.7,3.7,3.7,3.7h0v-0.2h0l0,0c-1.9,0-3.5-1.6-3.5-3.5c0-1.9,1.6-3.5,3.5-3.5h0
									L10,188L10,188z"/>
								<path class="st0" d="M9.5,188.1c0,0-1.2,0.2-2.1,1.1c0,0,0.7-0.7,1-0.7l0.1,0c0,0,0,0,0,0c0,0-0.1,0.1-0.1,0.1
									c0,0,0,0.1,0,0.1l0,0c0,0,0,0,0,0c0,0,0,0,0,0c0,0,0,0.1,0,0.1l0,0.1l0,0l-0.1,0c0,0-0.1,0-0.1,0c0,0,0-0.1,0-0.1l0.1,0
									c0,0,0,0,0,0c0,0,0-0.1-0.1,0c0,0-0.1,0.1-0.1,0.1l-0.1,0l0,0.1l0,0c0,0,0,0,0,0c0,0,0,0.1,0,0.1s0,0-0.1,0c0,0-0.1,0-0.1,0
									c0,0-0.1,0-0.1,0c0,0,0,0,0,0c0,0-0.1,0.1-0.1,0.1s0,0,0,0c0,0,0,0.1,0,0.1s0,0-0.1,0c-0.1,0-0.1,0-0.1,0l0,0.1
									c0,0,0,0-0.1,0.1c0,0-0.1,0.1-0.1,0.1c0,0,0,0-0.1,0.1c0,0,0,0.1,0,0.1c0,0,0,0.1,0,0.1c0,0,0,0.1,0,0.1c0,0,0,0-0.1,0
									c0,0-0.1,0-0.1,0c0,0,0,0.1,0,0.1c0,0,0,0,0,0l0.1,0c0,0,0,0.1,0,0.1c0,0,0,0.1,0,0.1c0,0,0.1,0,0.1,0l0.1,0l0.1,0l0,0
									c0,0,0,0,0,0.1c0,0,0,0,0,0c0,0,0,0,0,0c0,0,0,0,0-0.1c0,0-0.1,0-0.1,0c0,0,0,0-0.1,0c0,0,0,0,0,0c0,0,0-0.1,0-0.1
									c0,0,0-0.1-0.1-0.1c0,0,0,0,0,0c0,0,0,0-0.1,0c0,0,0,0,0,0c0,0,0-0.1,0-0.1c0,0,0-0.1,0-0.1c0,0,0-0.1,0-0.1
									s-0.1,0.2-0.2,0.4c0,0,0,0,0,0c0,0,0,0.1,0,0.1c0,0,0,0,0,0.1c0,0.1,0,0.1,0,0.1c0,0,0,0.1,0,0.1c0,0,0,0.1,0,0.1
									c0,0,0,0,0,0c0,0,0,0.1,0,0c0-0.1,0.1-0.1,0.1-0.1l0,0c0,0,0,0,0.1,0c0.1,0,0.1,0,0.1,0c0,0,0,0.1,0,0.1c0,0,0.1,0,0.1,0
									c0,0,0.1,0,0.1,0.1c0,0,0,0.1,0.1,0.1c0,0,0,0.1,0,0.1c0,0,0.1,0.1,0.1,0.1c0,0,0.1,0,0.1,0c0,0,0,0.1,0,0.1
									c0,0,0.1,0.1,0.1,0.1s0,0.1,0,0.1c0,0,0,0.1,0,0.1c0,0,0.1,0,0.1,0s0,0.1,0,0.1c0.1,0,0.1,0,0.1,0.1c0,0,0,0.1,0,0.1
									c0.1,0,0.1,0,0.2,0c0,0,0,0.1,0.1,0.1c0.1,0.1,0.1,0.1,0.1,0.1c0,0,0.1,0,0.1,0.1c0,0.1,0,0.1-0.1,0.1c0,0-0.1,0.1-0.1,0.1
									c0,0,0,0.1,0,0.1c0,0,0.1,0.1,0.1,0.1c0,0,0,0.1,0,0.1c0,0-0.1,0.1-0.1,0.1s0.1,0.1,0,0.1c0,0-0.1,0.1-0.1,0.1
									c0,0-0.1,0.1-0.1,0.1s0,0.1,0,0.2c0,0-0.1,0.3-0.1,0.3c0,0.1,0.1,0.1,0,0.1c0,0,0,0,0,0.1c0,0-0.1,0,0,0.1
									c0.1,0.1,0.1,0.1,0.1,0.1c0,0,0,0.1,0.1,0.1c0,0,0.1,0.1,0.1,0.1c0,0,0.1,0.1,0.1,0.1c0,0,0.1,0.1,0,0.1
									c-0.1-0.1,0,0-0.1-0.1c-0.1-0.1-0.2-0.1-0.2-0.1c-0.1-0.1,0,0.2-0.1-0.1c-0.1-0.3-0.1-0.2-0.2-0.3c0-0.1,0,0-0.1-0.1
									c-0.1-0.1,0-0.1-0.1-0.1c-0.1-0.1-0.1,0-0.1-0.1c0-0.2,0-0.1-0.1-0.2c0-0.2,0-0.2-0.1-0.3c-0.1-0.1-0.1,0-0.1-0.1
									c0-0.1,0,0-0.1-0.2c-0.1-0.2-0.2-0.2-0.2-0.5c0-0.3,0-0.3,0-0.3s-0.1-0.1-0.1-0.3c0-0.2,0.1-0.1,0-0.2c0-0.1,0,0-0.1-0.1
									c0-0.1-0.1-0.1-0.1-0.1c0,0,0-0.1,0-0.1l0,0c0,0-0.4,3.6,3.2,4.1c0,0-0.8-0.2-0.9-0.3c0,0,0-0.2,0-0.2c0,0,0.1,0,0.1,0
									c0.1,0,0.1-0.1,0.1-0.1l0,0.1c0,0-0.1,0,0.1,0c0.2,0,0.2,0,0.2,0c0.1,0,0.1-0.2,0.2-0.1c0,0.1,0,0,0,0.1c0.1,0,0.2,0,0.2,0
									s0.2,0,0.3,0c0,0,0-0.1,0.1-0.1c0,0,0.1,0.1,0.1,0.1l-0.1,0.1l-0.1,0.1c0,0-0.1,0,0,0c0.1,0,0.1,0,0.1,0
									c0.1,0,0.2,0.1,0.2,0.1c0-0.1,0-0.1,0.1-0.1c0,0,0-0.1,0.1-0.1c0.1,0,0.1,0,0.1,0l-0.1,0.1c0,0,0.1,0,0.1,0
									c0,0,0.1,0.1,0.1,0c0.1-0.1,0.1-0.1,0.1-0.1c0.1,0,0.1,0,0.2,0c0,0,0.1,0,0.1,0c0,0,0.2,0.1,0.2,0.1c0,0,0.2,0,0.2,0
									s-0.4,0.4-1.3,0.4c0,0,2,0.1,3.1-1.8c1.1-1.9,0.3-4.4-2.2-5.2c0,0,1.9,0.7,2.4,2.5l0,0c-0.1-0.1-0.1,0-0.1-0.1
									c0-0.1,0-0.1,0-0.1c0-0.1,0,0-0.1-0.1c0-0.1-0.1-0.1-0.1-0.1c0,0-0.1-0.1-0.1-0.2c0,0-0.1,0-0.1-0.1c0,0,0-0.1,0,0
									c0,0,0.1,0.1,0.1,0.1v0.1c0,0,0.1,0.1,0.1,0.2c0,0,0,0.1,0,0.1s0,0.1-0.1,0.1c0,0-0.2,0.1-0.2,0.1s-0.1-0.1-0.1-0.1
									c0-0.1-0.1-0.1-0.2-0.1c0,0,0-0.1,0-0.1c-0.1-0.1,0-0.1-0.1-0.1c-0.1-0.1-0.1-0.1-0.1-0.1s-0.2-0.1-0.1,0
									c0.1,0.1,0,0.2,0,0.2c0,0,0.1,0,0.1,0.1c0,0.1,0,0.1,0.1,0.1c0,0,0,0.1,0.1,0.1c0,0,0.1,0,0.1,0c0,0-0.1,0.1,0,0.1
									c0.1,0,0.1,0,0.1,0c0,0,0,0,0.1,0c0.1,0,0.1,0,0.1,0s0.1,0.1,0.1,0.1c0,0,0,0.2,0,0.2l-0.1,0.1c0,0,0,0.3,0,0.3
									c0,0-0.1,0.1-0.1,0.1c0,0,0,0.2,0,0.2l-0.1,0.1c0,0,0,0.1,0,0.2c0,0,0,0.2,0,0.2c0,0.1-0.1,0.1-0.1,0.1s0.1,0.1,0.1,0.1
									c-0.1,0-0.1,0.1-0.2,0.1c0,0,0,0.1-0.1,0.1c0,0-0.1,0-0.1,0c0,0,0,0.1,0,0.1l-0.1,0.2l-0.2,0.1c0,0,0,0.1,0,0.1
									c-0.1,0-0.2,0.1-0.2,0.1c0,0-0.2,0.1-0.2,0.1c0,0,0,0.1,0,0c-0.1-0.1,0,0-0.1-0.2c-0.1-0.1-0.1,0-0.1-0.1c0-0.1,0,0,0-0.1
									c0-0.1,0,0,0-0.1c-0.1-0.1,0-0.1-0.1-0.1c-0.1-0.1-0.1,0-0.1-0.1c0-0.1,0,0,0-0.1c0-0.1,0-0.1,0.1-0.2
									c0.1-0.1,0.1-0.1,0.1-0.1c0-0.1,0-0.1,0-0.1c0,0-0.1-0.1-0.1-0.1c0,0,0,0-0.1-0.1c-0.1-0.1-0.1-0.1-0.1-0.1s0-0.2,0-0.2
									c0-0.1,0,0,0-0.1c0-0.1,0-0.2,0-0.2s-0.1-0.1-0.2-0.1c-0.1,0,0,0.1-0.1,0c-0.1-0.1-0.1-0.1-0.1-0.1c0,0-0.1,0-0.1,0
									c0,0-0.1,0-0.2,0.1c-0.1,0-0.1,0-0.2,0c-0.1,0-0.2,0-0.3,0c-0.1,0-0.1,0-0.1-0.1c0-0.1,0-0.1-0.1-0.1c-0.1,0-0.1,0-0.1-0.1
									c0-0.1,0-0.1,0-0.1c-0.1-0.1,0,0-0.1-0.1c-0.1-0.1-0.1,0-0.1-0.1c0-0.1,0.1,0,0.1-0.1c0-0.1,0.2,0,0.1-0.2
									c-0.1-0.2-0.1-0.2,0-0.3c0.1-0.2,0.2-0.2,0.2-0.2c0,0,0.1-0.1,0.1-0.1c0,0,0-0.1,0.1,0c0.1,0,0.2,0,0.2-0.1
									c0.1-0.1,0.1-0.1,0.2-0.1c0,0,0,0,0.1,0c0.1,0,0.1,0,0.1,0c0.1,0-0.1,0,0.1,0c0.1,0,0.1,0,0.1,0c0,0,0,0,0.1,0
									c0.1,0,0.1-0.1,0.1,0c0,0.1-0.1,0.2,0.1,0.2c0.1,0,0,0,0.1,0c0.1,0,0.1,0,0.1,0c0.1,0,0.1,0.1,0.2,0.1c0.1,0,0,0.1,0.1,0
									c0.1-0.1-0.1-0.1,0.1-0.1c0.2,0,0.2,0.1,0.3,0c0,0,0,0,0.1,0c0.1,0,0.1,0,0.1,0c0,0,0,0.1,0.1,0c0-0.1,0.1-0.1,0-0.1
									c-0.1-0.1-0.1,0-0.2-0.1c0-0.1,0.1-0.1,0-0.1c-0.1,0-0.1,0-0.2,0c-0.1,0-0.2,0.1-0.2,0c0-0.1-0.2,0.1,0-0.1
									c0.1-0.1,0.1-0.2,0.2-0.2c0.1,0,0.1,0.1,0.1,0.1c0.1-0.1,0.2-0.1,0.1-0.2c-0.1-0.1,0,0-0.1-0.1c-0.1-0.1-0.2,0.2-0.3,0.2
									c-0.1,0-0.1-0.1-0.1,0c0,0,0,0.1,0,0.2c0,0.1,0.1,0.1-0.1,0c-0.1-0.1,0.1,0-0.1-0.1c-0.2-0.1-0.3-0.1-0.4,0
									c0,0-0.1,0-0.1,0.1c0,0,0.1,0.1,0,0c-0.1-0.1-0.2,0-0.2,0s0,0-0.1,0c0,0-0.1,0.1-0.2,0c-0.1,0-0.2,0-0.1-0.1
									c0.1-0.1,0-0.1,0.2-0.1c0.1-0.1,0.4-0.1,0.2-0.1c-0.2,0,0.1,0-0.1-0.2c-0.2-0.1-0.3,0-0.2-0.1c0-0.2,0-0.2-0.1-0.2
									c-0.1,0-0.2,0-0.3,0.1c-0.1,0,0,0.1-0.1,0c-0.1-0.1-0.2,0-0.1-0.1c0-0.1,0.1-0.1,0.1-0.2c0.1-0.1,0.1-0.3,0.2-0.2
									c0.2,0.1,0.1,0.1,0.2,0.1c0.1,0,0.2,0,0.2,0c0,0-0.2-0.1-0.2-0.1s-0.1,0,0,0c0,0,0.1-0.1,0.1-0.1l-0.1,0
									C10.1,188.1,9.6,188.1,9.5,188.1z"/>
							</g>
							<g>
								<path class="st0" d="M9.7,196.1v0.9c0,0-0.2,0.4-0.7,0.6c-0.5,0.2-0.9,0.4-0.9,0.7c0,0.3,0.6,0.5,2.3,0.5v-2.8L9.7,196.1z"
									/>
								<path class="st0" d="M10.7,196.1v0.9c0,0,0.2,0.4,0.7,0.6c0.5,0.2,1.1,0.4,1,0.7c0,0.3-1,0.5-2.2,0.5v-2.8L10.7,196.1z"/>
							</g>
						</g>
					</g>
					<g>
						<g>
							<path class="st0" d="M12.4,188.2c1,0.7,1.7,2,1.7,3.3c0,2.3-1.8,4.1-4.1,4.1c-1.3,0-2.5-0.6-3.3-1.6l-0.4,0.3
								c0.9,1.1,2.2,1.8,3.7,1.8c2.6,0,4.7-2.1,4.7-4.7c0-1.5-0.7-2.9-1.9-3.8L12.4,188.2z"/>
							<path class="st0" d="M10,195.3c2,0,3.7-1.7,3.7-3.7c0-2-1.7-3.7-3.7-3.7v0.2c1.9,0,3.5,1.6,3.5,3.5c0,1.9-1.6,3.5-3.5,3.5
								V195.3z M10,188c-2,0-3.7,1.7-3.7,3.7c0,2,1.7,3.7,3.7,3.7h0v-0.2h0l0,0c-1.9,0-3.5-1.6-3.5-3.5c0-1.9,1.6-3.5,3.5-3.5h0
								L10,188L10,188z"/>
							<path class="st0" d="M9.5,188.1c0,0-1.2,0.2-2.1,1.1c0,0,0.7-0.7,1-0.7l0.1,0c0,0,0,0,0,0c0,0-0.1,0.1-0.1,0.1
								c0,0,0,0.1,0,0.1l0,0c0,0,0,0,0,0c0,0,0,0,0,0c0,0,0,0.1,0,0.1l0,0.1l0,0l-0.1,0c0,0-0.1,0-0.1,0c0,0,0-0.1,0-0.1l0.1,0
								c0,0,0,0,0,0c0,0,0-0.1-0.1,0c0,0-0.1,0.1-0.1,0.1l-0.1,0l0,0.1l0,0c0,0,0,0,0,0c0,0,0,0.1,0,0.1s0,0-0.1,0c0,0-0.1,0-0.1,0
								c0,0-0.1,0-0.1,0c0,0,0,0,0,0c0,0-0.1,0.1-0.1,0.1s0,0,0,0c0,0,0,0.1,0,0.1s0,0-0.1,0c-0.1,0-0.1,0-0.1,0l0,0.1
								c0,0,0,0-0.1,0.1c0,0-0.1,0.1-0.1,0.1c0,0,0,0-0.1,0.1c0,0,0,0.1,0,0.1c0,0,0,0.1,0,0.1c0,0,0,0.1,0,0.1c0,0,0,0-0.1,0
								c0,0-0.1,0-0.1,0c0,0,0,0.1,0,0.1c0,0,0,0,0,0l0.1,0c0,0,0,0.1,0,0.1c0,0,0,0.1,0,0.1c0,0,0.1,0,0.1,0l0.1,0l0.1,0l0,0
								c0,0,0,0,0,0.1c0,0,0,0,0,0c0,0,0,0,0,0c0,0,0,0,0-0.1c0,0-0.1,0-0.1,0c0,0,0,0-0.1,0c0,0,0,0,0,0c0,0,0-0.1,0-0.1
								c0,0,0-0.1-0.1-0.1c0,0,0,0,0,0c0,0,0,0-0.1,0c0,0,0,0,0,0c0,0,0-0.1,0-0.1c0,0,0-0.1,0-0.1c0,0,0-0.1,0-0.1
								s-0.1,0.2-0.2,0.4c0,0,0,0,0,0c0,0,0,0.1,0,0.1c0,0,0,0,0,0.1c0,0.1,0,0.1,0,0.1c0,0,0,0.1,0,0.1c0,0,0,0.1,0,0.1
								c0,0,0,0,0,0c0,0,0,0.1,0,0c0-0.1,0.1-0.1,0.1-0.1l0,0c0,0,0,0,0.1,0c0.1,0,0.1,0,0.1,0c0,0,0,0.1,0,0.1c0,0,0.1,0,0.1,0
								c0,0,0.1,0,0.1,0.1c0,0,0,0.1,0.1,0.1c0,0,0,0.1,0,0.1c0,0,0.1,0.1,0.1,0.1c0,0,0.1,0,0.1,0c0,0,0,0.1,0,0.1
								c0,0,0.1,0.1,0.1,0.1s0,0.1,0,0.1c0,0,0,0.1,0,0.1c0,0,0.1,0,0.1,0s0,0.1,0,0.1c0.1,0,0.1,0,0.1,0.1c0,0,0,0.1,0,0.1
								c0.1,0,0.1,0,0.2,0c0,0,0,0.1,0.1,0.1c0.1,0.1,0.1,0.1,0.1,0.1c0,0,0.1,0,0.1,0.1c0,0.1,0,0.1-0.1,0.1c0,0-0.1,0.1-0.1,0.1
								c0,0,0,0.1,0,0.1c0,0,0.1,0.1,0.1,0.1c0,0,0,0.1,0,0.1c0,0-0.1,0.1-0.1,0.1s0.1,0.1,0,0.1c0,0-0.1,0.1-0.1,0.1
								c0,0-0.1,0.1-0.1,0.1s0,0.1,0,0.2c0,0-0.1,0.3-0.1,0.3c0,0.1,0.1,0.1,0,0.1c0,0,0,0,0,0.1c0,0-0.1,0,0,0.1
								c0.1,0.1,0.1,0.1,0.1,0.1c0,0,0,0.1,0.1,0.1c0,0,0.1,0.1,0.1,0.1c0,0,0.1,0.1,0.1,0.1c0,0,0.1,0.1,0,0.1
								c-0.1-0.1,0,0-0.1-0.1c-0.1-0.1-0.2-0.1-0.2-0.1c-0.1-0.1,0,0.2-0.1-0.1c-0.1-0.3-0.1-0.2-0.2-0.3c0-0.1,0,0-0.1-0.1
								c-0.1-0.1,0-0.1-0.1-0.1c-0.1-0.1-0.1,0-0.1-0.1c0-0.2,0-0.1-0.1-0.2c0-0.2,0-0.2-0.1-0.3c-0.1-0.1-0.1,0-0.1-0.1
								c0-0.1,0,0-0.1-0.2c-0.1-0.2-0.2-0.2-0.2-0.5c0-0.3,0-0.3,0-0.3s-0.1-0.1-0.1-0.3c0-0.2,0.1-0.1,0-0.2c0-0.1,0,0-0.1-0.1
								c0-0.1-0.1-0.1-0.1-0.1c0,0,0-0.1,0-0.1l0,0c0,0-0.4,3.6,3.2,4.1c0,0-0.8-0.2-0.9-0.3c0,0,0-0.2,0-0.2c0,0,0.1,0,0.1,0
								c0.1,0,0.1-0.1,0.1-0.1l0,0.1c0,0-0.1,0,0.1,0c0.2,0,0.2,0,0.2,0c0.1,0,0.1-0.2,0.2-0.1c0,0.1,0,0,0,0.1c0.1,0,0.2,0,0.2,0
								s0.2,0,0.3,0c0,0,0-0.1,0.1-0.1c0,0,0.1,0.1,0.1,0.1l-0.1,0.1l-0.1,0.1c0,0-0.1,0,0,0c0.1,0,0.1,0,0.1,0
								c0.1,0,0.2,0.1,0.2,0.1c0-0.1,0-0.1,0.1-0.1c0,0,0-0.1,0.1-0.1c0.1,0,0.1,0,0.1,0l-0.1,0.1c0,0,0.1,0,0.1,0
								c0,0,0.1,0.1,0.1,0c0.1-0.1,0.1-0.1,0.1-0.1c0.1,0,0.1,0,0.2,0c0,0,0.1,0,0.1,0c0,0,0.2,0.1,0.2,0.1c0,0,0.2,0,0.2,0
								s-0.4,0.4-1.3,0.4c0,0,2,0.1,3.1-1.8c1.1-1.9,0.3-4.4-2.2-5.2c0,0,1.9,0.7,2.4,2.5l0,0c-0.1-0.1-0.1,0-0.1-0.1
								c0-0.1,0-0.1,0-0.1c0-0.1,0,0-0.1-0.1c0-0.1-0.1-0.1-0.1-0.1c0,0-0.1-0.1-0.1-0.2c0,0-0.1,0-0.1-0.1c0,0,0-0.1,0,0
								c0,0,0.1,0.1,0.1,0.1v0.1c0,0,0.1,0.1,0.1,0.2c0,0,0,0.1,0,0.1s0,0.1-0.1,0.1c0,0-0.2,0.1-0.2,0.1s-0.1-0.1-0.1-0.1
								c0-0.1-0.1-0.1-0.2-0.1c0,0,0-0.1,0-0.1c-0.1-0.1,0-0.1-0.1-0.1c-0.1-0.1-0.1-0.1-0.1-0.1s-0.2-0.1-0.1,0
								c0.1,0.1,0,0.2,0,0.2c0,0,0.1,0,0.1,0.1c0,0.1,0,0.1,0.1,0.1c0,0,0,0.1,0.1,0.1c0,0,0.1,0,0.1,0c0,0-0.1,0.1,0,0.1
								c0.1,0,0.1,0,0.1,0c0,0,0,0,0.1,0c0.1,0,0.1,0,0.1,0s0.1,0.1,0.1,0.1c0,0,0,0.2,0,0.2l-0.1,0.1c0,0,0,0.3,0,0.3
								c0,0-0.1,0.1-0.1,0.1c0,0,0,0.2,0,0.2l-0.1,0.1c0,0,0,0.1,0,0.2c0,0,0,0.2,0,0.2c0,0.1-0.1,0.1-0.1,0.1s0.1,0.1,0.1,0.1
								c-0.1,0-0.1,0.1-0.2,0.1c0,0,0,0.1-0.1,0.1c0,0-0.1,0-0.1,0c0,0,0,0.1,0,0.1l-0.1,0.2l-0.2,0.1c0,0,0,0.1,0,0.1
								c-0.1,0-0.2,0.1-0.2,0.1c0,0-0.2,0.1-0.2,0.1c0,0,0,0.1,0,0c-0.1-0.1,0,0-0.1-0.2c-0.1-0.1-0.1,0-0.1-0.1c0-0.1,0,0,0-0.1
								c0-0.1,0,0,0-0.1c-0.1-0.1,0-0.1-0.1-0.1c-0.1-0.1-0.1,0-0.1-0.1c0-0.1,0,0,0-0.1c0-0.1,0-0.1,0.1-0.2
								c0.1-0.1,0.1-0.1,0.1-0.1c0-0.1,0-0.1,0-0.1c0,0-0.1-0.1-0.1-0.1c0,0,0,0-0.1-0.1c-0.1-0.1-0.1-0.1-0.1-0.1s0-0.2,0-0.2
								c0-0.1,0,0,0-0.1c0-0.1,0-0.2,0-0.2s-0.1-0.1-0.2-0.1c-0.1,0,0,0.1-0.1,0c-0.1-0.1-0.1-0.1-0.1-0.1c0,0-0.1,0-0.1,0
								c0,0-0.1,0-0.2,0.1c-0.1,0-0.1,0-0.2,0c-0.1,0-0.2,0-0.3,0c-0.1,0-0.1,0-0.1-0.1c0-0.1,0-0.1-0.1-0.1c-0.1,0-0.1,0-0.1-0.1
								c0-0.1,0-0.1,0-0.1c-0.1-0.1,0,0-0.1-0.1c-0.1-0.1-0.1,0-0.1-0.1c0-0.1,0.1,0,0.1-0.1c0-0.1,0.2,0,0.1-0.2
								c-0.1-0.2-0.1-0.2,0-0.3c0.1-0.2,0.2-0.2,0.2-0.2c0,0,0.1-0.1,0.1-0.1c0,0,0-0.1,0.1,0c0.1,0,0.2,0,0.2-0.1
								c0.1-0.1,0.1-0.1,0.2-0.1c0,0,0,0,0.1,0c0.1,0,0.1,0,0.1,0c0.1,0-0.1,0,0.1,0c0.1,0,0.1,0,0.1,0c0,0,0,0,0.1,0
								c0.1,0,0.1-0.1,0.1,0c0,0.1-0.1,0.2,0.1,0.2c0.1,0,0,0,0.1,0c0.1,0,0.1,0,0.1,0c0.1,0,0.1,0.1,0.2,0.1c0.1,0,0,0.1,0.1,0
								c0.1-0.1-0.1-0.1,0.1-0.1c0.2,0,0.2,0.1,0.3,0c0,0,0,0,0.1,0c0.1,0,0.1,0,0.1,0c0,0,0,0.1,0.1,0c0-0.1,0.1-0.1,0-0.1
								c-0.1-0.1-0.1,0-0.2-0.1c0-0.1,0.1-0.1,0-0.1c-0.1,0-0.1,0-0.2,0c-0.1,0-0.2,0.1-0.2,0c0-0.1-0.2,0.1,0-0.1
								c0.1-0.1,0.1-0.2,0.2-0.2c0.1,0,0.1,0.1,0.1,0.1c0.1-0.1,0.2-0.1,0.1-0.2c-0.1-0.1,0,0-0.1-0.1c-0.1-0.1-0.2,0.2-0.3,0.2
								c-0.1,0-0.1-0.1-0.1,0c0,0,0,0.1,0,0.2c0,0.1,0.1,0.1-0.1,0c-0.1-0.1,0.1,0-0.1-0.1c-0.2-0.1-0.3-0.1-0.4,0
								c0,0-0.1,0-0.1,0.1c0,0,0.1,0.1,0,0c-0.1-0.1-0.2,0-0.2,0s0,0-0.1,0c0,0-0.1,0.1-0.2,0c-0.1,0-0.2,0-0.1-0.1
								c0.1-0.1,0-0.1,0.2-0.1c0.1-0.1,0.4-0.1,0.2-0.1c-0.2,0,0.1,0-0.1-0.2c-0.2-0.1-0.3,0-0.2-0.1c0-0.2,0-0.2-0.1-0.2
								c-0.1,0-0.2,0-0.3,0.1c-0.1,0,0,0.1-0.1,0c-0.1-0.1-0.2,0-0.1-0.1c0-0.1,0.1-0.1,0.1-0.2c0.1-0.1,0.1-0.3,0.2-0.2
								c0.2,0.1,0.1,0.1,0.2,0.1c0.1,0,0.2,0,0.2,0c0,0-0.2-0.1-0.2-0.1s-0.1,0,0,0c0,0,0.1-0.1,0.1-0.1l-0.1,0
								C10.1,188.1,9.6,188.1,9.5,188.1z"/>
						</g>
					</g>
				</g>
			</g>
			
				<text transform="matrix(1 0 0 1 3.0884 196.1999)" style="font-family:'Averta-Regular'; font-size:10.4831px; letter-spacing:2;">    - CHILDREN’S MUSEUM</text>
		</g>
		<g>
			<path class="st0" d="M16.4,229.2c0,0,0-0.1,0-0.1v-5.3c0-0.2-0.2-0.5-0.5-0.5h-2.5v5.6c0,0.1,0,0.2,0,0.3h-0.3c0,0,0-0.1,0-0.1
				V221c0-0.2-0.2-0.5-0.5-0.5h-4c-0.2,0-0.5,0.2-0.5,0.5v8.1c0,0.1,0,0.1,0,0.1H8c0-0.1,0-0.2,0-0.3v-5.6H5.5
				c-0.2,0-0.5,0.2-0.5,0.5v5.3c0,0.1,0,0.1,0,0.1H4.3v0.9h12.8v-0.9H16.4z M6.4,227.3H5.8v-0.6h0.6V227.3z M6.4,226.2H5.8v-0.6h0.6
				V226.2z M6.4,225.1H5.8v-0.6h0.6V225.1z M7.4,227.3H6.8v-0.6h0.6V227.3z M7.4,226.2H6.8v-0.6h0.6V226.2z M7.4,225.1H6.8v-0.6h0.6
				V225.1z M11.7,229.7H9.8v-3.7h1.9V229.7z M10.7,224.7c-0.9,0-1.6-0.7-1.6-1.6c0-0.9,0.7-1.6,1.6-1.6c0.9,0,1.6,0.7,1.6,1.6
				C12.3,224,11.6,224.7,10.7,224.7z M14.8,227.3h-0.6v-0.6h0.6V227.3z M14.8,226.2h-0.6v-0.6h0.6V226.2z M14.8,225.1h-0.6v-0.6h0.6
				V225.1z M15.9,227.3h-0.6v-0.6h0.6V227.3z M15.9,226.2h-0.6v-0.6h0.6V226.2z M15.9,225.1h-0.6v-0.6h0.6V225.1z M11.1,222.7h0.6
				v0.8h-0.6v0.6h-0.8v-0.6H9.7v-0.8h0.6v-0.6h0.8V222.7z"/>
			
				<text transform="matrix(1 0 0 1 3.0884 229.1208)" style="font-family:'Averta-Regular'; font-size:10.4831px; letter-spacing:2;">    - INTERNATIONAL HOSPITAL</text>
		</g>
		<g>
			<g>
				<g>
					<g>
						<path class="st0" d="M12,252.7v7.8H5.8C5.8,260.5,7.3,256,12,252.7z"/>
						<polygon class="st0" points="12.8,254.5 15.9,260.5 12.8,260.5 						"/>
					</g>
					<g>
						<path class="st0" d="M4.7,261.2c0,0.4,0.2,0.8,0.4,1.1h11.7c0,0,0.1,0,0.2,0l0-1.1h-4.5v-8.8c0.2-0.1,0.8-0.3,1.2,0
							c0.5,0.3,1.3,0.2,1.5,0.1c0.2-0.1,0.9-0.4,0.9-0.4c-0.6-0.2-0.8,0.2-1.6,0.2c-0.7,0-0.6-0.8-1.3-0.8c-0.4,0-0.6,0.1-0.7,0.1
							v-0.1c0.1,0,0.2-0.2,0.2-0.3c0-0.2-0.2-0.3-0.3-0.3c-0.2,0-0.3,0.2-0.3,0.3c0,0.1,0.1,0.3,0.2,0.3v9.8H4.7z"/>
						<path class="st0" d="M16.2,262.7H5.5c0.4,0.3,0.7,0.5,0.7,0.5c1.1,0.6,9.8,0.4,9.8,0.4S15.9,263.1,16.2,262.7z"/>
					</g>
				</g>
			</g>
			
				<text transform="matrix(1 0 0 1 3.0884 261.9782)" style="font-family:'Averta-Regular'; font-size:10.4831px; letter-spacing:2;">    - MARINA COMPLEX</text>
		</g>
		<g>
			<g>
				<g>
					<path class="st0" d="M6.5,300.3c0-0.1,0-0.3,0-0.4c0.2-0.5,0.5-1.1,0.8-1.7c-0.4,0-0.7,0-1.1,0c-0.2,0-0.3-0.1-0.3-0.3
						c0-0.7,0-0.7,0.7-0.7c1.5,0,3,0,4.5,0c0.3,0,0.5-0.1,0.6-0.4c0.1-0.3,0.2-0.6,0.4-0.8c0.1-0.1,0.2-0.2,0.4-0.2
						c0.8,0,1.6,0,2.5,0c0.2,0,0.3-0.1,0.4-0.3c0.3-0.6,0.5-1.1,0.8-1.6c0.1-0.3,0.3-0.4,0.6-0.4c0.7,0,0.8,0,0.4,0.7
						c-0.6,1.3-1.2,2.5-1.8,3.8c-0.1,0.2-0.1,0.3,0,0.5c0.2,0.4,0.5,0.9,0.7,1.4c0.1,0.1,0.1,0.3,0.1,0.4c-0.3,0-0.7,0-1,0
						c-0.3-0.6-0.6-1.3-0.9-1.9c0-0.1-0.2-0.2-0.3-0.2c-1.7,0-3.5,0-5.2,0c-0.2,0-0.3,0.1-0.4,0.3c-0.3,0.6-0.6,1.2-0.9,1.8
						C7.2,300.3,6.9,300.3,6.5,300.3z M12.6,297.2c0.5,0,1.1,0,1.6,0c0.6,0,0.6,0,0.8-0.7c-0.5,0-1,0-1.6,0
						C12.8,296.6,12.8,296.6,12.6,297.2z"/>
					<path class="st0" d="M10.1,300.3c-0.2-0.2-0.3-0.4-0.3-0.7c0-0.3,0-0.6,0-0.9c0.3,0,0.6,0,0.9,0c-0.1,0.5,0.3,1.1-0.3,1.5
						C10.2,300.3,10.1,300.3,10.1,300.3z"/>
					<path class="st0" d="M10.3,283.8c0.5,0.3,0.3,0.7,0.3,1.1c-0.3,0-0.6,0-0.9,0c0-0.4-0.2-0.8,0.3-1.1
						C10.1,283.8,10.2,283.8,10.3,283.8z"/>
					<path class="st0" d="M16,290.2c-1.2-1-2.3-1-3.4-0.1c-1.5-1.2-3.1-1.2-4.7,0c-1.1-1-2.2-1-3.4,0c-0.2-0.4,0-0.7,0-1
						c0.3-1.3,1.2-2.2,2.3-2.9c2.3-1.3,5.3-1.2,7.4,0.4c1,0.8,1.7,1.8,1.8,3.2C16,289.9,16,290,16,290.2z"/>
					<path class="st0" d="M10.6,296.7c-0.3,0-0.6,0-0.9,0c0-0.1,0-0.3,0-0.4c0-2.1,0-4.1,0-6.2c0-0.4,0.1-0.4,0.5-0.4
						c0.3,0,0.5,0,0.5,0.4c0,2.1,0,4.1,0,6.2C10.7,296.5,10.6,296.6,10.6,296.7z"/>
				</g>
			</g>
			
				<text transform="matrix(1 0 0 1 3.0884 295.6266)" style="font-family:'Averta-Regular'; font-size:10.4831px; letter-spacing:2;">    - SOUTHERN DELTA RESORT</text>
		</g>
		<g>
			<path class="st1" d="M11.1,381.9H11c0,0,0,0,0,0v1c0,0.6-0.5,1.1-1.1,1.1H5c-0.7,0-1.3,0.6-1.3,1.3v1.3v0.3v0v4.1
				c0,0.8,0.6,1.4,1.4,1.4h0c0.6,0,1.1-0.5,1.1-1.1v-4.3v-0.4h0.9l1.7-1.1l1.6-1.1c0.4-0.3,0.9-0.3,1.3,0l1.6,1.1l1.7,1.1h0.9v0.4
				v4.3c0,0.6,0.5,1.1,1.1,1.1h0c0.8,0,1.4-0.6,1.4-1.4v-4.1v0v-0.3v-1.3c0-0.7-0.6-1.3-1.3-1.3h-6v-1.2h1.3v-0.9H11.1L11.1,381.9
				C11.1,381.9,11.1,381.9,11.1,381.9L11.1,381.9z M15.5,392.5h-1v-2.9c0,0,0,0,0,0c0,0,0,0,0-0.1c0-0.5-0.4-0.9-0.9-0.9
				c-0.5,0-0.9,0.4-0.9,0.9c0,0,0,0,0,0.1c0,0,0,0,0,0v2.9H12v-2.9c0,0,0,0,0,0c0,0,0,0,0-0.1c0-0.5-0.4-0.9-0.9-0.9
				c-0.5,0-0.9,0.4-0.9,0.9c0,0,0,0,0,0.1c0,0,0,0,0,0v2.9H9.5v-2.9c0,0,0,0,0,0c0,0,0,0,0-0.1c0-0.5-0.4-0.9-0.9-0.9
				c-0.5,0-0.9,0.4-0.9,0.9c0,0,0,0,0,0.1c0,0,0,0,0,0v2.9h-1v-4.3c0-0.6,0.5-1.1,1.1-1.1h6.6c0.6,0,1.1,0.5,1.1,1.1V392.5z
				 M11,384.5l1.5,1l1.5,1h-3h-3l1.5-1L11,384.5z"/>
			
				<text transform="matrix(1 0 0 1 3.0884 391.3151)" style="font-family:'Averta-Regular'; font-size:10.4831px; letter-spacing:2;">    - SCHOOL</text>
		</g>
		<g>
			<g>
				<g>
					<g>
						<path class="st0" d="M12.6,324.4c0,0.1,0,0.3,0,0.4c0,0.1-0.1,0.3-0.1,0.4c-0.1,0.3-0.3,0.6-0.5,0.9c-0.1,0.1-0.2,0.2-0.3,0.3
							c-0.2,0.2-0.5,0.4-0.8,0.5c-0.1,0-0.3,0.1-0.4,0.1c-0.2,0-0.3,0.1-0.5,0.1c-0.2,0-0.3,0-0.5,0c-0.1,0-0.3-0.1-0.4-0.1
							c-0.3-0.1-0.6-0.3-0.8-0.5c-0.1-0.1-0.2-0.2-0.3-0.3c-0.2-0.2-0.4-0.5-0.5-0.8c0-0.1-0.1-0.3-0.1-0.4c0-0.2,0-0.3,0-0.5
							c0-0.2,0-0.3,0-0.5c0-0.1,0.1-0.3,0.1-0.4c0.1-0.3,0.3-0.6,0.5-0.8c0.1-0.1,0.2-0.2,0.3-0.3c0.2-0.2,0.5-0.4,0.8-0.5
							c0.1,0,0.3-0.1,0.4-0.1c0.2,0,0.3-0.1,0.5-0.1c0.2,0,0.3,0,0.4,0c0.1,0,0.3,0.1,0.4,0.1c0.3,0.1,0.6,0.3,0.8,0.5
							c0.1,0.1,0.2,0.2,0.3,0.3c0.2,0.2,0.4,0.5,0.5,0.8c0,0.1,0.1,0.3,0.1,0.4C12.6,324.1,12.6,324.3,12.6,324.4z"/>
						<g>
							<path class="st0" d="M15,325c-0.6,0-0.8-0.6-1-1c-0.1-0.2-0.2-0.4-0.4-0.5c0.2-0.2,0.4-0.4,0.6-0.6c0.1-0.2,0.3-0.4,0.4-0.6
								c-0.5,0.3-1-0.1-1.4-0.3c-0.2-0.1-0.4-0.2-0.6-0.2c0.1-0.3,0.2-0.5,0.2-0.8c0-0.2,0-0.5,0.1-0.7c-0.3,0.5-0.9,0.4-1.4,0.4
								c-0.2,0-0.4,0-0.6,0.1c0-0.3-0.1-0.5-0.2-0.8c-0.1-0.2-0.2-0.4-0.3-0.7c0,0.6-0.6,0.8-1,1c-0.2,0.1-0.4,0.2-0.5,0.4
								c-0.2-0.2-0.4-0.4-0.6-0.6c-0.2-0.1-0.4-0.3-0.6-0.4c0.3,0.5-0.1,1-0.3,1.4c-0.1,0.2-0.2,0.4-0.2,0.6
								c-0.3-0.1-0.5-0.2-0.8-0.2c-0.2,0-0.5,0-0.7-0.1c0.5,0.3,0.4,0.9,0.4,1.4c0,0.2,0,0.4,0.1,0.6c-0.3,0-0.5,0.1-0.8,0.2
								c-0.2,0.1-0.4,0.2-0.7,0.3c0.6,0,0.8,0.6,1,1c0.1,0.2,0.2,0.4,0.4,0.5c-0.2,0.2-0.4,0.4-0.6,0.6c-0.1,0.2-0.3,0.4-0.4,0.6
								c0.5-0.3,1,0.1,1.4,0.3c0.2,0.1,0.4,0.2,0.6,0.2c-0.1,0.3-0.2,0.5-0.2,0.8c0,0.2,0,0.5-0.1,0.7c0.3-0.5,0.9-0.4,1.4-0.4
								c0.2,0,0.4,0,0.6-0.1c0,0.3,0.1,0.5,0.2,0.8c0.1,0.2,0.2,0.4,0.3,0.7c0-0.6,0.6-0.8,1-1c0.2-0.1,0.4-0.2,0.5-0.4
								c0.2,0.2,0.4,0.4,0.6,0.6c0.2,0.1,0.4,0.3,0.6,0.4c-0.3-0.5,0.1-1,0.3-1.4c0.1-0.2,0.2-0.4,0.2-0.6c0.3,0.1,0.5,0.2,0.8,0.2
								c0.2,0,0.5,0,0.7,0.1c-0.5-0.3-0.4-0.9-0.4-1.4c0-0.2,0-0.4-0.1-0.6c0.3,0,0.5-0.1,0.8-0.2C14.5,325.1,14.8,325,15,325z
								 M12.9,324.9c0,0.2-0.1,0.3-0.1,0.4c-0.1,0.3-0.3,0.7-0.5,0.9c-0.1,0.1-0.2,0.2-0.3,0.3c-0.3,0.2-0.6,0.4-0.9,0.6
								c-0.1,0.1-0.3,0.1-0.4,0.1c-0.2,0-0.4,0.1-0.6,0.1c-0.2,0-0.3,0-0.5,0c-0.2,0-0.3-0.1-0.4-0.1c-0.3-0.1-0.7-0.3-0.9-0.5
								c-0.1-0.1-0.2-0.2-0.3-0.3c-0.2-0.3-0.4-0.6-0.5-0.9c-0.1-0.1-0.1-0.3-0.1-0.4c0-0.2-0.1-0.4-0.1-0.6c0-0.2,0-0.4,0-0.5
								c0-0.2,0.1-0.3,0.1-0.4c0.1-0.3,0.3-0.7,0.5-0.9c0.1-0.1,0.2-0.2,0.3-0.3c0.3-0.2,0.6-0.4,0.9-0.5c0.1-0.1,0.3-0.1,0.4-0.1
								c0.2,0,0.4-0.1,0.6-0.1c0.2,0,0.3,0,0.5,0c0.1,0,0.3,0.1,0.4,0.1c0.3,0.1,0.7,0.3,0.9,0.5c0.1,0.1,0.2,0.2,0.3,0.3
								c0.2,0.3,0.4,0.6,0.6,0.9c0.1,0.1,0.1,0.3,0.1,0.4c0,0.2,0.1,0.4,0.1,0.6C12.9,324.6,12.9,324.8,12.9,324.9z"/>
						</g>
					</g>
					<g>
						<g>
							<path class="st0" d="M11.3,331.6c-1.5-0.5-2.8-1.2-4.4-1.1c-1.1,0-2.9,0.3-3.6,1.2c0.4-0.8,1.8-1.7,2.6-2
								c0.8-0.3,1.5-0.4,2.4-0.3c1.7,0.2,3.2,1.4,4.8,1.5c1.4,0.1,2.9-1.1,1.9-2.4c-0.6-0.8-1.5-1.2-2.5-1c-0.5,0.1-1.2,0.1-1.1-0.6
								c0.1-0.6,0.9-1,1.4-1.1c1.5-0.1,2.5,0.3,3.4,1.4C18.2,330.2,14.4,332.6,11.3,331.6z"/>
							<path class="st0" d="M17.3,328.9c-0.1,1.1-0.8,1.8-1.6,2.4c0.9-0.7,1.4-1.6,1.3-2.7c-0.2-1.1-1-2.2-1.8-3
								c-0.3-0.3-0.8-0.8-0.8-1.3c0-0.6,0.5-1,1.1-0.8c0.9,0.3,0.9,1.5,1.1,2.2C16.9,326.9,17.4,327.6,17.3,328.9z"/>
							<path class="st0" d="M18.9,325.1c-0.2,0.7-0.3,1-0.7,2c-0.2,0.5-0.6,1.7-0.8,2.2c0.2-1.4,0.1-1.9-0.2-2.8
								C16.7,324.5,19.4,323.2,18.9,325.1z"/>
							<path class="st0" d="M14.7,325.6c-0.6,0-2.5,0.2-2.3-0.9c0.1-0.4,0.8-0.6,1.1-0.4C14,324.5,14.1,325.1,14.7,325.6z"/>
							<path class="st0" d="M13.9,328.2c-0.5,0-0.8,0.7-1.2,0.6c-0.6-0.2-0.4-0.8,0-0.8C13.1,327.9,13.5,328,13.9,328.2z"/>
							<path class="st0" d="M18.3,327.5c0.6-0.7,1.4-0.5,1.5-1c0.2-0.6-0.5-0.8-0.8-0.5C18.7,326.3,18.5,326.9,18.3,327.5z"/>
							<path class="st0" d="M12.5,332.1c-0.5,0.1-1.1,0.3-1.6,0.3c-1,0.1-1.9-0.1-2.8-0.5c-1.5-0.6-3-0.8-4.5-0.2
								c1.3-1,3.5-1.1,5.1-0.7C9.9,331.4,10.3,331.8,12.5,332.1z"/>
						</g>
						<path class="st2" d="M15.8,329.3c-0.1,1.3-1.1,2.1-2.7,2.1c-1,0-2.1-0.5-3-0.9c-0.9-0.4-1.6-0.7-2.5-0.8c-0.4,0-1.2,0-1.8,0.1
							c0,0,0.1,0,0.1-0.1c0.8-0.3,1.5-0.4,2.4-0.3c1.7,0.2,3.2,1.4,4.8,1.5c1.4,0.1,2.9-1.1,1.9-2.4c-0.6-0.8-1.5-1.2-2.5-1
							c-0.4,0.1-0.9,0.1-1-0.2c-0.3-1.1,1.7-1.1,2.6-0.7C15.1,327.1,15.9,328.1,15.8,329.3z"/>
						<path class="st2" d="M18.9,325.1c-0.2,0.7-0.3,1-0.7,2c-0.2,0.5-0.6,1.7-0.8,2.2c0.3-1.1,0.3-1.8,0.3-2.2c0-0.4,0-0.6,0-0.9
							c0-0.4,0.1-0.8,0.2-1.2C18.3,324.3,19.1,324.1,18.9,325.1z"/>
					</g>
				</g>
			</g>
			<g>
				
					<text transform="matrix(1 0 0 1 3.0884 328.4772)" style="font-family:'Averta-Regular'; font-size:10.4831px; letter-spacing:2;">    - AQUATIC PARK</text>
			</g>
		</g>
		<g>
			<path class="st1" d="M10.9,351.8c1,0,1.8,1.2,2.3,3c0.4-0.1,0.7-0.2,1-0.2c0.1-0.3,0.3-0.4,0.6-0.4c0.3,0,0.5,0.2,0.6,0.4
				c0.7,0.1,1.3,0.3,1.5,0.8c0.5,0.8-0.1,2.2-1.4,3.5c1.3,1.4,1.9,2.7,1.4,3.5c-0.5,0.8-1.9,1-3.8,0.5c-0.5,1.8-1.4,3-2.3,3
				c-1,0-1.8-1.2-2.4-3c-1.8,0.5-3.3,0.3-3.8-0.5c-0.5-0.8,0.1-2.2,1.4-3.5c-1.3-1.4-1.9-2.7-1.4-3.5c0.5-0.8,1.9-1,3.8-0.5
				C9.1,353,9.9,351.8,10.9,351.8L10.9,351.8z M12.3,360.7c0.1,0,0.3,0,0.4,0.1c0.3-0.2,0.5-0.3,0.7-0.5c0-0.5,0.1-1,0.1-1.5
				c0-0.5,0-1-0.1-1.5c-0.4-0.3-0.8-0.5-1.2-0.8c-0.4-0.3-0.9-0.5-1.3-0.7c-0.4,0.2-0.9,0.4-1.3,0.7c-0.4,0.3-0.9,0.5-1.2,0.8
				c0,0.5-0.1,1-0.1,1.5c0,0.5,0,1,0.1,1.5c0.4,0.3,0.8,0.6,1.2,0.8c0.4,0.3,0.9,0.5,1.3,0.7c0.3-0.1,0.5-0.3,0.8-0.4c0,0,0,0,0-0.1
				C11.7,361,12,360.7,12.3,360.7L12.3,360.7z M12.9,361c0.1,0.1,0.1,0.2,0.1,0.3c0,0.4-0.3,0.6-0.6,0.6c-0.2,0-0.5-0.1-0.6-0.3
				c-0.2,0.1-0.4,0.2-0.6,0.3c0.6,0.3,1.3,0.5,1.8,0.6c0.2-0.6,0.3-1.2,0.4-1.9C13.2,360.8,13.1,360.9,12.9,361L12.9,361z
				 M8.3,355.3c0,0,0.1,0,0.1,0c0-0.1,0-0.2,0.1-0.2c-1.5-0.3-2.7-0.2-3.2,0.6c-0.4,0.7,0,1.9,1.1,3c0.5-0.5,1.1-0.9,1.7-1.4
				c0-0.2,0-0.5,0.1-0.7c-0.3,0-0.5-0.3-0.5-0.6C7.6,355.6,7.9,355.3,8.3,355.3L8.3,355.3z M8.7,355.4c0.1,0.1,0.2,0.3,0.2,0.5
				c0,0.3-0.2,0.5-0.5,0.6c0,0.2,0,0.3-0.1,0.5c0.3-0.2,0.7-0.5,1.1-0.7c0.4-0.2,0.8-0.4,1.1-0.6c-0.6-0.3-1.3-0.5-1.8-0.6
				C8.7,355.2,8.7,355.3,8.7,355.4L8.7,355.4z M15.5,355c-0.1,0.3-0.3,0.4-0.6,0.4c-0.3,0-0.6-0.2-0.6-0.5c-0.3,0-0.6,0.1-0.9,0.1
				c0.2,0.7,0.3,1.4,0.4,2.2c0.6,0.5,1.2,0.9,1.7,1.4c1.1-1.2,1.5-2.3,1.1-3C16.3,355.3,16,355.1,15.5,355L15.5,355z M10.9,357.8
				c0.6,0,1.1,0.5,1.1,1.1c0,0.6-0.5,1.1-1.1,1.1c-0.6,0-1.1-0.5-1.1-1.1C9.8,358.3,10.3,357.8,10.9,357.8L10.9,357.8z M8.5,362.7
				c-0.2-0.7-0.3-1.4-0.4-2.2c-0.6-0.5-1.2-0.9-1.7-1.4c-1.1,1.2-1.5,2.3-1.1,3C5.7,362.8,6.9,363,8.5,362.7L8.5,362.7z M10.9,355.6
				c0.7-0.3,1.4-0.6,2.1-0.8c-0.5-1.5-1.2-2.5-2.1-2.5c-0.8,0-1.6,1-2.1,2.5C9.5,355.1,10.2,355.3,10.9,355.6L10.9,355.6z
				 M15.4,359.1c-0.5,0.5-1.1,0.9-1.7,1.4c-0.1,0.8-0.2,1.5-0.4,2.2c1.5,0.3,2.7,0.2,3.2-0.6C16.9,361.4,16.4,360.2,15.4,359.1
				L15.4,359.1z M10.9,362.1c-0.7,0.3-1.4,0.6-2.1,0.8c0.5,1.5,1.2,2.5,2.1,2.5c0.8,0,1.6-1,2.1-2.5
				C12.3,362.7,11.6,362.4,10.9,362.1L10.9,362.1z M6.6,358.9c0.4-0.4,0.9-0.9,1.5-1.3c0,0.4,0,0.8,0,1.3c0,0.4,0,0.9,0,1.3
				C7.5,359.7,7,359.3,6.6,358.9L6.6,358.9z M11.2,355.8c0.6-0.3,1.3-0.5,1.8-0.6c0.2,0.6,0.3,1.2,0.4,1.9c-0.3-0.2-0.7-0.5-1.1-0.7
				C12,356.2,11.6,356,11.2,355.8L11.2,355.8z M15.2,358.9c-0.4,0.4-0.9,0.9-1.5,1.3c0-0.4,0-0.8,0-1.3c0-0.4,0-0.9,0-1.3
				C14.3,358,14.8,358.4,15.2,358.9L15.2,358.9z M10.6,362c-0.6,0.3-1.3,0.5-1.8,0.6c-0.2-0.6-0.3-1.2-0.4-1.9
				c0.3,0.2,0.7,0.5,1.1,0.7C9.8,361.6,10.2,361.8,10.6,362L10.6,362z"/>
			
				<text transform="matrix(1 0 0 1 3.3599 360.9626)" style="font-family:'Averta-Regular'; font-size:10.4831px; letter-spacing:2;">    - SOUTHERN DELTA RESERCH</text>
		</g>
		<g>
			<path class="st0" d="M9.3,416.7l1.1,0.6l0,0l0.1,0l0,0l1.1,0.6l0,0l1.1-0.7l0,0l0.8-0.5c0,0,0-0.1,0-0.1c0-0.2,0.2-0.4,0.4-0.5
				v-0.9l0,0v-1.3l-1.1-0.7l0,0l-0.8-0.5c-0.1,0.1-0.2,0.2-0.4,0.2c-0.1,0-0.3-0.1-0.4-0.2l-0.8,0.4h0l-1.1,0.7v1.3V416.7z
				 M16.4,420.4c0.2,0.1,0.3,0.2,0.3,0.4c0,0.3-0.2,0.5-0.5,0.5c-0.1,0-0.2,0-0.3-0.1l-0.8,0.5v0l-1.1,0.6v1.3v1.3h-0.2v-1.3v-1.3
				l-1.1-0.6v0l-0.8-0.5c-0.1,0.1-0.2,0.2-0.3,0.2c-0.1,0-0.2-0.1-0.3-0.1l-0.8,0.4l0,0v0l-1.1,0.6v1.3v1.3H9v-1.3v-1.3l-1.1-0.6v0
				l-0.8-0.5c-0.1,0.1-0.2,0.1-0.3,0.1c-0.3,0-0.5-0.2-0.5-0.5c0-0.2,0.1-0.4,0.4-0.5v-0.9v-1.3l-1.1-0.6l0,0l-1.2-0.7l-0.1,0h0.5
				l0.9,0.5l0,0l1.1,0.6l1.1-0.6l0,0l1.2-0.7v-1.3V414l-1.1-0.7l0,0l-1.1-0.6v-0.3l0.1,0l1.2,0.7l0,0l1.2,0.7l1.1-0.6l0,0l0.8-0.4
				c0,0,0-0.1,0-0.1c0-0.3,0.2-0.5,0.5-0.5c0.3,0,0.5,0.2,0.5,0.5c0,0,0,0,0,0.1l0.8,0.5l0,0l1.1,0.7l1.1-0.7l0,0l1.2-0.7l0.1,0v0.3
				l-1.1,0.7l0,0l-1.1,0.7v1.3l0,0v0.9c0.2,0.1,0.3,0.2,0.3,0.4c0,0.1,0,0.1,0,0.1l0.8,0.4l0.1,0l0,0l1.1,0.7l1.1-0.7l0,0l1-0.6
				l0.4,0.1l-1.3,0.7l0,0l-1.2,0.7v1.2V420.4z M15.8,421c0,0,0-0.1,0-0.1c0-0.2,0.2-0.4,0.4-0.5v-0.9v-1.3l0,0l-1.1-0.6l-0.1,0h0
				l-0.8-0.4c-0.1,0.1-0.2,0.1-0.3,0.1c-0.1,0-0.2,0-0.3-0.1l-0.8,0.5l0,0l-1.2,0.7v1.2v0.9c0.2,0.1,0.3,0.2,0.3,0.4
				c0,0,0,0.1,0,0.1l0.8,0.5l0,0l1.1,0.7l1.1-0.7h0L15.8,421z M6.9,420.4c0.2,0.1,0.3,0.2,0.3,0.5c0,0,0,0.1,0,0.1l0.8,0.5l0,0
				l1.1,0.7l1.1-0.7l0,0l0,0l0.8-0.5c0,0,0-0.1,0-0.1c0-0.2,0.2-0.4,0.4-0.5v-0.9v-1.3l-1.1-0.6l0,0l-0.1,0l-1.1-0.6L8,417.5l0,0
				l-1.2,0.7v1.3V420.4z"/>
			
				<text transform="matrix(1 0 0 1 3.0884 421.8112)" style="font-family:'Averta-Regular'; font-size:10.4831px; letter-spacing:2;">    - CUTURAL FACILITY</text>
		</g>
		<g>
			<g>
				<g>
					<g>
						<rect x="9.1" y="452.5" class="st0" width="0.4" height="0.6"/>
						<rect x="9.1" y="452.3" class="st0" width="0.4" height="0.2"/>
						<rect x="9.1" y="448.9" class="st0" width="0.3" height="3.6"/>
					</g>
					<g>
						<rect x="9.9" y="452.5" class="st0" width="0.4" height="0.6"/>
						<rect x="9.9" y="452.3" class="st0" width="0.4" height="0.2"/>
						<rect x="10" y="448.9" class="st0" width="0.3" height="3.6"/>
					</g>
					<g>
						<rect x="10.8" y="452.5" class="st0" width="0.4" height="0.6"/>
						<rect x="10.8" y="452.3" class="st0" width="0.4" height="0.2"/>
						<rect x="10.8" y="448.9" class="st0" width="0.3" height="3.6"/>
					</g>
					<g>
						<rect x="11.6" y="452.5" class="st0" width="0.4" height="0.6"/>
						<rect x="11.6" y="452.3" class="st0" width="0.4" height="0.2"/>
						<rect x="11.6" y="448.9" class="st0" width="0.3" height="3.6"/>
					</g>
					<g>
						<rect x="12.4" y="452.5" class="st0" width="0.4" height="0.6"/>
						<rect x="12.5" y="452.3" class="st0" width="0.4" height="0.2"/>
						<rect x="12.5" y="448.9" class="st0" width="0.3" height="3.6"/>
					</g>
					<g>
						<rect x="13.3" y="452.5" class="st0" width="0.4" height="0.6"/>
						<rect x="13.3" y="452.3" class="st0" width="0.4" height="0.2"/>
						<rect x="13.3" y="448.9" class="st0" width="0.3" height="3.6"/>
					</g>
					<rect x="9" y="452.9" class="st0" width="4.8" height="0.7"/>
					<rect x="8.5" y="453.4" class="st0" width="5.7" height="0.8"/>
					<rect x="9" y="444.9" class="st0" width="0" height="0.2"/>
					<path class="st0" d="M9.3,448.1l-1.5-0.1v-0.5H7.5v0.5H7v-0.5H6.7v0.5H6.1v-0.5H5.9v0.5H5.3v-0.5H5v0.5H4.4v-1.6l0.2-0.6H4.2
						v-0.3H3.1v0H2v0.3H1.7l0.2,0.6v7.8h1.2h0.1h6.1L9.3,448.1z M3,446.4c0-0.1,0.1-0.3,0.2-0.3c0.1,0,0.2,0.1,0.2,0.3v0.6H3V446.4z
						 M2.5,446.4c0-0.1,0.1-0.3,0.2-0.3s0.2,0.1,0.2,0.3v0.6H2.5V446.4z M3.6,452.8H2.5v-2.6c0-0.5,0.3-0.9,0.6-0.9
						c0.3,0,0.6,0.4,0.6,0.9V452.8z M3.8,447.2L3.8,447.2l0-0.2H3.5v-0.6c0-0.1,0.1-0.3,0.2-0.3s0.2,0.1,0.2,0.3V447.2z M5,452.8
						H4.5v-1.5c0-0.2,0.1-0.4,0.2-0.4c0.1,0,0.2,0.2,0.2,0.4V452.8z M5,449.7v0.8H4.5v-0.8H4.5l0.3-0.4L5,449.7L5,449.7z M5.8,452.8
						H5.4v-1.5c0-0.2,0.1-0.4,0.2-0.4c0.1,0,0.2,0.2,0.2,0.4V452.8z M5.8,449.7v0.8H5.4v-0.8H5.3l0.3-0.4L5.8,449.7L5.8,449.7z
						 M6.7,452.8H6.2v-1.5c0-0.2,0.1-0.4,0.2-0.4s0.2,0.2,0.2,0.4V452.8z M6.7,449.7v0.8H6.2v-0.8H6.1l0.3-0.4L6.7,449.7L6.7,449.7z
						 M7.5,452.8H7v-1.5c0-0.2,0.1-0.4,0.2-0.4c0.1,0,0.2,0.2,0.2,0.4V452.8z M7.5,449.7v0.8H7v-0.8H6.9l0.3-0.4L7.5,449.7
						L7.5,449.7z M8.3,452.8H7.8v-1.5c0-0.2,0.1-0.4,0.2-0.4c0.1,0,0.2,0.2,0.2,0.4V452.8z M8.3,449.7v0.8H7.8v-0.8H7.8l0.3-0.4
						L8.3,449.7L8.3,449.7z"/>
					<path class="st0" d="M13.3,454.2h6.1h0.1h1.2v-7.8l0.2-0.6h-0.3v-0.3h-1.1v0h-1.1v0.3H18l0.2,0.6v1.6h-0.7v-0.5h-0.2v0.5h-0.6
						v-0.5h-0.2v0.5h-0.6v-0.5h-0.2v0.5H15v-0.5h-0.2v0.5l-1.5,0.1L13.3,454.2z M19.6,447h-0.3v-0.6c0-0.1,0.1-0.3,0.2-0.3
						c0.1,0,0.2,0.1,0.2,0.3V447z M20.1,447h-0.3v-0.6c0-0.1,0.1-0.3,0.2-0.3s0.2,0.1,0.2,0.3V447z M19,450.2c0-0.5,0.3-0.9,0.6-0.9
						c0.3,0,0.6,0.4,0.6,0.9v2.6H19V450.2z M18.8,446.4c0-0.1,0.1-0.3,0.2-0.3s0.2,0.1,0.2,0.3v0.6h-0.3v0.2h0V446.4z M17.6,451.3
						c0-0.2,0.1-0.4,0.2-0.4c0.1,0,0.2,0.2,0.2,0.4v1.5h-0.5V451.3z M17.5,449.7l0.3-0.4l0.3,0.4h-0.1v0.8h-0.5L17.5,449.7
						L17.5,449.7z M16.8,451.3c0-0.2,0.1-0.4,0.2-0.4c0.1,0,0.2,0.2,0.2,0.4v1.5h-0.5V451.3z M16.7,449.7l0.3-0.4l0.3,0.4h-0.1v0.8
						h-0.5L16.7,449.7L16.7,449.7z M15.9,451.3c0-0.2,0.1-0.4,0.2-0.4c0.1,0,0.2,0.2,0.2,0.4v1.5h-0.5V451.3z M15.9,449.7l0.3-0.4
						l0.3,0.4h-0.1v0.8h-0.5L15.9,449.7L15.9,449.7z M15.1,451.3c0-0.2,0.1-0.4,0.2-0.4c0.1,0,0.2,0.2,0.2,0.4v1.5h-0.5V451.3z
						 M15,449.7l0.3-0.4l0.3,0.4h-0.1v0.8h-0.5L15,449.7L15,449.7z M14.3,451.3c0-0.2,0.1-0.4,0.2-0.4c0.1,0,0.2,0.2,0.2,0.4v1.5
						h-0.5V451.3z M14.2,449.7l0.3-0.4l0.3,0.4h-0.1v0.8h-0.5L14.2,449.7L14.2,449.7z"/>
					<path class="st0" d="M13.4,447c0-1.6-0.9-3-2-3c-1.1,0-2,1.3-2,3H13.4z"/>
					<g>
						<rect x="3" y="443.8" class="st0" width="0.1" height="1.7"/>
						<path class="st0" d="M4.1,443.9c-0.3-0.4-0.6,0.4-0.9,0c0,0.3,0,0.6,0,0.9c0.3,0.4,0.6-0.4,0.9,0
							C4.1,444.5,4.1,444.2,4.1,443.9z"/>
					</g>
					<g>
						<rect x="19.3" y="443.8" class="st0" width="0.1" height="1.7"/>
						<path class="st0" d="M20.3,443.9c-0.3-0.4-0.6,0.4-0.9,0c0,0.3,0,0.6,0,0.9c0.3,0.4,0.6-0.4,0.9,0
							C20.3,444.5,20.3,444.2,20.3,443.9z"/>
					</g>
					<path class="st0" d="M13.9,446.9v-0.3l-0.1-0.2v-0.6l0.1-0.1l-0.2-0.1v-0.2h-0.1v-0.1c0-0.1,0-0.2-0.1-0.2
						c-0.1,0-0.1,0.1-0.1,0.2v0.1h-0.1v0.2l-0.2,0.1l0.1,0.1v0.6l-0.1,0.2v0.3h-1.4v-0.2l0.2-0.2v-0.2h-0.8h0h-0.8v0.2l0.2,0.2v0.2
						H9.3v-0.3l-0.1-0.2v-0.6l0.1-0.1l-0.2-0.1v-0.2H9.1v-0.1c0-0.1,0-0.2-0.1-0.2s-0.1,0.1-0.1,0.2v0.1H8.8v0.2l-0.2,0.1l0.1,0.1
						v0.6l-0.1,0.2v0.3H8.2v1.6h0.6v0.2h0.2v0.4h2.3h0h2.3v-0.4h0.2v-0.2h0.6v-1.6H13.9z M13.3,448.5v0.2H9.3v-0.2l0-0.1l2-1.3
						l2,1.3L13.3,448.5z"/>
				</g>
			</g>
			
				<text transform="matrix(1 0 0 1 3.0884 451.9753)" style="font-family:'Averta-Regular'; font-size:10.4831px; letter-spacing:2;">    - CITY HALL</text>
		</g>
	</g>
	<g>
		<g>
			<text transform="matrix(1 0 0 1 -18.7651 7.4167)" style="fill:#231F20; font-family:'HelveticaNeue-Bold'; font-size:8.41px;">1</text>
		</g>
		<circle class="st3" cx="-16.2" cy="4.5" r="5.2"/>
	</g>
	<g>
		<g>
			<text transform="matrix(1 0 0 1 -18.7651 37.7917)" style="fill:#231F20; font-family:'HelveticaNeue-Bold'; font-size:8.41px;">2</text>
		</g>
		<circle class="st3" cx="-16.2" cy="34.9" r="5.2"/>
	</g>
	<g>
		<g>
			<text transform="matrix(1 0 0 1 -18.7651 68.1657)" style="fill:#231F20; font-family:'HelveticaNeue-Bold'; font-size:8.41px;">3</text>
		</g>
		<circle class="st3" cx="-16.2" cy="65.3" r="5.2"/>
	</g>
	<g>
		<g>
			
				<text transform="matrix(1 0 0 1 -18.7651 100.2204)" style="fill:#231F20; font-family:'HelveticaNeue-Bold'; font-size:8.41px;">4</text>
		</g>
		<circle class="st3" cx="-16.2" cy="97.3" r="5.2"/>
	</g>
	<g>
		<g>
			
				<text transform="matrix(1 0 0 1 -18.7651 132.2771)" style="fill:#231F20; font-family:'HelveticaNeue-Bold'; font-size:8.41px;">5</text>
		</g>
		<circle class="st3" cx="-16.2" cy="129.4" r="5.2"/>
	</g>
	<g>
		<g>
			<text transform="matrix(1 0 0 1 -18.7651 162.653)" style="fill:#231F20; font-family:'HelveticaNeue-Bold'; font-size:8.41px;">6</text>
		</g>
		<circle class="st3" cx="-16.2" cy="159.8" r="5.2"/>
	</g>
	<g>
		<g>
			
				<text transform="matrix(1 0 0 1 -18.7651 196.3903)" style="fill:#231F20; font-family:'HelveticaNeue-Bold'; font-size:8.41px;">7</text>
		</g>
		<circle class="st3" cx="-16.2" cy="193.5" r="5.2"/>
	</g>
	<g>
		<g>
			
				<text transform="matrix(1 0 0 1 -18.7651 226.7644)" style="fill:#231F20; font-family:'HelveticaNeue-Bold'; font-size:8.41px;">8</text>
		</g>
		<circle class="st3" cx="-16.2" cy="223.9" r="5.2"/>
	</g>
	<g>
		<g>
			
				<text transform="matrix(1 0 0 1 -18.7651 261.7145)" style="fill:#231F20; font-family:'HelveticaNeue-Bold'; font-size:8.41px;">9</text>
		</g>
		<circle class="st3" cx="-16.2" cy="258.8" r="5.2"/>
	</g>
	<g>
		<g>
			
				<text transform="matrix(1 0 0 1 -21.3305 296.6647)" style="fill:#231F20; font-family:'HelveticaNeue-Bold'; font-size:8.41px;">10</text>
		</g>
		<circle class="st3" cx="-16.2" cy="293.8" r="5.2"/>
	</g>
	<g>
		<g>
			<text transform="matrix(1 0 0 1 -20.728 331.613)" style="fill:#231F20; font-family:'HelveticaNeue-Bold'; font-size:8.41px;">11</text>
		</g>
		<circle class="st3" cx="-16.2" cy="328.7" r="5.2"/>
	</g>
	<g>
		<g>
			
				<text transform="matrix(1 0 0 1 -21.3305 363.1989)" style="fill:#231F20; font-family:'HelveticaNeue-Bold'; font-size:8.41px;">12</text>
		</g>
		<circle class="st3" cx="-16.2" cy="360.3" r="5.2"/>
	</g>
	<g>
		<g>
			
				<text transform="matrix(1 0 0 1 -21.3315 391.4216)" style="fill:#231F20; font-family:'HelveticaNeue-Bold'; font-size:8.41px;">13</text>
		</g>
		<circle class="st3" cx="-16.2" cy="388.5" r="5.2"/>
	</g>
	<g>
		<g>
			<text transform="matrix(1 0 0 1 -20.728 421.3239)" style="fill:#231F20; font-family:'HelveticaNeue-Bold'; font-size:8.41px;">14</text>
		</g>
		<circle class="st3" cx="-16.2" cy="418.4" r="5.2"/>
	</g>
	<g>
		<g>
			
				<text transform="matrix(1 0 0 1 -21.3305 452.9108)" style="fill:#231F20; font-family:'HelveticaNeue-Bold'; font-size:8.41px;">15</text>
		</g>
		<circle class="st3" cx="-16.2" cy="450" r="5.2"/>
	</g>
</g>
</svg>
