<?xml version="1.0" encoding="utf-8"?>
<!-- Generator: Adobe Illustrator 22.0.1, SVG Export Plug-In . SVG Version: 6.00 Build 0)  -->
<svg version="1.1" id="Layer_6" xmlns="http://www.w3.org/2000/svg" xmlns:xlink="http://www.w3.org/1999/xlink" x="0px" y="0px"
	 viewBox="0 0 19.3 15.9" style="enable-background:new 0 0 19.3 15.9;" xml:space="preserve">
<style type="text/css">
	.st0{fill:#1a8dbd;}
	.st1{fill-rule:evenodd;clip-rule:evenodd;fill:#1a8dbd;}
	.st2{opacity:0.17;fill:#1a8dbd;}
	.st3{fill:none;stroke:#A6A8AB;stroke-width:0.5;stroke-miterlimit:10;}
</style>
<g>
	<g>
		<g>
			<g>
				<g>
					<g id="XMLID_81_">
						<g>
							<rect id="XMLID_90_" x="0.4" y="-308.4" class="st0" width="12.7" height="1"/>
							<rect id="XMLID_89_" x="1" y="-309.3" class="st0" width="11.6" height="0.6"/>
							<rect id="XMLID_88_" x="1" y="-314.8" class="st0" width="11.6" height="0.6"/>
							<rect id="XMLID_87_" x="2" y="-313.9" class="st0" width="1.5" height="4.3"/>
							<rect id="XMLID_86_" x="4.6" y="-313.9" class="st0" width="1.5" height="4.3"/>
							<rect id="XMLID_85_" x="7.3" y="-313.9" class="st0" width="1.5" height="4.3"/>
							<rect id="XMLID_84_" x="9.9" y="-313.9" class="st0" width="1.5" height="4.3"/>
							<polygon id="XMLID_82_" class="st0" points="1.3,-315.4 12.5,-315.4 6.8,-317.4 							"/>
						</g>
					</g>
				</g>
			</g>
		</g>
		<g>
			<g>
				<g>
					<g>
						<g>
							<g>
								<g>
									<path class="st0" d="M12.8-284.3c0,0.7-0.2,1.4-0.7,2c-0.8,1.1-2.2,1.8-3.7,2.2c1.5,0.1,3.1-0.1,4.4-0.7
										c1.6-0.8,2.5-2,2.4-3.3C14.4-284.3,13.6-284.4,12.8-284.3z"/>
								</g>
								<g>
									<path class="st0" d="M11.9-286c-0.9,0.1-1.7,0.3-2.4,0.6c0.4,0.6,0.6,1.2,0.6,1.8c0,1.3-0.9,2.5-2.3,3.3
										c1.7-0.2,3.3-1,4.1-2.1C12.8-283.5,12.7-284.9,11.9-286z"/>
								</g>
								<g>
									<path class="st0" d="M1.9-284.3c0,0.7,0.2,1.4,0.7,2c0.8,1.1,2.2,1.8,3.7,2.2c-1.5,0.1-3.1-0.1-4.4-0.7
										c-1.6-0.8-2.5-2-2.4-3.3C0.3-284.3,1.1-284.4,1.9-284.3z"/>
								</g>
								<g>
									<path class="st0" d="M2.8-286c0.9,0.1,1.7,0.3,2.4,0.6c-0.4,0.6-0.6,1.2-0.6,1.8c0,1.3,0.9,2.5,2.3,3.3
										c-1.7-0.2-3.3-1-4.1-2.1C1.9-283.5,1.9-284.9,2.8-286z"/>
								</g>
								<g>
									<path class="st0" d="M4.9-283.5c0,1.3,1,2.5,2.5,3.3c1.5-0.7,2.5-1.9,2.5-3.3c0-1.3-1-2.5-2.5-3.3
										C5.8-286.1,4.9-284.9,4.9-283.5z"/>
								</g>
							</g>
						</g>
						<rect x="2.3" y="-280.5" class="st0" width="10.1" height="1.1"/>
					</g>
				</g>
			</g>
			
				<text transform="matrix(1 0 0 1 1.6262 -280.3353)" style="font-family:'Averta-Regular'; font-size:10.4831px; letter-spacing:2;">    - CONVENTION CENTER</text>
		</g>
		<g>
			<path class="st0" d="M15.8-249.3v-5.8h-1.4v-0.8h0.3v-0.5h-1v-0.4h-0.2c0-0.1,0-0.3-0.1-0.5c-0.2-0.2-0.3-0.2-0.4-0.4
				c0-0.2,0.1-0.3,0.1-0.3l0-0.2c0,0,0.4-0.6,0.3-0.6c-0.1,0-0.4,0.5-0.4,0.5l-0.2-0.1c0,0-0.2-0.6-0.3-0.5c-0.1,0,0.2,0.6,0.2,0.6
				s-0.1,0.2-0.1,0.3c0.1,0.1,0.2,0.2,0.1,0.3c-0.1,0-0.1,0.2-0.2,0.2c-0.1-0.1-0.2-0.1-0.2,0c0,0.1-0.2,0.1-0.1,0.3
				c0,0.1,0.1,0.3,0.1,0.4h-0.1v0.4h-0.4l-4-1.7v-0.8l-0.3-0.5v-0.3l0,0h0l0,0v0.3L7-258.8v0.8l-4,1.7H2.4v-0.4H2.3
				c0-0.1,0.1-0.2,0.1-0.4c0-0.2-0.1-0.3-0.1-0.3c0-0.1-0.1-0.1-0.2,0c-0.1,0-0.1-0.1-0.2-0.2c-0.1-0.1,0.1-0.1,0.1-0.3
				c0-0.1-0.1-0.3-0.1-0.3s0.3-0.6,0.2-0.6c-0.1,0-0.3,0.5-0.3,0.5l-0.2,0.1c0,0-0.3-0.5-0.4-0.5c-0.1,0,0.3,0.6,0.3,0.6l0,0.2
				c0,0,0.1,0.2,0.1,0.3c0,0.2-0.1,0.1-0.4,0.4c-0.2,0.2-0.1,0.4-0.1,0.5H0.9v0.4H0.1v0.5h0.2v0.8h-1.4v5.8h-0.2v0.7H16v-0.7H15.8z
				 M0.3-251.6h-0.9v-1.6h0.9V-251.6z M0.6-256.1h13.6v0.3H0.6V-256.1z M1.8-255.5c0.6,0,1.2,0.4,1.4,0.9H0.4
				C0.6-255.1,1.1-255.5,1.8-255.5z M2.2-249.3H1.3v-1.4c0,0,0.1-0.4,0.5-0.4c0.4,0,0.5,0.4,0.5,0.4V-249.3z M2.2-251.7H1.3v-1.6
				h0.9V-251.7z M4.1-249.3H3.2v-1.4c0,0,0.1-0.4,0.5-0.4c0.4,0,0.5,0.4,0.5,0.4V-249.3z M4.1-251.7H3.2v-1.6h0.9V-251.7z M6-249.3
				H5v-1.4c0,0,0.1-0.4,0.5-0.4c0.4,0,0.5,0.4,0.5,0.4V-249.3z M6-251.7H5v-1.6H6V-251.7z M7.8-249.3H6.9v-1.4c0,0,0.1-0.4,0.5-0.4
				c0.4,0,0.5,0.4,0.5,0.4V-249.3z M7.8-251.7H6.9v-1.6h0.9V-251.7z M9.7-249.3H8.8v-1.4c0,0,0.1-0.4,0.5-0.4c0.4,0,0.5,0.4,0.5,0.4
				V-249.3z M9.7-251.7H8.8v-1.6h0.9V-251.7z M11.6-249.3h-0.9v-1.4c0,0,0.1-0.4,0.5-0.4c0.4,0,0.5,0.4,0.5,0.4V-249.3z M11.6-251.7
				h-0.9v-1.6h0.9V-251.7z M13.4-249.3h-0.9v-1.4c0,0,0.1-0.4,0.5-0.4c0.4,0,0.5,0.4,0.5,0.4V-249.3z M13.4-251.7h-0.9v-1.6h0.9
				V-251.7z M11.5-254.6c0.2-0.5,0.8-0.9,1.4-0.9c0.6,0,1.2,0.4,1.4,0.9H11.5z M15.3-251.6h-0.9v-1.6h0.9V-251.6z"/>
		</g>
		<g>
			<path class="st0" d="M14.1-222.8v-0.3h-0.2v-0.7h0.2v-0.3H8.7v-0.2H8.4v-0.2H7.8c0,0,0,0,0,0c0,0,0.1-0.3,0.2-0.3
				c0.1-0.1,0.2-0.1,0.2-0.1c0,0,0,0.2,0,0.2l0,0.1c0,0,0,0.1,0.1,0.1c0,0,0.1-0.1,0-0.1c0-0.1,0-0.3,0-0.4c0-0.1-0.1-0.1-0.1-0.1
				s0,0,0-0.1c0-0.1-0.1-0.2-0.1-0.2s0-0.1,0-0.1c0-0.1,0-0.2,0-0.2s0,0.1,0,0.1c0,0,0,0,0,0s0,0,0.1,0c0,0,0.1-0.1,0-0.1
				c0,0,0-0.1,0-0.1c0,0,0-0.1,0-0.1c0,0,0-0.1,0-0.1c0,0,0-0.1,0-0.1c0,0,0-0.1,0-0.1l-0.1,0l0,0l0,0c0,0,0,0-0.1,0
				c0,0-0.1,0.1-0.2,0.2c-0.1,0.1-0.1,0.4-0.1,0.4c0,0-0.1,0.1-0.1,0.2c0,0.1-0.1,0.1-0.3,0.2c-0.1,0.1-0.1,0.4,0,0.5s0,0.2,0,0.2
				l0,0H7c0,0,0-0.1,0-0.2c0-0.1,0.1-0.3,0.1-0.3c0-0.1,0-0.3,0-0.4c0-0.1-0.1-0.2-0.1-0.3c0-0.1,0-0.3,0-0.3c0-0.1,0-0.1,0-0.2
				c0,0,0-0.1,0-0.1c0,0,0,0,0,0c0,0,0-0.1,0-0.1l0,0.1c0,0,0,0-0.1,0c0,0,0,0-0.1,0c0,0,0,0,0,0.1s0,0,0,0.1c0,0,0,0.1,0,0.1
				c0,0,0,0.1,0,0.1c0,0.1,0.1,0.1,0,0.3c0,0.1,0,0.1,0,0.1v0c0-0.1,0-0.2-0.1-0.2c0,0-0.1,0-0.1,0c-0.1,0,0,0.1,0,0.1
				s-0.1,0-0.1-0.1c-0.1,0,0.1-0.2,0.1-0.2c0,0,0-0.1-0.1-0.1c0,0-0.1,0-0.1,0v-0.1h0v-0.2c0.1,0,0.2-0.1,0.2-0.3s-0.1-0.2-0.2-0.3
				v-0.2c0,0,0,0,0,0s0,0,0,0c0,0,0,0,0,0c0,0,0-0.1,0-0.1s0.1,0,0.1,0c0,0,0-0.1,0-0.1c0.1,0,0.1-0.1,0.1-0.1c0,0,0,0,0,0
				c0,0,0-0.1,0-0.1c0,0,0-0.1,0-0.1c0,0,0-0.1,0-0.1c0,0,0-0.1,0-0.1c0,0-0.3,0.2-0.3,0.2s-0.1,0,0,0.1c0,0-0.1,0.1-0.1,0.1
				s0-0.1,0-0.1c0,0,0,0-0.1-0.1v0l0,0l0,0v0c0,0-0.1,0-0.1,0.1c0,0,0,0.1,0,0.1s-0.1,0-0.1-0.1c0,0,0-0.1,0-0.1s-0.3-0.2-0.3-0.2
				c0,0,0,0,0,0.1c0,0,0,0,0,0.1c0,0,0,0,0,0.1c0,0,0,0,0,0.1c0,0,0,0,0,0c0,0,0.1,0.1,0.1,0.1c0,0,0,0.1,0,0.1c0,0,0.1,0,0.1,0
				S5.9-227,6-227c0,0,0-0.1,0,0c0,0,0,0,0,0s0,0,0,0v0.2c-0.1,0-0.2,0.1-0.2,0.3s0.1,0.2,0.2,0.3v0.2c-0.1,0-0.2,0.2-0.2,0.3
				c0,0,0,0.1,0,0.1c-0.1,0-0.1,0.3-0.1,0.3s0-0.1-0.1-0.2s0-0.2,0-0.3c0-0.1,0-0.1,0-0.1c0,0,0-0.1,0-0.1c0,0,0,0,0-0.1
				c0,0,0-0.1,0-0.1c0,0-0.1,0-0.1,0c0,0-0.1,0-0.1,0l0-0.1c0,0,0,0.1,0,0.1c0,0,0,0,0,0c0,0,0,0,0,0.1c0,0,0,0.1,0,0.2
				c0,0.1,0,0.3,0,0.3c0,0.1-0.1,0.2-0.1,0.3c0,0.1,0,0.3,0,0.4c0,0.1,0.1,0.2,0.1,0.3c0,0.1,0,0.1,0,0.2H5l0,0c0,0-0.1-0.1,0-0.2
				c0.1-0.1,0.1-0.4,0-0.5c-0.1-0.1-0.2-0.2-0.3-0.2c0-0.1-0.1-0.2-0.1-0.2c0,0-0.1-0.3-0.1-0.4c-0.1-0.1-0.2-0.2-0.2-0.2
				c0,0-0.1,0-0.1,0l0,0l0,0l-0.1,0c0,0,0,0.1,0,0.1c0,0,0,0.1,0,0.1c0,0,0,0,0,0.1c0,0,0,0.1,0,0.1c0,0,0,0.1,0,0.1
				c0,0,0,0.1,0,0.1c0,0,0.1,0,0.1,0s0,0,0,0c0,0,0-0.1,0-0.1s0,0.1,0,0.2c0,0.1,0,0.1,0,0.1s-0.1,0.2-0.1,0.2c0,0.1,0,0.1,0,0.1
				s-0.1,0-0.1,0.1c0,0.1,0,0.3,0,0.4c0,0.1,0,0.1,0,0.1c0,0,0.1-0.1,0.1-0.1l0-0.1c0,0,0-0.2,0-0.2c0,0,0.1,0.1,0.2,0.1
				c0.1,0.1,0.2,0.3,0.2,0.3c0,0,0,0,0,0H3.9v0.2H3.6v0.2h-5.4v0.3h0.2v0.7h-0.2v0.3h-0.7l0.2,0.3v0.5h0.4v0.8h0v0.3h0.2v4.8h1.3
				v-4.8h0.2v-0.3h1.1v0.3h0.2v4.8h1.3v-4.8h0.2v-0.3h1.1v0.3h0.2v4.8h1.3v-4.8h0.2v-0.3h1.1v0.3h0.2v4.8h1.3v-4.8h0.2v-0.3h1.1v0.3
				h0.2v4.8h1.3v-4.8h0.2v-0.3h1.1v0.3h0.2v4.8h1.3v-4.8h0.2v-0.3h0v-0.8h0.4v-0.5l0.2-0.3H14.1z M6.1-226.6c0,0,0-0.1,0.1-0.1
				c0,0,0.1,0,0.1,0.1C6.2-226.6,6.2-226.6,6.1-226.6L6.1-226.6L6.1-226.6z M6.1-226.5c0,0,0.1,0,0.1,0.1c0,0,0,0.1-0.1,0.1
				C6.1-226.4,6.1-226.4,6.1-226.5L6.1-226.5L6.1-226.5z M6-226.7c0,0,0,0.1,0.1,0.1l0,0.1l-0.1,0C6-226.6,5.9-226.6,6-226.7
				C5.9-226.7,5.9-226.7,6-226.7z M6-226.5c0,0,0,0.1-0.1,0.1c0,0-0.1,0-0.1-0.1C5.9-226.5,6-226.5,6-226.5L6-226.5L6-226.5z
				 M7.6-224.5L7.6-224.5L7.6-224.5L7.6-224.5z M4.8-224.5L4.8-224.5L4.8-224.5L4.8-224.5z"/>
		</g>
		<g>
			<g>
				<g>
					<path class="st0" d="M0.3-191.1c0.1-0.2,0.3-0.2,0.6-0.2c0.4,0,0.9,0,1.4,0c0-0.2,0-0.4,0-0.5c0-0.4,0.1-0.5,0.6-0.5
						c1.5,0,3,0,4.5,0c0.1,0,0.3,0,0.5,0c0-0.6,0-1.2,0-1.8c0-0.3,0.2-0.4,0.5-0.3c0.1,0,0.3,0.1,0.4,0.2c0,0-0.1,0.1-0.1,0.1
						c0.5,0,0.9,0,1.4,0c0.4,0,0.5,0.1,0.5,0.4c0,0.2,0,0.4,0,0.6c0,0.2-0.1,0.4-0.5,0.4c-0.5,0-1,0-1.5,0c0,0.2,0,0.3,0,0.5
						c0.1,0,0.3,0,0.4,0c1.5,0,3,0,4.5,0c0.6,0,0.7,0.1,0.7,0.5c0,0.2,0,0.3,0,0.5c0.5,0,0.9,0,1.4,0c0.3,0,0.5,0,0.6,0.2
						c0,2.2,0,4.3,0,6.5c-0.2,0.1-0.4,0.2-0.6,0.2c-4.9,0-9.8,0-14.7,0c-0.2,0-0.4-0.1-0.6-0.2C0.3-186.8,0.3-188.9,0.3-191.1z
						 M1.1-190.7c0,1.9,0,3.8,0,5.7c4.8,0,9.5,0,14.3,0c0-1.9,0-3.8,0-5.7C10.6-190.7,5.9-190.7,1.1-190.7z"/>
					<path class="st0" d="M13.8-185.4c-0.1,0-0.2,0-0.4,0c-0.5,0-0.5,0-0.5-0.4c0-0.4,0-0.4,0.5-0.4c0.3,0,0.6,0,1,0
						c0.3,0,0.4,0.1,0.4,0.3c0,0.1,0,0.1,0,0.2c0,0.2-0.1,0.3-0.4,0.3C14.3-185.4,14-185.4,13.8-185.4z"/>
					<path class="st0" d="M2.6-186.1c0.1,0,0.3,0,0.4,0c0.5,0,0.5,0,0.5,0.4c0,0.4,0,0.4-0.5,0.4c-0.3,0-0.7,0-1,0
						c-0.3,0-0.4-0.1-0.4-0.3c0-0.1,0-0.2,0-0.3c0-0.2,0.1-0.2,0.3-0.2C2.2-186.1,2.4-186.1,2.6-186.1z"/>
					<path class="st0" d="M13.9-186.8c-0.1,0-0.3,0-0.4,0c-0.5,0-0.5,0-0.5-0.4c0-0.4,0-0.4,0.5-0.4c0.3,0,0.7,0,1,0
						c0.2,0,0.3,0.1,0.3,0.2c0,0.1,0,0.2,0,0.3c0,0.2-0.1,0.2-0.3,0.2C14.3-186.8,14.1-186.8,13.9-186.8z"/>
					<path class="st0" d="M2.6-186.8c-0.1,0-0.2,0-0.4,0c-0.5,0-0.8-0.3-0.6-0.6c0-0.1,0.2-0.1,0.3-0.1c0.4,0,0.9,0,1.3,0
						c0.1,0,0.3,0.1,0.3,0.2c0.1,0.5,0.1,0.6-0.7,0.6C2.8-186.8,2.7-186.8,2.6-186.8z"/>
					<path class="st0" d="M2.6-189.6c-0.1,0-0.3,0-0.4,0c-0.6,0-0.6,0-0.6-0.4c0-0.3,0-0.4,0.5-0.4c0.4,0,0.7,0,1.1,0
						c0.2,0,0.4,0.1,0.3,0.3c0,0.1,0,0.1,0,0.2c0,0.2-0.1,0.3-0.4,0.3C3-189.6,2.8-189.6,2.6-189.6z"/>
					<path class="st0" d="M11.1-185.4c-0.1,0-0.3,0-0.4,0c-0.5,0-0.5,0-0.5-0.4c0-0.4,0-0.4,0.5-0.4c0.3,0,0.7,0,1,0
						c0.2,0,0.4,0.1,0.3,0.3c0,0.1,0,0.2,0,0.3c0,0.2-0.1,0.2-0.3,0.2C11.5-185.4,11.3-185.4,11.1-185.4z"/>
					<path class="st0" d="M8.2-185.4c-0.1,0-0.2,0-0.3,0c-0.6,0-0.8-0.2-0.6-0.6c0-0.1,0.2-0.2,0.3-0.2c0.4,0,0.9,0,1.3,0
						c0.1,0,0.2,0.1,0.3,0.2c0,0.1,0,0.2,0,0.2c0,0.3-0.1,0.4-0.4,0.3C8.5-185.4,8.3-185.4,8.2-185.4z"/>
					<path class="st0" d="M5.4-185.4c-0.1,0-0.3,0-0.4,0c-0.5,0-0.5,0-0.5-0.4c0-0.4,0-0.4,0.5-0.4c0.3,0,0.7,0,1,0
						c0.2,0,0.3,0.1,0.3,0.2c0,0.5,0,0.5-0.7,0.5C5.6-185.4,5.5-185.4,5.4-185.4z"/>
					<path class="st0" d="M13.9-188.2c-0.1,0-0.2,0-0.2,0c-0.7,0-0.7,0-0.7-0.5c0-0.2,0.1-0.3,0.4-0.3c0.4,0,0.8,0,1.2,0
						c0.2,0,0.3,0.1,0.3,0.2c0,0.1,0,0.2,0,0.3c0,0.2-0.1,0.3-0.4,0.3C14.3-188.2,14.1-188.2,13.9-188.2z"/>
					<path class="st0" d="M11.1-189c0.1,0,0.3,0,0.4,0c0.5,0,0.5,0,0.5,0.4c0,0.4,0,0.4-0.5,0.4c-0.3,0-0.7,0-1,0
						c-0.2,0-0.3-0.1-0.3-0.2c0-0.5,0-0.5,0.6-0.5C10.9-189,11-189,11.1-189z"/>
					<path class="st0" d="M5.4-188.2c-0.1,0-0.3,0-0.4,0c-0.5,0-0.8-0.3-0.5-0.7c0-0.1,0.2-0.1,0.3-0.1c0.4,0,0.9,0,1.3,0
						c0.1,0,0.3,0.1,0.3,0.2c0.1,0.5,0,0.6-0.6,0.6C5.6-188.2,5.5-188.2,5.4-188.2z"/>
					<path class="st0" d="M2.7-189c0.1,0,0.3,0,0.4,0c0.5,0,0.5,0,0.5,0.4c0,0.4,0,0.4-0.5,0.4c-0.3,0-0.7,0-1,0
						c-0.2,0-0.4-0.1-0.3-0.3c0-0.1,0-0.2,0-0.2c0-0.2,0.1-0.3,0.3-0.3C2.2-188.9,2.5-189,2.7-189z"/>
					<path class="st0" d="M13.9-190.4c0.1,0,0.2,0,0.3,0c0.6,0,0.6,0,0.6,0.5c0,0.2-0.1,0.3-0.4,0.3c-0.4,0-0.7,0-1.1,0
						c-0.3,0-0.4-0.1-0.4-0.3c0-0.1,0-0.2,0-0.2c0-0.2,0.1-0.3,0.4-0.3C13.5-190.4,13.7-190.4,13.9-190.4z"/>
					<path class="st0" d="M11.1-189.6c-0.1,0-0.3,0-0.4,0c-0.5,0-0.5,0-0.5-0.4c0-0.4,0-0.4,0.5-0.4c0.3,0,0.7,0,1,0
						c0.2,0,0.4,0.1,0.3,0.3c0,0.1,0,0.2,0,0.3c0,0.2-0.1,0.3-0.3,0.2C11.5-189.6,11.3-189.6,11.1-189.6z"/>
					<path class="st0" d="M5.4-189.6c-0.1,0-0.2,0-0.3,0c-0.6,0-0.8-0.1-0.6-0.6c0-0.1,0.2-0.2,0.3-0.2c0.4,0,0.8,0,1.2,0
						c0.2,0,0.3,0.1,0.3,0.2c0,0.1,0,0.2,0,0.2c0,0.2-0.1,0.3-0.4,0.3C5.7-189.6,5.6-189.6,5.4-189.6z"/>
					<path class="st0" d="M5.4-186.8c-0.1,0-0.3,0-0.4,0c-0.5,0-0.5,0-0.5-0.4c0-0.4,0-0.4,0.5-0.4c0.3,0,0.7,0,1,0
						c0.2,0,0.4,0.1,0.4,0.3c0,0.5,0,0.5-0.6,0.5C5.6-186.8,5.5-186.8,5.4-186.8z"/>
					<path class="st0" d="M8.2-186.8c-0.1,0-0.2,0-0.3,0c-0.6,0-0.8-0.2-0.6-0.6c0-0.1,0.2-0.2,0.3-0.2c0.4,0,0.8,0,1.2,0
						c0.2,0,0.4,0.1,0.3,0.3c0,0.1,0,0.1,0,0.2c0,0.2-0.1,0.3-0.4,0.3C8.5-186.8,8.3-186.8,8.2-186.8z"/>
					<path class="st0" d="M11.1-186.8c-0.1,0-0.2,0-0.3,0c-0.6,0-0.8-0.2-0.6-0.6c0-0.1,0.2-0.1,0.2-0.1c0.4,0,0.9,0,1.3,0
						c0.1,0,0.2,0.1,0.3,0.2c0,0.1,0.1,0.2,0,0.3c-0.1,0.1-0.2,0.2-0.3,0.2C11.5-186.7,11.3-186.8,11.1-186.8z"/>
					<path class="st0" d="M8.1-188.2c-0.1,0-0.3,0-0.4,0c-0.5,0-0.5,0-0.5-0.4c0-0.4,0-0.4,0.5-0.4c0.4,0,0.7,0,1.1,0
						c0.2,0,0.3,0.1,0.3,0.2c0,0.1,0,0.2,0,0.3c0,0.2-0.1,0.3-0.4,0.3C8.5-188.2,8.3-188.2,8.1-188.2z"/>
					<path class="st0" d="M8.2-189.6c-0.1,0-0.3,0-0.4,0c-0.5,0-0.6,0-0.6-0.4c0-0.3,0-0.4,0.5-0.4c0.4,0,0.7,0,1.1,0
						c0.3,0,0.4,0.1,0.4,0.3c0,0.1,0,0.2,0,0.2c0,0.2-0.1,0.3-0.4,0.3C8.5-189.6,8.4-189.6,8.2-189.6z"/>
				</g>
			</g>
		</g>
		<g>
			<g>
				<g>
					<path class="st0" d="M1.6-157.5c1-0.6,2-0.6,3.1-0.2c0.9,0.4,1.7,0.9,2.5,1.4c0.1,0,0.1,0.1,0.2,0.1c0,0,0.1,0,0.1,0.1
						c0,0,0-0.1,0-0.1c-0.8-0.7-1.7-1.5-2.7-2c-0.9-0.5-1.8-0.5-2.7-0.2c-0.3,0.1-0.5,0.2-0.8,0.3c0.3-0.4,0.6-0.7,1.1-0.9
						c1.1-0.4,2.2-0.2,3.1,0.4c0.3,0.2,0.5,0.3,0.8,0.5c-0.1-0.3-0.9-1-1.5-1.3c-0.6-0.3-1.2-0.4-1.9-0.4c0.4-0.4,1-0.5,1.6-0.3
						c0.6,0.2,1.2,0.6,1.7,1c0,0,0.1,0,0.1,0c-0.4-0.6-0.9-1-1.6-1.4c0.1,0,0.2,0,0.2,0c1.2-0.1,2.2,0.4,3.1,1.3
						c0.4,0.4,0.8,0.7,1.4,0.8c0.4,0.1,0.8,0.1,1.1,0.1c1.2-0.1,2.3-0.4,3.3-0.9c0.3-0.1,0.5-0.3,0.7-0.5c0.1-0.1,0.3-0.3,0.2-0.5
						c-0.1-0.2-0.3-0.3-0.5-0.3c-1.9-0.3-3.7-0.4-5.6-0.3c-0.6,0-1.2,0.1-1.8,0.1c0.4-0.1,0.8-0.1,1.2-0.2c0.8-0.1,1.6-0.2,2.4-0.2
						c1.1,0,2.3,0,3.4,0c0.6,0,1.1,0.2,1.7,0.3c0,0,0.1,0,0.1,0c0.3,0.2,0.4,0.3,0.2,0.6c-0.5,0.7-1.2,1.1-1.9,1.4
						c-1.1,0.5-2.3,0.7-3.5,0.8c-0.1,0-0.1,0-0.2,0.1c0.8,0.1,1.7,0.1,2.5-0.1c-0.3,0.8-0.8,1.4-1.3,2.1c0.1,0,0.1-0.1,0.2-0.1
						c0.4-0.5,0.8-1,1.3-1.5c0.2-0.2,0.4-0.4,0.6-0.6c0,0,0.1,0,0.2-0.1c-0.3,0.8-0.9,1.4-1.4,1.9c0,0,0,0,0.1,0.1
						c0.2-0.3,0.5-0.5,0.7-0.8c0.2-0.3,0.5-0.6,0.7-0.9c0.2-0.3,0.5-0.5,0.8-0.7c-0.3,0.7-0.8,1.2-1.3,1.7c0,0,0,0,0,0.1
						c0.2-0.2,0.4-0.3,0.6-0.5c0.2-0.2,0.4-0.4,0.6-0.6c0.2-0.2,0.3-0.4,0.5-0.6c0.2-0.2,0.4-0.4,0.5-0.6c-0.3,0.9-1.4,2.2-2.7,2.9
						c-1.2,0.7-2.5,1.1-3.9,0.7c0,0,0,0,0,0.1c0.1,0,0.2,0.1,0.4,0.1c1.1,0.3,2.2,0.2,3.2-0.4c0.6-0.3,1.2-0.7,1.7-1.3
						c0,0.1,0,0.1-0.1,0.2c-0.4,0.6-0.9,1.3-1.3,1.9c-0.1,0.2-0.2,0.2-0.4,0.2c-1.7,0-3.5,0-5.2,0c-0.1,0-0.3-0.1-0.4-0.2
						c-0.4-0.4-0.9-0.8-1.4-1c-0.6-0.3-1.2-0.3-1.9-0.1c-0.1,0-0.2,0-0.2,0C3-156.5,2.4-157,1.6-157.5
						C1.6-157.4,1.6-157.5,1.6-157.5z"/>
					<path class="st0" d="M15-153.9c-0.1,0-0.2,0-0.3,0c-3.3,0-6.5,0-9.8,0c-1.2,0-2.3,0-3.5,0c-0.1,0-0.2-0.1-0.3-0.1
						c0.1,0,0.2-0.1,0.3-0.1c4.5,0,8.9,0,13.4,0c0.1,0,0.2,0,0.3,0C15-154,15-153.9,15-153.9z"/>
					<path class="st0" d="M15.4-154.3c-4.6,0-9.3,0-13.9,0c0,0,0-0.1,0-0.1c0.1,0,0.2,0,0.3,0c1.9,0,3.8,0,5.8,0c2.5,0,5.1,0,7.6,0
						C15.2-154.4,15.3-154.4,15.4-154.3C15.4-154.3,15.4-154.3,15.4-154.3z"/>
					<path class="st0" d="M14.1-153.6c-4.6,0-9.3,0-13.9,0c0,0,0,0,0-0.1c0.1,0,0.1-0.1,0.2-0.1c0.4,0,0.8,0,1.2,0
						c4.1,0,8.2,0,12.3,0C14-153.7,14.1-153.7,14.1-153.6C14.1-153.6,14.1-153.6,14.1-153.6z"/>
					<path class="st0" d="M7.2-159.9c2.2-0.2,4.3-0.3,6.5-0.1c-0.1,0-0.2,0-0.2,0c-0.9,0-1.8,0-2.8,0.1c-0.9,0.1-1.8,0.2-2.7,0.4
						c-0.1,0-0.2,0-0.3-0.1C7.6-159.7,7.4-159.8,7.2-159.9z"/>
					<path class="st0" d="M5.4-154.6c-0.3,0-0.7,0-1,0c-0.5,0-0.9,0-1.4,0c-0.1,0-0.2,0-0.2-0.2c0-0.5,0.4-0.7,0.8-0.6
						C4.3-155.3,4.9-155,5.4-154.6C5.4-154.7,5.4-154.6,5.4-154.6z"/>
					<path class="st0" d="M8.1-159.3c1.4-0.2,2.8-0.4,4.3-0.4c-0.4,0-0.7,0.1-1.1,0.1c-1,0.1-1.9,0.3-2.9,0.4
						c-0.1,0-0.2-0.1-0.3-0.1C8.1-159.2,8.1-159.3,8.1-159.3z"/>
				</g>
			</g>
		</g>
		<g>
			<g>
				<g>
					<g>
						<g>
							<g>
								<path class="st0" d="M10.9-129.8c1,0.7,1.7,2,1.7,3.3c0,2.3-1.8,4.1-4.1,4.1c-1.3,0-2.5-0.6-3.3-1.6l-0.4,0.3
									c0.9,1.1,2.2,1.8,3.7,1.8c2.6,0,4.7-2.1,4.7-4.7c0-1.5-0.7-2.9-1.9-3.8L10.9-129.8z"/>
								<path class="st0" d="M8.6-122.7c2,0,3.7-1.7,3.7-3.7c0-2-1.7-3.7-3.7-3.7v0.2c1.9,0,3.5,1.6,3.5,3.5c0,1.9-1.6,3.5-3.5,3.5
									V-122.7z M8.6-130c-2,0-3.7,1.7-3.7,3.7c0,2,1.7,3.7,3.7,3.7h0v-0.2h0l0,0c-1.9,0-3.5-1.6-3.5-3.5c0-1.9,1.6-3.5,3.5-3.5h0
									L8.6-130L8.6-130z"/>
								<path class="st0" d="M8-129.9c0,0-1.2,0.2-2.1,1.1c0,0,0.7-0.7,1-0.7l0.1,0c0,0,0,0,0,0c0,0-0.1,0.1-0.1,0.1
									c0,0,0,0.1,0,0.1l0,0c0,0,0,0,0,0c0,0,0,0,0,0c0,0,0,0.1,0,0.1l0,0.1l0,0l-0.1,0c0,0-0.1,0-0.1,0c0,0,0-0.1,0-0.1l0.1,0
									c0,0,0,0,0,0c0,0,0-0.1-0.1,0c0,0-0.1,0.1-0.1,0.1l-0.1,0l0,0.1l0,0c0,0,0,0,0,0c0,0,0,0.1,0,0.1s0,0-0.1,0c0,0-0.1,0-0.1,0
									c0,0-0.1,0-0.1,0c0,0,0,0,0,0c0,0-0.1,0.1-0.1,0.1s0,0,0,0c0,0,0,0.1,0,0.1s0,0-0.1,0c-0.1,0-0.1,0-0.1,0l0,0.1
									c0,0,0,0-0.1,0.1c0,0-0.1,0.1-0.1,0.1c0,0,0,0-0.1,0.1c0,0,0,0.1,0,0.1c0,0,0,0.1,0,0.1c0,0,0,0.1,0,0.1c0,0,0,0-0.1,0
									c0,0-0.1,0-0.1,0c0,0,0,0.1,0,0.1c0,0,0,0,0,0l0.1,0c0,0,0,0.1,0,0.1c0,0,0,0.1,0,0.1c0,0,0.1,0,0.1,0l0.1,0l0.1,0l0,0
									c0,0,0,0,0,0.1c0,0,0,0,0,0c0,0,0,0,0,0c0,0,0,0,0-0.1c0,0-0.1,0-0.1,0c0,0,0,0-0.1,0c0,0,0,0,0,0c0,0,0-0.1,0-0.1
									c0,0,0-0.1-0.1-0.1c0,0,0,0,0,0c0,0,0,0-0.1,0c0,0,0,0,0,0c0,0,0-0.1,0-0.1c0,0,0-0.1,0-0.1c0,0,0-0.1,0-0.1
									s-0.1,0.2-0.2,0.4c0,0,0,0,0,0c0,0,0,0.1,0,0.1c0,0,0,0,0,0.1c0,0.1,0,0.1,0,0.1c0,0,0,0.1,0,0.1c0,0,0,0.1,0,0.1
									c0,0,0,0,0,0c0,0,0,0.1,0,0c0-0.1,0.1-0.1,0.1-0.1l0,0c0,0,0,0,0.1,0c0.1,0,0.1,0,0.1,0c0,0,0,0.1,0,0.1c0,0,0.1,0,0.1,0
									c0,0,0.1,0,0.1,0.1c0,0,0,0.1,0.1,0.1c0,0,0,0.1,0,0.1c0,0,0.1,0.1,0.1,0.1c0,0,0.1,0,0.1,0c0,0,0,0.1,0,0.1
									c0,0,0.1,0.1,0.1,0.1s0,0.1,0,0.1c0,0,0,0.1,0,0.1c0,0,0.1,0,0.1,0s0,0.1,0,0.1c0.1,0,0.1,0,0.1,0.1c0,0,0,0.1,0,0.1
									c0.1,0,0.1,0,0.2,0c0,0,0,0.1,0.1,0.1c0.1,0.1,0.1,0.1,0.1,0.1c0,0,0.1,0,0.1,0.1c0,0.1,0,0.1-0.1,0.1c0,0-0.1,0.1-0.1,0.1
									c0,0,0,0.1,0,0.1c0,0,0.1,0.1,0.1,0.1c0,0,0,0.1,0,0.1c0,0-0.1,0.1-0.1,0.1s0.1,0.1,0,0.1c0,0-0.1,0.1-0.1,0.1
									c0,0-0.1,0.1-0.1,0.1s0,0.1,0,0.2c0,0-0.1,0.3-0.1,0.3c0,0.1,0.1,0.1,0,0.1c0,0,0,0,0,0.1c0,0-0.1,0,0,0.1
									c0.1,0.1,0.1,0.1,0.1,0.1c0,0,0,0.1,0.1,0.1c0,0,0.1,0.1,0.1,0.1c0,0,0.1,0.1,0.1,0.1c0,0,0.1,0.1,0,0.1
									c-0.1-0.1,0,0-0.1-0.1c-0.1-0.1-0.2-0.1-0.2-0.1c-0.1-0.1,0,0.2-0.1-0.1c-0.1-0.3-0.1-0.2-0.2-0.3c0-0.1,0,0-0.1-0.1
									c-0.1-0.1,0-0.1-0.1-0.1c-0.1-0.1-0.1,0-0.1-0.1c0-0.2,0-0.1-0.1-0.2c0-0.2,0-0.2-0.1-0.3c-0.1-0.1-0.1,0-0.1-0.1
									c0-0.1,0,0-0.1-0.2c-0.1-0.2-0.2-0.2-0.2-0.5c0-0.3,0-0.3,0-0.3s-0.1-0.1-0.1-0.3c0-0.2,0.1-0.1,0-0.2c0-0.1,0,0-0.1-0.1
									c0-0.1-0.1-0.1-0.1-0.1c0,0,0-0.1,0-0.1l0,0c0,0-0.4,3.6,3.2,4.1c0,0-0.8-0.2-0.9-0.3c0,0,0-0.2,0-0.2c0,0,0.1,0,0.1,0
									c0.1,0,0.1-0.1,0.1-0.1l0,0.1c0,0-0.1,0,0.1,0c0.2,0,0.2,0,0.2,0c0.1,0,0.1-0.2,0.2-0.1c0,0.1,0,0,0,0.1c0.1,0,0.2,0,0.2,0
									s0.2,0,0.3,0c0,0,0-0.1,0.1-0.1c0,0,0.1,0.1,0.1,0.1l-0.1,0.1l-0.1,0.1c0,0-0.1,0,0,0c0.1,0,0.1,0,0.1,0
									c0.1,0,0.2,0.1,0.2,0.1c0-0.1,0-0.1,0.1-0.1c0,0,0-0.1,0.1-0.1c0.1,0,0.1,0,0.1,0l-0.1,0.1c0,0,0.1,0,0.1,0
									c0,0,0.1,0.1,0.1,0c0.1-0.1,0.1-0.1,0.1-0.1c0.1,0,0.1,0,0.2,0c0,0,0.1,0,0.1,0c0,0,0.2,0.1,0.2,0.1c0,0,0.2,0,0.2,0
									s-0.4,0.4-1.3,0.4c0,0,2,0.1,3.1-1.8c1.1-1.9,0.3-4.4-2.2-5.2c0,0,1.9,0.7,2.4,2.5l0,0c-0.1-0.1-0.1,0-0.1-0.1
									c0-0.1,0-0.1,0-0.1c0-0.1,0,0-0.1-0.1c0-0.1-0.1-0.1-0.1-0.1c0,0-0.1-0.1-0.1-0.2c0,0-0.1,0-0.1-0.1c0,0,0-0.1,0,0
									c0,0,0.1,0.1,0.1,0.1v0.1c0,0,0.1,0.1,0.1,0.2c0,0,0,0.1,0,0.1s0,0.1-0.1,0.1c0,0-0.2,0.1-0.2,0.1s-0.1-0.1-0.1-0.1
									c0-0.1-0.1-0.1-0.2-0.1c0,0,0-0.1,0-0.1c-0.1-0.1,0-0.1-0.1-0.1c-0.1-0.1-0.1-0.1-0.1-0.1s-0.2-0.1-0.1,0
									c0.1,0.1,0,0.2,0,0.2c0,0,0.1,0,0.1,0.1c0,0.1,0,0.1,0.1,0.1c0,0,0,0.1,0.1,0.1c0,0,0.1,0,0.1,0c0,0-0.1,0.1,0,0.1
									c0.1,0,0.1,0,0.1,0c0,0,0,0,0.1,0c0.1,0,0.1,0,0.1,0s0.1,0.1,0.1,0.1c0,0,0,0.2,0,0.2l-0.1,0.1c0,0,0,0.3,0,0.3
									c0,0-0.1,0.1-0.1,0.1c0,0,0,0.2,0,0.2l-0.1,0.1c0,0,0,0.1,0,0.2c0,0,0,0.2,0,0.2c0,0.1-0.1,0.1-0.1,0.1s0.1,0.1,0.1,0.1
									c-0.1,0-0.1,0.1-0.2,0.1c0,0,0,0.1-0.1,0.1c0,0-0.1,0-0.1,0c0,0,0,0.1,0,0.1l-0.1,0.2l-0.2,0.1c0,0,0,0.1,0,0.1
									c-0.1,0-0.2,0.1-0.2,0.1c0,0-0.2,0.1-0.2,0.1c0,0,0,0.1,0,0c-0.1-0.1,0,0-0.1-0.2c-0.1-0.1-0.1,0-0.1-0.1c0-0.1,0,0,0-0.1
									c0-0.1,0,0,0-0.1c-0.1-0.1,0-0.1-0.1-0.1c-0.1-0.1-0.1,0-0.1-0.1c0-0.1,0,0,0-0.1c0-0.1,0-0.1,0.1-0.2
									c0.1-0.1,0.1-0.1,0.1-0.1c0-0.1,0-0.1,0-0.1c0,0-0.1-0.1-0.1-0.1c0,0,0,0-0.1-0.1c-0.1-0.1-0.1-0.1-0.1-0.1s0-0.2,0-0.2
									c0-0.1,0,0,0-0.1c0-0.1,0-0.2,0-0.2s-0.1-0.1-0.2-0.1c-0.1,0,0,0.1-0.1,0c-0.1-0.1-0.1-0.1-0.1-0.1c0,0-0.1,0-0.1,0
									c0,0-0.1,0-0.2,0.1c-0.1,0-0.1,0-0.2,0c-0.1,0-0.2,0-0.3,0c-0.1,0-0.1,0-0.1-0.1c0-0.1,0-0.1-0.1-0.1c-0.1,0-0.1,0-0.1-0.1
									c0-0.1,0-0.1,0-0.1c-0.1-0.1,0,0-0.1-0.1c-0.1-0.1-0.1,0-0.1-0.1c0-0.1,0.1,0,0.1-0.1c0-0.1,0.2,0,0.1-0.2
									c-0.1-0.2-0.1-0.2,0-0.3c0.1-0.2,0.2-0.2,0.2-0.2c0,0,0.1-0.1,0.1-0.1c0,0,0-0.1,0.1,0c0.1,0,0.2,0,0.2-0.1
									c0.1-0.1,0.1-0.1,0.2-0.1c0,0,0,0,0.1,0c0.1,0,0.1,0,0.1,0c0.1,0-0.1,0,0.1,0c0.1,0,0.1,0,0.1,0c0,0,0,0,0.1,0
									c0.1,0,0.1-0.1,0.1,0c0,0.1-0.1,0.2,0.1,0.2c0.1,0,0,0,0.1,0c0.1,0,0.1,0,0.1,0c0.1,0,0.1,0.1,0.2,0.1c0.1,0,0,0.1,0.1,0
									c0.1-0.1-0.1-0.1,0.1-0.1c0.2,0,0.2,0.1,0.3,0c0,0,0,0,0.1,0c0.1,0,0.1,0,0.1,0c0,0,0,0.1,0.1,0c0-0.1,0.1-0.1,0-0.1
									c-0.1-0.1-0.1,0-0.2-0.1c0-0.1,0.1-0.1,0-0.1c-0.1,0-0.1,0-0.2,0c-0.1,0-0.2,0.1-0.2,0c0-0.1-0.2,0.1,0-0.1
									c0.1-0.1,0.1-0.2,0.2-0.2c0.1,0,0.1,0.1,0.1,0.1c0.1-0.1,0.2-0.1,0.1-0.2c-0.1-0.1,0,0-0.1-0.1c-0.1-0.1-0.2,0.2-0.3,0.2
									c-0.1,0-0.1-0.1-0.1,0c0,0,0,0.1,0,0.2c0,0.1,0.1,0.1-0.1,0c-0.1-0.1,0.1,0-0.1-0.1c-0.2-0.1-0.3-0.1-0.4,0
									c0,0-0.1,0-0.1,0.1c0,0,0.1,0.1,0,0c-0.1-0.1-0.2,0-0.2,0s0,0-0.1,0c0,0-0.1,0.1-0.2,0c-0.1,0-0.2,0-0.1-0.1
									c0.1-0.1,0-0.1,0.2-0.1c0.1-0.1,0.4-0.1,0.2-0.1c-0.2,0,0.1,0-0.1-0.2c-0.2-0.1-0.3,0-0.2-0.1c0-0.2,0-0.2-0.1-0.2
									c-0.1,0-0.2,0-0.3,0.1c-0.1,0,0,0.1-0.1,0c-0.1-0.1-0.2,0-0.1-0.1c0-0.1,0.1-0.1,0.1-0.2c0.1-0.1,0.1-0.3,0.2-0.2
									c0.2,0.1,0.1,0.1,0.2,0.1c0.1,0,0.2,0,0.2,0c0,0-0.2-0.1-0.2-0.1s-0.1,0,0,0c0,0,0.1-0.1,0.1-0.1l-0.1,0
									C8.6-129.9,8.2-129.9,8-129.9z"/>
							</g>
							<g>
								<path class="st0" d="M8.3-121.9v0.9c0,0-0.2,0.4-0.7,0.6c-0.5,0.2-0.9,0.4-0.9,0.7c0,0.3,0.6,0.5,2.3,0.5v-2.8L8.3-121.9z"
									/>
								<path class="st0" d="M9.3-121.9v0.9c0,0,0.2,0.4,0.7,0.6c0.5,0.2,1.1,0.4,1,0.7c0,0.3-1,0.5-2.2,0.5v-2.8L9.3-121.9z"/>
							</g>
						</g>
					</g>
					<g>
						<g>
							<path class="st0" d="M10.9-129.8c1,0.7,1.7,2,1.7,3.3c0,2.3-1.8,4.1-4.1,4.1c-1.3,0-2.5-0.6-3.3-1.6l-0.4,0.3
								c0.9,1.1,2.2,1.8,3.7,1.8c2.6,0,4.7-2.1,4.7-4.7c0-1.5-0.7-2.9-1.9-3.8L10.9-129.8z"/>
							<path class="st0" d="M8.6-122.7c2,0,3.7-1.7,3.7-3.7c0-2-1.7-3.7-3.7-3.7v0.2c1.9,0,3.5,1.6,3.5,3.5c0,1.9-1.6,3.5-3.5,3.5
								V-122.7z M8.6-130c-2,0-3.7,1.7-3.7,3.7c0,2,1.7,3.7,3.7,3.7h0v-0.2h0l0,0c-1.9,0-3.5-1.6-3.5-3.5c0-1.9,1.6-3.5,3.5-3.5h0
								L8.6-130L8.6-130z"/>
							<path class="st0" d="M8-129.9c0,0-1.2,0.2-2.1,1.1c0,0,0.7-0.7,1-0.7l0.1,0c0,0,0,0,0,0c0,0-0.1,0.1-0.1,0.1c0,0,0,0.1,0,0.1
								l0,0c0,0,0,0,0,0c0,0,0,0,0,0c0,0,0,0.1,0,0.1l0,0.1l0,0l-0.1,0c0,0-0.1,0-0.1,0c0,0,0-0.1,0-0.1l0.1,0c0,0,0,0,0,0
								c0,0,0-0.1-0.1,0c0,0-0.1,0.1-0.1,0.1l-0.1,0l0,0.1l0,0c0,0,0,0,0,0c0,0,0,0.1,0,0.1s0,0-0.1,0c0,0-0.1,0-0.1,0
								c0,0-0.1,0-0.1,0c0,0,0,0,0,0c0,0-0.1,0.1-0.1,0.1s0,0,0,0c0,0,0,0.1,0,0.1s0,0-0.1,0c-0.1,0-0.1,0-0.1,0l0,0.1
								c0,0,0,0-0.1,0.1c0,0-0.1,0.1-0.1,0.1c0,0,0,0-0.1,0.1c0,0,0,0.1,0,0.1c0,0,0,0.1,0,0.1c0,0,0,0.1,0,0.1c0,0,0,0-0.1,0
								c0,0-0.1,0-0.1,0c0,0,0,0.1,0,0.1c0,0,0,0,0,0l0.1,0c0,0,0,0.1,0,0.1c0,0,0,0.1,0,0.1c0,0,0.1,0,0.1,0l0.1,0l0.1,0l0,0
								c0,0,0,0,0,0.1c0,0,0,0,0,0c0,0,0,0,0,0c0,0,0,0,0-0.1c0,0-0.1,0-0.1,0c0,0,0,0-0.1,0c0,0,0,0,0,0c0,0,0-0.1,0-0.1
								c0,0,0-0.1-0.1-0.1c0,0,0,0,0,0c0,0,0,0-0.1,0c0,0,0,0,0,0c0,0,0-0.1,0-0.1c0,0,0-0.1,0-0.1c0,0,0-0.1,0-0.1
								s-0.1,0.2-0.2,0.4c0,0,0,0,0,0c0,0,0,0.1,0,0.1c0,0,0,0,0,0.1c0,0.1,0,0.1,0,0.1c0,0,0,0.1,0,0.1c0,0,0,0.1,0,0.1
								c0,0,0,0,0,0c0,0,0,0.1,0,0c0-0.1,0.1-0.1,0.1-0.1l0,0c0,0,0,0,0.1,0c0.1,0,0.1,0,0.1,0c0,0,0,0.1,0,0.1c0,0,0.1,0,0.1,0
								c0,0,0.1,0,0.1,0.1c0,0,0,0.1,0.1,0.1c0,0,0,0.1,0,0.1c0,0,0.1,0.1,0.1,0.1c0,0,0.1,0,0.1,0c0,0,0,0.1,0,0.1
								c0,0,0.1,0.1,0.1,0.1s0,0.1,0,0.1c0,0,0,0.1,0,0.1c0,0,0.1,0,0.1,0s0,0.1,0,0.1c0.1,0,0.1,0,0.1,0.1c0,0,0,0.1,0,0.1
								c0.1,0,0.1,0,0.2,0c0,0,0,0.1,0.1,0.1c0.1,0.1,0.1,0.1,0.1,0.1c0,0,0.1,0,0.1,0.1c0,0.1,0,0.1-0.1,0.1c0,0-0.1,0.1-0.1,0.1
								c0,0,0,0.1,0,0.1c0,0,0.1,0.1,0.1,0.1c0,0,0,0.1,0,0.1c0,0-0.1,0.1-0.1,0.1s0.1,0.1,0,0.1c0,0-0.1,0.1-0.1,0.1
								c0,0-0.1,0.1-0.1,0.1s0,0.1,0,0.2c0,0-0.1,0.3-0.1,0.3c0,0.1,0.1,0.1,0,0.1c0,0,0,0,0,0.1c0,0-0.1,0,0,0.1
								c0.1,0.1,0.1,0.1,0.1,0.1c0,0,0,0.1,0.1,0.1c0,0,0.1,0.1,0.1,0.1c0,0,0.1,0.1,0.1,0.1c0,0,0.1,0.1,0,0.1
								c-0.1-0.1,0,0-0.1-0.1c-0.1-0.1-0.2-0.1-0.2-0.1c-0.1-0.1,0,0.2-0.1-0.1c-0.1-0.3-0.1-0.2-0.2-0.3c0-0.1,0,0-0.1-0.1
								c-0.1-0.1,0-0.1-0.1-0.1c-0.1-0.1-0.1,0-0.1-0.1c0-0.2,0-0.1-0.1-0.2c0-0.2,0-0.2-0.1-0.3c-0.1-0.1-0.1,0-0.1-0.1
								c0-0.1,0,0-0.1-0.2c-0.1-0.2-0.2-0.2-0.2-0.5c0-0.3,0-0.3,0-0.3s-0.1-0.1-0.1-0.3c0-0.2,0.1-0.1,0-0.2c0-0.1,0,0-0.1-0.1
								c0-0.1-0.1-0.1-0.1-0.1c0,0,0-0.1,0-0.1l0,0c0,0-0.4,3.6,3.2,4.1c0,0-0.8-0.2-0.9-0.3c0,0,0-0.2,0-0.2c0,0,0.1,0,0.1,0
								c0.1,0,0.1-0.1,0.1-0.1l0,0.1c0,0-0.1,0,0.1,0c0.2,0,0.2,0,0.2,0c0.1,0,0.1-0.2,0.2-0.1c0,0.1,0,0,0,0.1c0.1,0,0.2,0,0.2,0
								s0.2,0,0.3,0c0,0,0-0.1,0.1-0.1c0,0,0.1,0.1,0.1,0.1l-0.1,0.1l-0.1,0.1c0,0-0.1,0,0,0c0.1,0,0.1,0,0.1,0
								c0.1,0,0.2,0.1,0.2,0.1c0-0.1,0-0.1,0.1-0.1c0,0,0-0.1,0.1-0.1c0.1,0,0.1,0,0.1,0l-0.1,0.1c0,0,0.1,0,0.1,0
								c0,0,0.1,0.1,0.1,0c0.1-0.1,0.1-0.1,0.1-0.1c0.1,0,0.1,0,0.2,0c0,0,0.1,0,0.1,0c0,0,0.2,0.1,0.2,0.1c0,0,0.2,0,0.2,0
								s-0.4,0.4-1.3,0.4c0,0,2,0.1,3.1-1.8c1.1-1.9,0.3-4.4-2.2-5.2c0,0,1.9,0.7,2.4,2.5l0,0c-0.1-0.1-0.1,0-0.1-0.1
								c0-0.1,0-0.1,0-0.1c0-0.1,0,0-0.1-0.1c0-0.1-0.1-0.1-0.1-0.1c0,0-0.1-0.1-0.1-0.2c0,0-0.1,0-0.1-0.1c0,0,0-0.1,0,0
								c0,0,0.1,0.1,0.1,0.1v0.1c0,0,0.1,0.1,0.1,0.2c0,0,0,0.1,0,0.1s0,0.1-0.1,0.1c0,0-0.2,0.1-0.2,0.1s-0.1-0.1-0.1-0.1
								c0-0.1-0.1-0.1-0.2-0.1c0,0,0-0.1,0-0.1c-0.1-0.1,0-0.1-0.1-0.1c-0.1-0.1-0.1-0.1-0.1-0.1s-0.2-0.1-0.1,0
								c0.1,0.1,0,0.2,0,0.2c0,0,0.1,0,0.1,0.1c0,0.1,0,0.1,0.1,0.1c0,0,0,0.1,0.1,0.1c0,0,0.1,0,0.1,0c0,0-0.1,0.1,0,0.1
								c0.1,0,0.1,0,0.1,0c0,0,0,0,0.1,0c0.1,0,0.1,0,0.1,0s0.1,0.1,0.1,0.1c0,0,0,0.2,0,0.2l-0.1,0.1c0,0,0,0.3,0,0.3
								c0,0-0.1,0.1-0.1,0.1c0,0,0,0.2,0,0.2l-0.1,0.1c0,0,0,0.1,0,0.2c0,0,0,0.2,0,0.2c0,0.1-0.1,0.1-0.1,0.1s0.1,0.1,0.1,0.1
								c-0.1,0-0.1,0.1-0.2,0.1c0,0,0,0.1-0.1,0.1c0,0-0.1,0-0.1,0c0,0,0,0.1,0,0.1l-0.1,0.2l-0.2,0.1c0,0,0,0.1,0,0.1
								c-0.1,0-0.2,0.1-0.2,0.1c0,0-0.2,0.1-0.2,0.1c0,0,0,0.1,0,0c-0.1-0.1,0,0-0.1-0.2c-0.1-0.1-0.1,0-0.1-0.1c0-0.1,0,0,0-0.1
								c0-0.1,0,0,0-0.1c-0.1-0.1,0-0.1-0.1-0.1c-0.1-0.1-0.1,0-0.1-0.1c0-0.1,0,0,0-0.1c0-0.1,0-0.1,0.1-0.2
								c0.1-0.1,0.1-0.1,0.1-0.1c0-0.1,0-0.1,0-0.1c0,0-0.1-0.1-0.1-0.1c0,0,0,0-0.1-0.1c-0.1-0.1-0.1-0.1-0.1-0.1s0-0.2,0-0.2
								c0-0.1,0,0,0-0.1c0-0.1,0-0.2,0-0.2s-0.1-0.1-0.2-0.1c-0.1,0,0,0.1-0.1,0c-0.1-0.1-0.1-0.1-0.1-0.1c0,0-0.1,0-0.1,0
								c0,0-0.1,0-0.2,0.1c-0.1,0-0.1,0-0.2,0c-0.1,0-0.2,0-0.3,0c-0.1,0-0.1,0-0.1-0.1c0-0.1,0-0.1-0.1-0.1c-0.1,0-0.1,0-0.1-0.1
								c0-0.1,0-0.1,0-0.1c-0.1-0.1,0,0-0.1-0.1c-0.1-0.1-0.1,0-0.1-0.1c0-0.1,0.1,0,0.1-0.1c0-0.1,0.2,0,0.1-0.2
								c-0.1-0.2-0.1-0.2,0-0.3c0.1-0.2,0.2-0.2,0.2-0.2c0,0,0.1-0.1,0.1-0.1c0,0,0-0.1,0.1,0c0.1,0,0.2,0,0.2-0.1
								c0.1-0.1,0.1-0.1,0.2-0.1c0,0,0,0,0.1,0c0.1,0,0.1,0,0.1,0c0.1,0-0.1,0,0.1,0c0.1,0,0.1,0,0.1,0c0,0,0,0,0.1,0
								c0.1,0,0.1-0.1,0.1,0c0,0.1-0.1,0.2,0.1,0.2c0.1,0,0,0,0.1,0c0.1,0,0.1,0,0.1,0c0.1,0,0.1,0.1,0.2,0.1c0.1,0,0,0.1,0.1,0
								c0.1-0.1-0.1-0.1,0.1-0.1c0.2,0,0.2,0.1,0.3,0c0,0,0,0,0.1,0c0.1,0,0.1,0,0.1,0c0,0,0,0.1,0.1,0c0-0.1,0.1-0.1,0-0.1
								c-0.1-0.1-0.1,0-0.2-0.1c0-0.1,0.1-0.1,0-0.1c-0.1,0-0.1,0-0.2,0c-0.1,0-0.2,0.1-0.2,0c0-0.1-0.2,0.1,0-0.1
								c0.1-0.1,0.1-0.2,0.2-0.2c0.1,0,0.1,0.1,0.1,0.1c0.1-0.1,0.2-0.1,0.1-0.2c-0.1-0.1,0,0-0.1-0.1c-0.1-0.1-0.2,0.2-0.3,0.2
								c-0.1,0-0.1-0.1-0.1,0c0,0,0,0.1,0,0.2c0,0.1,0.1,0.1-0.1,0c-0.1-0.1,0.1,0-0.1-0.1c-0.2-0.1-0.3-0.1-0.4,0
								c0,0-0.1,0-0.1,0.1c0,0,0.1,0.1,0,0c-0.1-0.1-0.2,0-0.2,0s0,0-0.1,0c0,0-0.1,0.1-0.2,0c-0.1,0-0.2,0-0.1-0.1
								c0.1-0.1,0-0.1,0.2-0.1c0.1-0.1,0.4-0.1,0.2-0.1c-0.2,0,0.1,0-0.1-0.2c-0.2-0.1-0.3,0-0.2-0.1c0-0.2,0-0.2-0.1-0.2
								c-0.1,0-0.2,0-0.3,0.1c-0.1,0,0,0.1-0.1,0c-0.1-0.1-0.2,0-0.1-0.1c0-0.1,0.1-0.1,0.1-0.2c0.1-0.1,0.1-0.3,0.2-0.2
								c0.2,0.1,0.1,0.1,0.2,0.1c0.1,0,0.2,0,0.2,0c0,0-0.2-0.1-0.2-0.1s-0.1,0,0,0c0,0,0.1-0.1,0.1-0.1l-0.1,0
								C8.6-129.9,8.2-129.9,8-129.9z"/>
						</g>
					</g>
				</g>
			</g>
		</g>
		<g>
			<path class="st0" d="M15-88.8c0,0,0-0.1,0-0.1v-5.3c0-0.2-0.2-0.5-0.5-0.5H12v5.6c0,0.1,0,0.2,0,0.3h-0.3c0,0,0-0.1,0-0.1V-97
				c0-0.2-0.2-0.5-0.5-0.5h-4c-0.2,0-0.5,0.2-0.5,0.5v8.1c0,0.1,0,0.1,0,0.1H6.6c0-0.1,0-0.2,0-0.3v-5.6H4.1c-0.2,0-0.5,0.2-0.5,0.5
				v5.3c0,0.1,0,0.1,0,0.1H2.9v0.9h12.8v-0.9H15z M5-90.7H4.3v-0.6H5V-90.7z M5-91.8H4.3v-0.6H5V-91.8z M5-92.9H4.3v-0.6H5V-92.9z
				 M6-90.7H5.3v-0.6H6V-90.7z M6-91.8H5.3v-0.6H6V-91.8z M6-92.9H5.3v-0.6H6V-92.9z M10.3-88.3H8.4v-3.7h1.9V-88.3z M9.3-93.3
				c-0.9,0-1.6-0.7-1.6-1.6c0-0.9,0.7-1.6,1.6-1.6c0.9,0,1.6,0.7,1.6,1.6C10.9-94,10.1-93.3,9.3-93.3z M13.4-90.7h-0.6v-0.6h0.6
				V-90.7z M13.4-91.8h-0.6v-0.6h0.6V-91.8z M13.4-92.9h-0.6v-0.6h0.6V-92.9z M14.4-90.7h-0.6v-0.6h0.6V-90.7z M14.4-91.8h-0.6v-0.6
				h0.6V-91.8z M14.4-92.9h-0.6v-0.6h0.6V-92.9z M9.7-95.3h0.6v0.8H9.7v0.6H8.9v-0.6H8.3v-0.8h0.6v-0.6h0.8V-95.3z"/>
		</g>
		<g>
			<g>
				<g>
					<g>
						<path class="st0" d="M10.5-65.3v7.8H4.4C4.4-57.5,5.9-62,10.5-65.3z"/>
						<polygon class="st0" points="11.4,-63.5 14.5,-57.5 11.4,-57.5 						"/>
					</g>
					<g>
						<path class="st0" d="M3.3-56.8c0,0.4,0.2,0.8,0.4,1.1h11.7c0,0,0.1,0,0.2,0l0-1.1H11v-8.8c0.2-0.1,0.8-0.3,1.2,0
							c0.5,0.3,1.3,0.2,1.5,0.1c0.2-0.1,0.9-0.4,0.9-0.4c-0.6-0.2-0.8,0.2-1.6,0.2c-0.7,0-0.6-0.8-1.3-0.8c-0.4,0-0.6,0.1-0.7,0.1
							v-0.1c0.1,0,0.2-0.2,0.2-0.3c0-0.2-0.2-0.3-0.3-0.3c-0.2,0-0.3,0.2-0.3,0.3c0,0.1,0.1,0.3,0.2,0.3v9.8H3.3z"/>
						<path class="st0" d="M14.7-55.3H4c0.4,0.3,0.7,0.5,0.7,0.5c1.1,0.6,9.8,0.4,9.8,0.4S14.5-54.9,14.7-55.3z"/>
					</g>
				</g>
			</g>
		</g>
		<g>
			<g>
				<g>
					<path class="st0" d="M5.1-17.7c0-0.1,0-0.3,0-0.4c0.2-0.5,0.5-1.1,0.8-1.7c-0.4,0-0.7,0-1.1,0c-0.2,0-0.3-0.1-0.3-0.3
						c0-0.7,0-0.7,0.7-0.7c1.5,0,3,0,4.5,0c0.3,0,0.5-0.1,0.6-0.4c0.1-0.3,0.2-0.6,0.4-0.8c0.1-0.1,0.2-0.2,0.4-0.2
						c0.8,0,1.6,0,2.5,0c0.2,0,0.3-0.1,0.4-0.3c0.3-0.6,0.5-1.1,0.8-1.6c0.1-0.3,0.3-0.4,0.6-0.4c0.7,0,0.8,0,0.4,0.7
						c-0.6,1.3-1.2,2.5-1.8,3.8c-0.1,0.2-0.1,0.3,0,0.5c0.2,0.4,0.5,0.9,0.7,1.4c0.1,0.1,0.1,0.3,0.1,0.4c-0.3,0-0.7,0-1,0
						c-0.3-0.6-0.6-1.3-0.9-1.9c0-0.1-0.2-0.2-0.3-0.2c-1.7,0-3.5,0-5.2,0c-0.2,0-0.3,0.1-0.4,0.3c-0.3,0.6-0.6,1.2-0.9,1.8
						C5.7-17.7,5.4-17.7,5.1-17.7z M11.1-20.8c0.5,0,1.1,0,1.6,0c0.6,0,0.6,0,0.8-0.7c-0.5,0-1,0-1.6,0
						C11.3-21.4,11.3-21.4,11.1-20.8z"/>
					<path class="st0" d="M8.6-17.7c-0.2-0.2-0.3-0.4-0.3-0.7c0-0.3,0-0.6,0-0.9c0.3,0,0.6,0,0.9,0c-0.1,0.5,0.3,1.1-0.3,1.5
						C8.8-17.7,8.7-17.7,8.6-17.7z"/>
					<path class="st0" d="M8.9-34.2c0.5,0.3,0.3,0.7,0.3,1.1c-0.3,0-0.6,0-0.9,0c0-0.4-0.2-0.8,0.3-1.1C8.7-34.2,8.8-34.2,8.9-34.2z
						"/>
					<path class="st0" d="M14.5-27.8c-1.2-1-2.3-1-3.4-0.1c-1.5-1.2-3.1-1.2-4.7,0c-1.1-1-2.2-1-3.4,0c-0.2-0.4,0-0.7,0-1
						c0.3-1.3,1.2-2.2,2.3-2.9c2.3-1.3,5.3-1.2,7.4,0.4c1,0.8,1.7,1.8,1.8,3.2C14.5-28.1,14.5-28,14.5-27.8z"/>
					<path class="st0" d="M9.2-21.3c-0.3,0-0.6,0-0.9,0c0-0.1,0-0.3,0-0.4c0-2.1,0-4.1,0-6.2c0-0.4,0.1-0.4,0.5-0.4
						c0.3,0,0.5,0,0.5,0.4c0,2.1,0,4.1,0,6.2C9.2-21.5,9.2-21.4,9.2-21.3z"/>
				</g>
			</g>
		</g>
		<g>
			<path class="st1" d="M9.7,63.9H9.5c0,0,0,0,0,0v1C9.5,65.5,9,66,8.4,66H3.5c-0.7,0-1.3,0.6-1.3,1.3v1.3v0.3v0v4.1
				c0,0.8,0.6,1.4,1.4,1.4h0c0.6,0,1.1-0.5,1.1-1.1v-4.3v-0.4h0.9l1.7-1.1l1.6-1.1c0.4-0.3,0.9-0.3,1.3,0l1.6,1.1l1.7,1.1h0.9v0.4
				v4.3c0,0.6,0.5,1.1,1.1,1.1h0c0.8,0,1.4-0.6,1.4-1.4v-4.1v0v-0.3v-1.3c0-0.7-0.6-1.3-1.3-1.3h-6v-1.2H11v-0.9H9.7L9.7,63.9
				C9.7,63.9,9.7,63.9,9.7,63.9L9.7,63.9z M14,74.5h-1v-2.9c0,0,0,0,0,0c0,0,0,0,0-0.1c0-0.5-0.4-0.9-0.9-0.9
				c-0.5,0-0.9,0.4-0.9,0.9c0,0,0,0,0,0.1c0,0,0,0,0,0v2.9h-0.6v-2.9c0,0,0,0,0,0c0,0,0,0,0-0.1c0-0.5-0.4-0.9-0.9-0.9
				s-0.9,0.4-0.9,0.9c0,0,0,0,0,0.1c0,0,0,0,0,0v2.9H8v-2.9c0,0,0,0,0,0c0,0,0,0,0-0.1c0-0.5-0.4-0.9-0.9-0.9
				c-0.5,0-0.9,0.4-0.9,0.9c0,0,0,0,0,0.1c0,0,0,0,0,0v2.9h-1v-4.3c0-0.6,0.5-1.1,1.1-1.1h6.6c0.6,0,1.1,0.5,1.1,1.1V74.5z
				 M9.6,66.5l1.5,1l1.5,1h-3h-3l1.5-1L9.6,66.5z"/>
			
				<text transform="matrix(1 0 0 1 1.6262 73.3151)" style="font-family:'Averta-Regular'; font-size:10.4831px; letter-spacing:2;">    - SCHOOL</text>
		</g>
		<g>
			<g>
				<g>
					<g>
						<path class="st0" d="M11.2,6.4c0,0.1,0,0.3,0,0.4c0,0.1-0.1,0.3-0.1,0.4c-0.1,0.3-0.3,0.6-0.5,0.9c-0.1,0.1-0.2,0.2-0.3,0.3
							C10,8.6,9.7,8.8,9.4,8.9C9.3,9,9.2,9,9,9c-0.2,0-0.3,0.1-0.5,0.1c-0.2,0-0.3,0-0.5,0C7.9,9,7.8,9,7.6,9C7.3,8.8,7,8.7,6.8,8.5
							C6.7,8.4,6.6,8.3,6.5,8.2C6.3,7.9,6.1,7.7,6,7.3c0-0.1-0.1-0.3-0.1-0.4c0-0.2,0-0.3,0-0.5c0-0.2,0-0.3,0-0.5
							C5.9,5.8,6,5.7,6,5.6C6.1,5.3,6.3,5,6.5,4.7c0.1-0.1,0.2-0.2,0.3-0.3C7,4.2,7.3,4.1,7.6,4c0.1,0,0.3-0.1,0.4-0.1
							c0.2,0,0.3-0.1,0.5-0.1c0.2,0,0.3,0,0.4,0c0.1,0,0.3,0.1,0.4,0.1C9.6,4,9.9,4.2,10.2,4.4c0.1,0.1,0.2,0.2,0.3,0.3
							c0.2,0.2,0.4,0.5,0.5,0.8c0,0.1,0.1,0.3,0.1,0.4C11.1,6.1,11.2,6.3,11.2,6.4z"/>
						<g>
							<path class="st0" d="M13.5,7c-0.6,0-0.8-0.6-1-1c-0.1-0.2-0.2-0.4-0.4-0.5c0.2-0.2,0.4-0.4,0.6-0.6c0.1-0.2,0.3-0.4,0.4-0.6
								c-0.5,0.3-1-0.1-1.4-0.3c-0.2-0.1-0.4-0.2-0.6-0.2c0.1-0.3,0.2-0.5,0.2-0.8c0-0.2,0-0.5,0.1-0.7c-0.3,0.5-0.9,0.4-1.4,0.4
								c-0.2,0-0.4,0-0.6,0.1c0-0.3-0.1-0.5-0.2-0.8C9.2,1.8,9.1,1.6,9,1.4c0,0.6-0.6,0.8-1,1C7.9,2.5,7.7,2.7,7.6,2.8
								C7.4,2.6,7.2,2.4,7,2.2C6.8,2.1,6.6,2,6.4,1.8c0.3,0.5-0.1,1-0.3,1.4C6,3.4,5.9,3.6,5.9,3.7C5.7,3.6,5.4,3.6,5.1,3.5
								c-0.2,0-0.5,0-0.7-0.1c0.5,0.3,0.4,0.9,0.4,1.4c0,0.2,0,0.4,0.1,0.6c-0.3,0-0.5,0.1-0.8,0.2C3.9,5.7,3.7,5.9,3.5,5.9
								c0.6,0,0.8,0.6,1,1C4.6,7,4.7,7.2,4.9,7.3C4.7,7.5,4.5,7.7,4.3,7.9C4.2,8.1,4,8.3,3.9,8.5c0.5-0.3,1,0.1,1.4,0.3
								C5.5,8.9,5.6,9,5.8,9C5.7,9.3,5.6,9.5,5.6,9.8c0,0.2,0,0.5-0.1,0.7c0.3-0.5,0.9-0.4,1.4-0.4c0.2,0,0.4,0,0.6-0.1
								c0,0.3,0.1,0.5,0.2,0.8C7.8,11,7.9,11.2,8,11.5c0-0.6,0.6-0.8,1-1c0.2-0.1,0.4-0.2,0.5-0.4c0.2,0.2,0.4,0.4,0.6,0.6
								c0.2,0.1,0.4,0.3,0.6,0.4c-0.3-0.5,0.1-1,0.3-1.4c0.1-0.2,0.2-0.4,0.2-0.6c0.3,0.1,0.5,0.2,0.8,0.2c0.2,0,0.5,0,0.7,0.1
								c-0.5-0.3-0.4-0.9-0.4-1.4c0-0.2,0-0.4-0.1-0.6c0.3,0,0.5-0.1,0.8-0.2C13.1,7.1,13.3,7,13.5,7z M11.4,6.9
								c0,0.2-0.1,0.3-0.1,0.4C11.2,7.7,11,8,10.8,8.3c-0.1,0.1-0.2,0.2-0.3,0.3c-0.3,0.2-0.6,0.4-0.9,0.6C9.4,9.3,9.2,9.3,9.1,9.3
								c-0.2,0-0.4,0.1-0.6,0.1c-0.2,0-0.3,0-0.5,0c-0.2,0-0.3-0.1-0.4-0.1C7.2,9.1,6.9,8.9,6.6,8.7C6.5,8.6,6.4,8.5,6.3,8.4
								C6,8.1,5.9,7.8,5.7,7.4C5.7,7.3,5.6,7.1,5.6,7c0-0.2-0.1-0.4-0.1-0.6c0-0.2,0-0.4,0-0.5c0-0.2,0.1-0.3,0.1-0.4
								C5.8,5.1,6,4.8,6.3,4.6c0.1-0.1,0.2-0.2,0.3-0.3C6.8,4,7.1,3.8,7.5,3.7c0.1-0.1,0.3-0.1,0.4-0.1c0.2,0,0.4-0.1,0.6-0.1
								c0.2,0,0.3,0,0.5,0c0.1,0,0.3,0.1,0.4,0.1c0.3,0.1,0.7,0.3,0.9,0.5c0.1,0.1,0.2,0.2,0.3,0.3c0.2,0.3,0.4,0.6,0.6,0.9
								c0.1,0.1,0.1,0.3,0.1,0.4c0,0.2,0.1,0.4,0.1,0.6C11.4,6.6,11.4,6.8,11.4,6.9z"/>
						</g>
					</g>
					<g>
						<g>
							<path class="st0" d="M9.8,13.6c-1.5-0.5-2.8-1.2-4.4-1.1c-1.1,0-2.9,0.3-3.6,1.2c0.4-0.8,1.8-1.7,2.6-2
								c0.8-0.3,1.5-0.4,2.4-0.3c1.7,0.2,3.2,1.4,4.8,1.5c1.4,0.1,2.9-1.1,1.9-2.4c-0.6-0.8-1.5-1.2-2.5-1c-0.5,0.1-1.2,0.1-1.1-0.6
								c0.1-0.6,0.9-1,1.4-1.1c1.5-0.1,2.5,0.3,3.4,1.4C16.7,12.2,13,14.6,9.8,13.6z"/>
							<path class="st0" d="M15.8,10.9c-0.1,1.1-0.8,1.8-1.6,2.4c0.9-0.7,1.4-1.6,1.3-2.7c-0.2-1.1-1-2.2-1.8-3
								c-0.3-0.3-0.8-0.8-0.8-1.3c0-0.6,0.5-1,1.1-0.8c0.9,0.3,0.9,1.5,1.1,2.2C15.5,8.9,16,9.6,15.8,10.9z"/>
							<path class="st0" d="M17.4,7.1c-0.2,0.7-0.3,1-0.7,2c-0.2,0.5-0.6,1.7-0.8,2.2c0.2-1.4,0.1-1.9-0.2-2.8
								C15.2,6.5,17.9,5.2,17.4,7.1z"/>
							<path class="st0" d="M13.3,7.6c-0.6,0-2.5,0.2-2.3-0.9c0.1-0.4,0.8-0.6,1.1-0.4C12.5,6.5,12.6,7.1,13.3,7.6z"/>
							<path class="st0" d="M12.4,10.2c-0.5,0-0.8,0.7-1.2,0.6c-0.6-0.2-0.4-0.8,0-0.8C11.6,9.9,12,10,12.4,10.2z"/>
							<path class="st0" d="M16.8,9.5c0.6-0.7,1.4-0.5,1.5-1c0.2-0.6-0.5-0.8-0.8-0.5C17.3,8.3,17.1,8.9,16.8,9.5z"/>
							<path class="st0" d="M11.1,14.1c-0.5,0.1-1.1,0.3-1.6,0.3c-1,0.1-1.9-0.1-2.8-0.5c-1.5-0.6-3-0.8-4.5-0.2
								c1.3-1,3.5-1.1,5.1-0.7C8.5,13.4,8.8,13.8,11.1,14.1z"/>
						</g>
						<path class="st2" d="M14.3,11.3c-0.1,1.3-1.1,2.1-2.7,2.1c-1,0-2.1-0.5-3-0.9C7.7,12.2,7,11.9,6,11.7c-0.4,0-1.2,0-1.8,0.1
							c0,0,0.1,0,0.1-0.1c0.8-0.3,1.5-0.4,2.4-0.3c1.7,0.2,3.2,1.4,4.8,1.5c1.4,0.1,2.9-1.1,1.9-2.4c-0.6-0.8-1.5-1.2-2.5-1
							c-0.4,0.1-0.9,0.1-1-0.2c-0.3-1.1,1.7-1.1,2.6-0.7C13.7,9.1,14.4,10.1,14.3,11.3z"/>
						<path class="st2" d="M17.4,7.1c-0.2,0.7-0.3,1-0.7,2c-0.2,0.5-0.6,1.7-0.8,2.2c0.3-1.1,0.3-1.8,0.3-2.2c0-0.4,0-0.6,0-0.9
							c0-0.4,0.1-0.8,0.2-1.2C16.8,6.3,17.6,6.1,17.4,7.1z"/>
					</g>
				</g>
			</g>
			<g>
			</g>
		</g>
		<g>
			<path class="st1" d="M9.4,33.8c1,0,1.8,1.2,2.3,3c0.4-0.1,0.7-0.2,1-0.2c0.1-0.3,0.3-0.4,0.6-0.4c0.3,0,0.5,0.2,0.6,0.4
				c0.7,0.1,1.3,0.3,1.5,0.8c0.5,0.8-0.1,2.2-1.4,3.5c1.3,1.4,1.9,2.7,1.4,3.5c-0.5,0.8-1.9,1-3.8,0.5c-0.5,1.8-1.4,3-2.3,3
				c-1,0-1.8-1.2-2.4-3c-1.8,0.5-3.3,0.3-3.8-0.5c-0.5-0.8,0.1-2.2,1.4-3.5c-1.3-1.4-1.9-2.7-1.4-3.5c0.5-0.8,1.9-1,3.8-0.5
				C7.6,35,8.5,33.8,9.4,33.8L9.4,33.8z M10.9,42.7c0.1,0,0.3,0,0.4,0.1c0.3-0.2,0.5-0.3,0.7-0.5c0-0.5,0.1-1,0.1-1.5
				c0-0.5,0-1-0.1-1.5c-0.4-0.3-0.8-0.5-1.2-0.8c-0.4-0.3-0.9-0.5-1.3-0.7c-0.4,0.2-0.9,0.4-1.3,0.7c-0.4,0.3-0.9,0.5-1.2,0.8
				c0,0.5-0.1,1-0.1,1.5c0,0.5,0,1,0.1,1.5c0.4,0.3,0.8,0.6,1.2,0.8c0.4,0.3,0.9,0.5,1.3,0.7c0.3-0.1,0.5-0.3,0.8-0.4c0,0,0,0,0-0.1
				C10.2,43,10.5,42.7,10.9,42.7L10.9,42.7z M11.4,43c0.1,0.1,0.1,0.2,0.1,0.3c0,0.4-0.3,0.6-0.6,0.6c-0.2,0-0.5-0.1-0.6-0.3
				c-0.2,0.1-0.4,0.2-0.6,0.3c0.6,0.3,1.3,0.5,1.8,0.6c0.2-0.6,0.3-1.2,0.4-1.9C11.8,42.8,11.6,42.9,11.4,43L11.4,43z M6.8,37.3
				c0,0,0.1,0,0.1,0c0-0.1,0-0.2,0.1-0.2c-1.5-0.3-2.7-0.2-3.2,0.6c-0.4,0.7,0,1.9,1.1,3c0.5-0.5,1.1-0.9,1.7-1.4
				c0-0.2,0-0.5,0.1-0.7c-0.3,0-0.5-0.3-0.5-0.6C6.2,37.6,6.5,37.3,6.8,37.3L6.8,37.3z M7.2,37.4c0.1,0.1,0.2,0.3,0.2,0.5
				c0,0.3-0.2,0.5-0.5,0.6c0,0.2,0,0.3-0.1,0.5c0.3-0.2,0.7-0.5,1.1-0.7c0.4-0.2,0.8-0.4,1.1-0.6c-0.6-0.3-1.3-0.5-1.8-0.6
				C7.3,37.2,7.2,37.3,7.2,37.4L7.2,37.4z M14,37c-0.1,0.3-0.3,0.4-0.6,0.4c-0.3,0-0.6-0.2-0.6-0.5c-0.3,0-0.6,0.1-0.9,0.1
				c0.2,0.7,0.3,1.4,0.4,2.2c0.6,0.5,1.2,0.9,1.7,1.4c1.1-1.2,1.5-2.3,1.1-3C14.8,37.3,14.5,37.1,14,37L14,37z M9.4,39.8
				c0.6,0,1.1,0.5,1.1,1.1c0,0.6-0.5,1.1-1.1,1.1c-0.6,0-1.1-0.5-1.1-1.1C8.3,40.3,8.8,39.8,9.4,39.8L9.4,39.8z M7,44.7
				c-0.2-0.7-0.3-1.4-0.4-2.2C6,42,5.4,41.6,4.9,41.1c-1.1,1.2-1.5,2.3-1.1,3C4.3,44.8,5.5,45,7,44.7L7,44.7z M9.4,37.6
				c0.7-0.3,1.4-0.6,2.1-0.8c-0.5-1.5-1.2-2.5-2.1-2.5c-0.8,0-1.6,1-2.1,2.5C8,37.1,8.7,37.3,9.4,37.6L9.4,37.6z M13.9,41.1
				c-0.5,0.5-1.1,0.9-1.7,1.4c-0.1,0.8-0.2,1.5-0.4,2.2c1.5,0.3,2.7,0.2,3.2-0.6C15.4,43.4,15,42.2,13.9,41.1L13.9,41.1z M9.4,44.1
				c-0.7,0.3-1.4,0.6-2.1,0.8c0.5,1.5,1.2,2.5,2.1,2.5c0.8,0,1.6-1,2.1-2.5C10.8,44.7,10.1,44.4,9.4,44.1L9.4,44.1z M5.1,40.9
				C5.6,40.4,6,40,6.6,39.6c0,0.4,0,0.8,0,1.3c0,0.4,0,0.9,0,1.3C6,41.7,5.6,41.3,5.1,40.9L5.1,40.9z M9.7,37.8
				c0.6-0.3,1.3-0.5,1.8-0.6c0.2,0.6,0.3,1.2,0.4,1.9c-0.3-0.2-0.7-0.5-1.1-0.7C10.5,38.2,10.1,38,9.7,37.8L9.7,37.8z M13.7,40.9
				c-0.4,0.4-0.9,0.9-1.5,1.3c0-0.4,0-0.8,0-1.3c0-0.4,0-0.9,0-1.3C12.8,40,13.3,40.4,13.7,40.9L13.7,40.9z M9.1,44
				c-0.6,0.3-1.3,0.5-1.8,0.6C7.1,44,7,43.4,6.9,42.7c0.3,0.2,0.7,0.5,1.1,0.7C8.4,43.6,8.8,43.8,9.1,44L9.1,44z"/>
			
				<text transform="matrix(1 0 0 1 1.8977 42.9626)" style="font-family:'Averta-Regular'; font-size:10.4831px; letter-spacing:2;">    - SOUTHERN DELTA RESERCH</text>
		</g>
		<g>
			<path class="st0" d="M7.8,98.7l1.1,0.6l0,0l0.1,0l0,0l1.1,0.6l0,0l1.1-0.7l0,0l0.8-0.5c0,0,0-0.1,0-0.1c0-0.2,0.2-0.4,0.4-0.5
				v-0.9l0,0v-1.3l-1.1-0.7l0,0L10.5,95c-0.1,0.1-0.2,0.2-0.4,0.2c-0.1,0-0.3-0.1-0.4-0.2L9,95.4h0l-1.1,0.7v1.3V98.7z M15,102.4
				c0.2,0.1,0.3,0.2,0.3,0.4c0,0.3-0.2,0.5-0.5,0.5c-0.1,0-0.2,0-0.3-0.1l-0.8,0.5v0l-1.1,0.6v1.3v1.3h-0.2v-1.3v-1.3l-1.1-0.6v0
				l-0.8-0.5c-0.1,0.1-0.2,0.2-0.3,0.2c-0.1,0-0.2-0.1-0.3-0.1l-0.8,0.4l0,0v0l-1.1,0.6v1.3v1.3H7.5v-1.3v-1.3l-1.1-0.6v0l-0.8-0.5
				c-0.1,0.1-0.2,0.1-0.3,0.1c-0.3,0-0.5-0.2-0.5-0.5c0-0.2,0.1-0.4,0.4-0.5v-0.9v-1.3l-1.1-0.6l0,0l-1.2-0.7l-0.1,0h0.5l0.9,0.5
				l0,0l1.1,0.6l1.1-0.6l0,0l1.2-0.7v-1.3V96l-1.1-0.7l0,0l-1.1-0.6v-0.3l0.1,0l1.2,0.7l0,0l1.2,0.7l1.1-0.6l0,0l0.8-0.4
				c0,0,0-0.1,0-0.1c0-0.3,0.2-0.5,0.5-0.5c0.3,0,0.5,0.2,0.5,0.5c0,0,0,0,0,0.1l0.8,0.5l0,0l1.1,0.7l1.1-0.7l0,0l1.2-0.7l0.1,0v0.3
				l-1.1,0.7l0,0l-1.1,0.7v1.3l0,0v0.9c0.2,0.1,0.3,0.2,0.3,0.4c0,0.1,0,0.1,0,0.1l0.8,0.4l0.1,0l0,0l1.1,0.7l1.1-0.7l0,0l1-0.6
				l0.4,0.1l-1.3,0.7l0,0l-1.2,0.7v1.2V102.4z M14.4,103c0,0,0-0.1,0-0.1c0-0.2,0.2-0.4,0.4-0.5v-0.9v-1.3l0,0l-1.1-0.6l-0.1,0h0
				l-0.8-0.4c-0.1,0.1-0.2,0.1-0.3,0.1c-0.1,0-0.2,0-0.3-0.1l-0.8,0.5l0,0l-1.2,0.7v1.2v0.9c0.2,0.1,0.3,0.2,0.3,0.4
				c0,0,0,0.1,0,0.1l0.8,0.5l0,0l1.1,0.7l1.1-0.7h0L14.4,103z M5.4,102.4c0.2,0.1,0.3,0.2,0.3,0.5c0,0,0,0.1,0,0.1l0.8,0.5l0,0
				l1.1,0.7l1.1-0.7l0,0l0,0l0.8-0.5c0,0,0-0.1,0-0.1c0-0.2,0.2-0.4,0.4-0.5v-0.9v-1.3l-1.1-0.6l0,0l-0.1,0l-1.1-0.6l-1.1,0.6l0,0
				l-1.2,0.7v1.3V102.4z"/>
			
				<text transform="matrix(1 0 0 1 1.6262 103.8112)" style="font-family:'Averta-Regular'; font-size:10.4831px; letter-spacing:2;">    - CUTURAL FACILITY</text>
		</g>
		<g>
			<g>
				<g>
					<g>
						<rect x="7.6" y="134.5" class="st0" width="0.4" height="0.6"/>
						<rect x="7.6" y="134.3" class="st0" width="0.4" height="0.2"/>
						<rect x="7.7" y="130.9" class="st0" width="0.3" height="3.6"/>
					</g>
					<g>
						<rect x="8.4" y="134.5" class="st0" width="0.4" height="0.6"/>
						<rect x="8.5" y="134.3" class="st0" width="0.4" height="0.2"/>
						<rect x="8.5" y="130.9" class="st0" width="0.3" height="3.6"/>
					</g>
					<g>
						<rect x="9.3" y="134.5" class="st0" width="0.4" height="0.6"/>
						<rect x="9.3" y="134.3" class="st0" width="0.4" height="0.2"/>
						<rect x="9.3" y="130.9" class="st0" width="0.3" height="3.6"/>
					</g>
					<g>
						<rect x="10.1" y="134.5" class="st0" width="0.4" height="0.6"/>
						<rect x="10.1" y="134.3" class="st0" width="0.4" height="0.2"/>
						<rect x="10.2" y="130.9" class="st0" width="0.3" height="3.6"/>
					</g>
					<g>
						<rect x="11" y="134.5" class="st0" width="0.4" height="0.6"/>
						<rect x="11" y="134.3" class="st0" width="0.4" height="0.2"/>
						<rect x="11" y="130.9" class="st0" width="0.3" height="3.6"/>
					</g>
					<g>
						<rect x="11.8" y="134.5" class="st0" width="0.4" height="0.6"/>
						<rect x="11.8" y="134.3" class="st0" width="0.4" height="0.2"/>
						<rect x="11.9" y="130.9" class="st0" width="0.3" height="3.6"/>
					</g>
					<rect x="7.5" y="134.9" class="st0" width="4.8" height="0.7"/>
					<rect x="7" y="135.4" class="st0" width="5.7" height="0.8"/>
					<rect x="7.5" y="126.9" class="st0" width="0" height="0.2"/>
					<path class="st0" d="M7.8,130.1l-1.5-0.1v-0.5H6.1v0.5H5.5v-0.5H5.3v0.5H4.7v-0.5H4.4v0.5H3.8v-0.5H3.6v0.5H2.9v-1.6l0.2-0.6
						H2.8v-0.3H1.6v0H0.6v0.3H0.2l0.2,0.6v7.8h1.2h0.1h6.1L7.8,130.1z M1.5,128.4c0-0.1,0.1-0.3,0.2-0.3c0.1,0,0.2,0.1,0.2,0.3v0.6
						H1.5V128.4z M1.1,128.4c0-0.1,0.1-0.3,0.2-0.3s0.2,0.1,0.2,0.3v0.6H1.1V128.4z M2.2,134.8H1v-2.6c0-0.5,0.3-0.9,0.6-0.9
						c0.3,0,0.6,0.4,0.6,0.9V134.8z M2.4,129.2L2.4,129.2l0-0.2H2v-0.6c0-0.1,0.1-0.3,0.2-0.3s0.2,0.1,0.2,0.3V129.2z M3.5,134.8
						H3.1v-1.5c0-0.2,0.1-0.4,0.2-0.4s0.2,0.2,0.2,0.4V134.8z M3.5,131.7v0.8H3.1v-0.8H3l0.3-0.4L3.5,131.7L3.5,131.7z M4.4,134.8
						H3.9v-1.5c0-0.2,0.1-0.4,0.2-0.4c0.1,0,0.2,0.2,0.2,0.4V134.8z M4.4,131.7v0.8H3.9v-0.8H3.8l0.3-0.4L4.4,131.7L4.4,131.7z
						 M5.2,134.8H4.7v-1.5c0-0.2,0.1-0.4,0.2-0.4c0.1,0,0.2,0.2,0.2,0.4V134.8z M5.2,131.7v0.8H4.7v-0.8H4.7l0.3-0.4L5.2,131.7
						L5.2,131.7z M6,134.8H5.5v-1.5c0-0.2,0.1-0.4,0.2-0.4c0.1,0,0.2,0.2,0.2,0.4V134.8z M6,131.7v0.8H5.5v-0.8H5.5l0.3-0.4L6,131.7
						L6,131.7z M6.8,134.8H6.4v-1.5c0-0.2,0.1-0.4,0.2-0.4c0.1,0,0.2,0.2,0.2,0.4V134.8z M6.8,131.7v0.8H6.4v-0.8H6.3l0.3-0.4
						L6.8,131.7L6.8,131.7z"/>
					<path class="st0" d="M11.9,136.2H18H18h1.2v-7.8l0.2-0.6h-0.3v-0.3H18v0h-1.1v0.3h-0.3l0.2,0.6v1.6h-0.7v-0.5h-0.2v0.5h-0.6
						v-0.5H15v0.5h-0.6v-0.5h-0.2v0.5h-0.6v-0.5h-0.2v0.5l-1.5,0.1L11.9,136.2z M18.1,129h-0.3v-0.6c0-0.1,0.1-0.3,0.2-0.3
						s0.2,0.1,0.2,0.3V129z M18.6,129h-0.3v-0.6c0-0.1,0.1-0.3,0.2-0.3s0.2,0.1,0.2,0.3V129z M17.5,132.2c0-0.5,0.3-0.9,0.6-0.9
						c0.3,0,0.6,0.4,0.6,0.9v2.6h-1.1V132.2z M17.3,128.4c0-0.1,0.1-0.3,0.2-0.3s0.2,0.1,0.2,0.3v0.6h-0.3v0.2h0V128.4z M16.1,133.3
						c0-0.2,0.1-0.4,0.2-0.4c0.1,0,0.2,0.2,0.2,0.4v1.5h-0.5V133.3z M16.1,131.7l0.3-0.4l0.3,0.4h-0.1v0.8h-0.5L16.1,131.7
						L16.1,131.7z M15.3,133.3c0-0.2,0.1-0.4,0.2-0.4c0.1,0,0.2,0.2,0.2,0.4v1.5h-0.5V133.3z M15.2,131.7l0.3-0.4l0.3,0.4h-0.1v0.8
						h-0.5L15.2,131.7L15.2,131.7z M14.5,133.3c0-0.2,0.1-0.4,0.2-0.4c0.1,0,0.2,0.2,0.2,0.4v1.5h-0.5V133.3z M14.4,131.7l0.3-0.4
						l0.3,0.4H15v0.8h-0.5L14.4,131.7L14.4,131.7z M13.6,133.3c0-0.2,0.1-0.4,0.2-0.4c0.1,0,0.2,0.2,0.2,0.4v1.5h-0.5V133.3z
						 M13.6,131.7l0.3-0.4l0.3,0.4h-0.1v0.8h-0.5L13.6,131.7L13.6,131.7z M12.8,133.3c0-0.2,0.1-0.4,0.2-0.4c0.1,0,0.2,0.2,0.2,0.4
						v1.5h-0.5V133.3z M12.8,131.7l0.3-0.4l0.3,0.4h-0.1v0.8h-0.5L12.8,131.7L12.8,131.7z"/>
					<path class="st0" d="M11.9,129c0-1.6-0.9-3-2-3c-1.1,0-2,1.3-2,3H11.9z"/>
					<g>
						<rect x="1.6" y="125.8" class="st0" width="0.1" height="1.7"/>
						<path class="st0" d="M2.6,125.9c-0.3-0.4-0.6,0.4-0.9,0c0,0.3,0,0.6,0,0.9c0.3,0.4,0.6-0.4,0.9,0
							C2.6,126.5,2.6,126.2,2.6,125.9z"/>
					</g>
					<g>
						<rect x="17.8" y="125.8" class="st0" width="0.1" height="1.7"/>
						<path class="st0" d="M18.9,125.9c-0.3-0.4-0.6,0.4-0.9,0c0,0.3,0,0.6,0,0.9c0.3,0.4,0.6-0.4,0.9,0
							C18.9,126.5,18.9,126.2,18.9,125.9z"/>
					</g>
					<path class="st0" d="M12.5,128.9v-0.3l-0.1-0.2v-0.6l0.1-0.1l-0.2-0.1v-0.2h-0.1v-0.1c0-0.1,0-0.2-0.1-0.2s-0.1,0.1-0.1,0.2
						v0.1H12v0.2l-0.2,0.1l0.1,0.1v0.6l-0.1,0.2v0.3h-1.4v-0.2l0.2-0.2v-0.2H9.8h0H9.1v0.2l0.2,0.2v0.2H7.8v-0.3l-0.1-0.2v-0.6
						l0.1-0.1l-0.2-0.1v-0.2H7.6v-0.1c0-0.1,0-0.2-0.1-0.2c-0.1,0-0.1,0.1-0.1,0.2v0.1H7.4v0.2l-0.2,0.1l0.1,0.1v0.6l-0.1,0.2v0.3
						H6.8v1.6h0.6v0.2h0.2v0.4h2.3h0h2.3v-0.4h0.2v-0.2h0.6v-1.6H12.5z M11.8,130.5v0.2H7.9v-0.2l0-0.1l2-1.3l2,1.3L11.8,130.5z"/>
				</g>
			</g>
			
				<text transform="matrix(1 0 0 1 1.6262 133.9753)" style="font-family:'Averta-Regular'; font-size:10.4831px; letter-spacing:2;">    - CITY HALL</text>
		</g>
	</g>
	<g>
		<g>
			
				<text transform="matrix(1 0 0 1 -19.7273 -310.5833)" style="fill:#231F20; font-family:'HelveticaNeue-Bold'; font-size:8.41px;">1</text>
		</g>
		<circle class="st3" cx="-17.1" cy="-313.5" r="5.2"/>
	</g>
	<g>
		<g>
			
				<text transform="matrix(1 0 0 1 -19.7273 -280.2083)" style="fill:#231F20; font-family:'HelveticaNeue-Bold'; font-size:8.41px;">2</text>
		</g>
		<circle class="st3" cx="-17.1" cy="-283.1" r="5.2"/>
	</g>
	<g>
		<g>
			
				<text transform="matrix(1 0 0 1 -19.7273 -249.8343)" style="fill:#231F20; font-family:'HelveticaNeue-Bold'; font-size:8.41px;">3</text>
		</g>
		<circle class="st3" cx="-17.1" cy="-252.7" r="5.2"/>
	</g>
	<g>
		<g>
			
				<text transform="matrix(1 0 0 1 -19.7273 -217.7796)" style="fill:#231F20; font-family:'HelveticaNeue-Bold'; font-size:8.41px;">4</text>
		</g>
		<circle class="st3" cx="-17.1" cy="-220.7" r="5.2"/>
	</g>
	<g>
		<g>
			
				<text transform="matrix(1 0 0 1 -19.7273 -185.7229)" style="fill:#231F20; font-family:'HelveticaNeue-Bold'; font-size:8.41px;">5</text>
		</g>
		<circle class="st3" cx="-17.1" cy="-188.6" r="5.2"/>
	</g>
	<g>
		<g>
			
				<text transform="matrix(1 0 0 1 -19.7273 -155.347)" style="fill:#231F20; font-family:'HelveticaNeue-Bold'; font-size:8.41px;">6</text>
		</g>
		<circle class="st3" cx="-17.1" cy="-158.2" r="5.2"/>
	</g>
	<g>
		<g>
			
				<text transform="matrix(1 0 0 1 -19.7273 -121.6097)" style="fill:#231F20; font-family:'HelveticaNeue-Bold'; font-size:8.41px;">7</text>
		</g>
		<circle class="st3" cx="-17.1" cy="-124.5" r="5.2"/>
	</g>
	<g>
		<g>
			
				<text transform="matrix(1 0 0 1 -19.7273 -91.2356)" style="fill:#231F20; font-family:'HelveticaNeue-Bold'; font-size:8.41px;">8</text>
		</g>
		<circle class="st3" cx="-17.1" cy="-94.1" r="5.2"/>
	</g>
	<g>
		<g>
			
				<text transform="matrix(1 0 0 1 -19.7273 -56.2855)" style="fill:#231F20; font-family:'HelveticaNeue-Bold'; font-size:8.41px;">9</text>
		</g>
		<circle class="st3" cx="-17.1" cy="-59.2" r="5.2"/>
	</g>
	<g>
		<g>
			
				<text transform="matrix(1 0 0 1 -22.2928 -21.3353)" style="fill:#231F20; font-family:'HelveticaNeue-Bold'; font-size:8.41px;">10</text>
		</g>
		<circle class="st3" cx="-17.1" cy="-24.2" r="5.2"/>
	</g>
	<g>
		<g>
			<text transform="matrix(1 0 0 1 -21.6902 13.613)" style="fill:#231F20; font-family:'HelveticaNeue-Bold'; font-size:8.41px;">11</text>
		</g>
		<circle class="st3" cx="-17.1" cy="10.7" r="5.2"/>
	</g>
	<g>
		<g>
			<text transform="matrix(1 0 0 1 -22.2928 45.1989)" style="fill:#231F20; font-family:'HelveticaNeue-Bold'; font-size:8.41px;">12</text>
		</g>
		<circle class="st3" cx="-17.1" cy="42.3" r="5.2"/>
	</g>
	<g>
		<g>
			<text transform="matrix(1 0 0 1 -22.2938 73.4216)" style="fill:#231F20; font-family:'HelveticaNeue-Bold'; font-size:8.41px;">13</text>
		</g>
		<circle class="st3" cx="-17.1" cy="70.5" r="5.2"/>
	</g>
	<g>
		<g>
			
				<text transform="matrix(1 0 0 1 -21.6902 103.3239)" style="fill:#231F20; font-family:'HelveticaNeue-Bold'; font-size:8.41px;">14</text>
		</g>
		<circle class="st3" cx="-17.1" cy="100.4" r="5.2"/>
	</g>
	<g>
		<g>
			
				<text transform="matrix(1 0 0 1 -22.2928 134.9108)" style="fill:#231F20; font-family:'HelveticaNeue-Bold'; font-size:8.41px;">15</text>
		</g>
		<circle class="st3" cx="-17.1" cy="132" r="5.2"/>
	</g>
</g>
</svg>
